logger initialized





****************
Battery voltage raw: 2120, real: 8.48V
.Test params: step 0.010000, total time 2.000000, motor angular speed 0.100000
time_seconds, velocity_linear, velocity_angular
0.000000, 0.000000, 0.00000
0.010000, 0.018609, 1.860870
0.020000, 0.000000, 1.395653
0.030000, -0.009304, 2.093479
0.040000, 0.000000, 2.326088
0.050000, 0.009304, 2.558696
0.060000, 0.009304, 2.558696
0.070000, 0.000000, 2.791305
0.080000, 0.000000, 2.791305
0.090000, 0.000000, 2.791305
0.100000, 0.000000, 3.256523
0.110000, 0.009304, 3.023914
0.120000, -0.009304, 3.023914
0.130000, 0.009304, 3.023914
0.140000, 0.000000, 3.256523
0.150000, 0.000000, 2.791305
0.160000, -0.009304, 3.023914
0.170000, 0.009304, 3.023914
0.180000, 0.000000, 3.256523
0.190000, 0.009304, 3.023914
0.200000, -0.009304, 3.023914
0.210000, 0.009304, 3.023914
0.220000, 0.000000, 3.256523
0.230000, 0.009304, 3.023914
0.240000, -0.009304, 3.023914
0.250000, 0.000000, 3.256523
0.260000, 0.009304, 3.023914
0.270000, -0.009304, 3.023914
0.280000, 0.009304, 3.023914
0.290000, 0.000000, 3.256523
0.300000, -0.009304, 3.023914
0.310000, 0.009304, 3.023914
0.320000, 0.000000, 3.256523
0.330000, 0.000000, 2.791305
0.340000, 0.000000, 3.256523
0.350000, 0.009304, 3.023914
0.360000, -0.009304, 3.023914
0.370000, 0.009304, 3.023914
0.380000, -0.009304, 3.023914
0.390000, 0.000000, 3.256523
0.400000, 0.009304, 3.023914
0.410000, -0.009304, 3.023914
0.420000, 0.009304, 3.023914
0.430000, -0.009304, 3.023914
0.440000, 0.000000, 3.256523
0.450000, 0.009304, 3.023914
0.460000, 0.000000, 3.256523
0.470000, 0.000000, 2.791305
0.480000, 0.000000, 3.256523
0.490000, 0.000000, 2.791305
0.500000, 0.000000, 3.256523
0.510000, 0.009304, 3.023914
0.520000, -0.009304, 3.023914
0.530000, 0.009304, 3.023914
0.540000, -0.009304, 3.023914
0.550000, 0.000000, 3.256523
0.560000, 0.000000, 2.791305
0.570000, 0.000000, 3.256523
0.580000, 0.009304, 3.023914
0.590000, -0.009304, 3.023914
0.600000, 0.000000, 3.256523
0.610000, 0.000000, 3.256523
0.620000, 0.000000, 2.791305
0.630000, 0.000000, 3.256523
0.640000, 0.000000, 2.791305
0.650000, 0.000000, 3.256523
0.660000, 0.000000, 3.256523
0.670000, 0.000000, 2.791305
0.680000, 0.000000, 3.256523
0.690000, 0.000000, 3.256523
0.700000, 0.000000, 2.791305
0.710000, 0.000000, 3.256523
0.720000, 0.000000, 3.256523
0.730000, 0.009304, 3.023914
0.740000, -0.009304, 3.023914
0.750000, 0.000000, 3.256523
0.760000, 0.000000, 2.791305
0.770000, 0.000000, 3.256523
0.780000, 0.000000, 3.256523
0.790000, -0.009304, 3.023914
0.800000, 0.009304, 3.023914
0.810000, -0.009304, 3.023914
0.820000, 0.000000, 3.256523
0.830000, 0.009304, 3.023914
0.840000, -0.009304, 3.023914
0.850000, 0.000000, 3.256523
0.860000, 0.000000, 2.791305
0.870000, 0.000000, 3.256523
0.880000, 0.000000, 2.791305
0.890000, 0.000000, 3.256523
0.900000, -0.009304, 3.023914
0.910000, 0.009304, 3.023914
0.920000, 0.000000, 3.256523
0.930000, 0.000000, 2.791305
0.940000, 0.000000, 3.256523
0.950000, 0.000000, 3.256523
0.960000, -0.009304, 3.023914
0.970000, 0.000000, 3.256523
0.980000, 0.000000, 2.791305
0.990000, 0.000000, 3.256523
1.000000, 0.000000, 3.256523
---------- decelerate
1.010000, 0.000000, 2.326088
1.020000, 0.000000, 1.395653
1.030000, -0.009304, 0.697826
1.040000, 0.000000, 0.465218
1.050000, 0.000000, 0.000000
1.060000, 0.009304, -0.232609
1.070000, -0.009304, -0.232609
1.080000, 0.000000, 0.000000
1.090000, 0.000000, 0.000000
1.100000, 0.000000, 0.000000
1.110000, 0.000000, 0.000000
1.120000, 0.000000, 0.000000
1.130000, 0.000000, 0.000000
1.140000, 0.000000, 0.000000
1.150000, 0.000000, 0.000000
1.160000, 0.000000, 0.000000
1.170000, 0.000000, 0.000000
1.180000, 0.000000, 0.000000
1.190000, 0.000000, 0.000000
1.200000, 0.000000, 0.000000
1.210000, 0.000000, 0.000000
1.220000, 0.000000, 0.000000
1.230000, 0.000000, 0.000000
1.240000, 0.000000, 0.000000
1.250000, 0.000000, 0.000000
1.260000, 0.000000, 0.000000
1.270000, 0.000000, 0.000000
1.280000, 0.000000, 0.000000
1.290000, 0.000000, 0.000000
1.300000, 0.000000, 0.000000
1.310000, 0.000000, 0.000000
1.320000, 0.000000, 0.000000
1.330000, 0.000000, 0.000000
1.340000, 0.000000, 0.000000
1.350000, 0.000000, 0.000000
1.360000, 0.000000, 0.000000
1.370000, 0.000000, 0.000000
1.380000, 0.000000, 0.000000
1.390000, 0.000000, 0.000000
1.400000, 0.000000, 0.000000
1.410000, 0.000000, 0.000000
1.420000, 0.000000, 0.000000
1.430000, 0.000000, 0.000000
1.440000, 0.000000, 0.000000
1.450000, 0.000000, 0.000000
1.460000, 0.000000, 0.000000
1.470000, 0.000000, 0.000000
1.480000, 0.000000, 0.000000
1.490000, 0.000000, 0.000000
1.500000, 0.000000, 0.000000
1.510000, 0.000000, 0.000000
1.520000, 0.000000, 0.000000
1.530000, 0.000000, 0.000000
1.540000, 0.000000, 0.000000
1.550000, 0.000000, 0.000000
1.560000, 0.000000, 0.000000
1.570000, 0.000000, 0.000000
1.580000, 0.000000, 0.000000
1.590000, 0.000000, 0.000000
1.600000, 0.000000, 0.000000
1.610000, 0.000000, 0.000000
1.620000, 0.000000, 0.000000
1.630000, 0.000000, 0.000000
1.640000, 0.000000, 0.000000
1.650000, 0.000000, 0.000000
1.660000, 0.000000, 0.000000
1.670000, 0.000000, 0.000000
1.680000, 0.000000, 0.000000
1.690000, 0.000000, 0.000000
1.700000, 0.000000, 0.000000
1.710000, 0.000000, 0.000000
1.720000, 0.000000, 0.000000
1.730000, 0.000000, 0.000000
1.740000, 0.000000, 0.000000
1.750000, 0.000000, 0.000000
1.760000, 0.000000, 0.000000
1.770000, 0.000000, 0.000000
1.780000, 0.000000, 0.000000
1.790000, 0.000000, 0.000000
1.800000, 0.000000, 0.000000
1.810000, 0.000000, 0.000000
1.820000, 0.000000, 0.000000
1.830000, 0.000000, 0.000000
1.840000, 0.000000, 0.000000
1.850000, 0.000000, 0.000000
1.860000, 0.000000, 0.000000
1.870000, 0.000000, 0.000000
1.880000, 0.000000, 0.000000
1.890000, 0.000000, 0.000000
1.900000, 0.000000, 0.000000
1.910000, 0.000000, 0.000000
1.920000, 0.000000, 0.000000
1.930000, 0.000000, 0.000000
1.940000, 0.000000, 0.000000
1.950000, 0.000000, 0.000000
1.960000, 0.000000, 0.000000
1.970000, 0.000000, 0.000000
1.980000, 0.000000, 0.000000
1.990000, 0.000000, 0.000000
Test params: step 0.010000, total time 2.000000, motor angular speed 0.200000
time_seconds, velocity_linear, velocity_angular
0.000000, 0.000000, 0.00000
0.010000, -0.009304, 5.350001
0.020000, -0.009304, 3.954349
0.030000, 0.000000, 4.652175
0.040000, 0.000000, 5.117393
0.050000, 0.000000, 5.582610
0.060000, 0.009304, 5.815219
0.070000, -0.009304, 6.280436
0.080000, 0.009304, 6.280436
0.090000, 0.000000, 6.513045
0.100000, 0.009304, 6.745654
0.110000, -0.009304, 6.745654
0.120000, 0.009304, 6.745654
0.130000, 0.000000, 6.978263
0.140000, 0.000000, 6.978263
0.150000, 0.000000, 6.978263
0.160000, 0.009304, 6.745654
0.170000, 0.000000, 6.978263
0.180000, -0.009304, 6.745654
0.190000, 0.009304, 7.210871
0.200000, 0.009304, 6.745654
0.210000, 0.000000, 6.978263
0.220000, 0.000000, 6.978263
0.230000, 0.000000, 6.978263
0.240000, 0.000000, 6.978263
0.250000, 0.009304, 6.745654
0.260000, 0.000000, 6.978263
0.270000, 0.000000, 6.978263
0.280000, 0.000000, 6.978263
0.290000, 0.000000, 6.978263
0.300000, 0.009304, 6.745654
0.310000, 0.009304, 7.210871
0.320000, 0.000000, 6.978263
0.330000, 0.000000, 6.978263
0.340000, 0.000000, 6.978263
0.350000, 0.000000, 6.978263
0.360000, 0.000000, 6.978263
0.370000, 0.009304, 6.745654
0.380000, 0.000000, 6.978263
0.390000, 0.000000, 6.978263
0.400000, 0.009304, 6.745654
0.410000, 0.009304, 7.210871
0.420000, 0.000000, 6.978263
0.430000, 0.000000, 6.978263
0.440000, 0.018609, 6.978263
0.450000, 0.000000, 6.978263
0.460000, 0.000000, 6.978263
0.470000, 0.000000, 6.978263
0.480000, 0.000000, 6.978263
0.490000, 0.000000, 6.978263
0.500000, 0.009304, 6.745654
0.510000, 0.000000, 6.978263
0.520000, 0.000000, 6.978263
0.530000, 0.000000, 6.978263
0.540000, 0.000000, 6.978263
0.550000, 0.018609, 6.978263
0.560000, 0.000000, 6.978263
0.570000, 0.000000, 6.978263
0.580000, 0.000000, 6.978263
0.590000, 0.000000, 6.978263
0.600000, 0.000000, 6.978263
0.610000, 0.000000, 6.978263
0.620000, 0.009304, 6.745654
0.630000, 0.000000, 6.978263
0.640000, 0.000000, 6.978263
0.650000, 0.009304, 6.745654
0.660000, 0.000000, 6.978263
0.670000, 0.000000, 6.978263
0.680000, 0.000000, 6.978263
0.690000, 0.000000, 6.978263
0.700000, 0.000000, 6.978263
0.710000, 0.000000, 6.978263
0.720000, 0.000000, 6.978263
0.730000, 0.000000, 6.978263
0.740000, 0.009304, 6.745654
0.750000, 0.000000, 6.978263
0.760000, 0.000000, 6.978263
0.770000, 0.000000, 6.978263
0.780000, 0.000000, 6.978263
0.790000, 0.000000, 6.978263
0.800000, 0.000000, 6.978263
0.810000, 0.009304, 6.745654
0.820000, 0.000000, 6.978263
0.830000, 0.000000, 6.978263
0.840000, 0.000000, 6.978263
0.850000, 0.009304, 7.210871
0.860000, 0.000000, 6.978263
0.870000, 0.000000, 6.978263
0.880000, 0.000000, 6.978263
0.890000, 0.000000, 6.978263
0.900000, 0.000000, 6.978263
0.910000, 0.000000, 6.978263
0.920000, 0.000000, 6.978263
0.930000, 0.000000, 6.978263
0.940000, 0.000000, 6.978263
0.950000, 0.000000, 6.978263
0.960000, 0.000000, 6.978263
0.970000, 0.000000, 6.978263
0.980000, 0.000000, 6.978263
0.990000, 0.000000, 6.978263
1.000000, 0.000000, 6.978263
---------- decelerate
1.010000, 0.000000, 5.582610
1.020000, 0.000000, 3.256523
1.030000, 0.000000, 2.326088
1.040000, 0.000000, 1.395653
1.050000, 0.000000, 0.930435
1.060000, -0.009304, 0.697826
1.070000, 0.000000, 0.000000
1.080000, -0.009304, -0.232609
1.090000, 0.000000, 0.000000
1.100000, 0.000000, 0.000000
1.110000, 0.000000, 0.000000
1.120000, 0.000000, 0.000000
1.130000, 0.000000, 0.000000
1.140000, 0.000000, 0.000000
1.150000, 0.000000, 0.000000
1.160000, 0.000000, 0.000000
1.170000, 0.000000, 0.000000
1.180000, 0.000000, 0.000000
1.190000, 0.000000, 0.000000
1.200000, 0.000000, 0.000000
1.210000, 0.000000, 0.000000
1.220000, 0.000000, 0.000000
1.230000, 0.000000, 0.000000
1.240000, 0.000000, 0.000000
1.250000, 0.000000, 0.000000
1.260000, 0.000000, 0.000000
1.270000, 0.000000, 0.000000
1.280000, 0.000000, 0.000000
1.290000, 0.000000, 0.000000
1.300000, 0.000000, 0.000000
1.310000, 0.000000, 0.000000
1.320000, 0.000000, 0.000000
1.330000, 0.000000, 0.000000
1.340000, 0.000000, 0.000000
1.350000, 0.000000, 0.000000
1.360000, 0.000000, 0.000000
1.370000, 0.000000, 0.000000
1.380000, 0.000000, 0.000000
1.390000, 0.000000, 0.000000
1.400000, 0.000000, 0.000000
1.410000, 0.000000, 0.000000
1.420000, 0.000000, 0.000000
1.430000, 0.000000, 0.000000
1.440000, 0.000000, 0.000000
1.450000, 0.000000, 0.000000
1.460000, 0.000000, 0.000000
1.470000, 0.000000, 0.000000
1.480000, 0.000000, 0.000000
1.490000, 0.000000, 0.000000
1.500000, 0.000000, 0.000000
1.510000, 0.000000, 0.000000
1.520000, 0.000000, 0.000000
1.530000, 0.000000, 0.000000
1.540000, 0.000000, 0.000000
1.550000, 0.000000, 0.000000
1.560000, 0.000000, 0.000000
1.570000, 0.000000, 0.000000
1.580000, 0.000000, 0.000000
1.590000, 0.000000, 0.000000
1.600000, 0.000000, 0.000000
1.610000, 0.000000, 0.000000
1.620000, 0.000000, 0.000000
1.630000, 0.000000, 0.000000
1.640000, 0.000000, 0.000000
1.650000, 0.000000, 0.000000
1.660000, 0.000000, 0.000000
1.670000, 0.000000, 0.000000
1.680000, 0.000000, 0.000000
1.690000, 0.000000, 0.000000
1.700000, 0.000000, 0.000000
1.710000, 0.000000, 0.000000
1.720000, 0.000000, 0.000000
1.730000, 0.000000, 0.000000
1.740000, 0.000000, 0.000000
1.750000, 0.000000, 0.000000
1.760000, 0.000000, 0.000000
1.770000, 0.000000, 0.000000
1.780000, 0.000000, 0.000000
1.790000, 0.000000, 0.000000
1.800000, 0.000000, 0.000000
1.810000, 0.000000, 0.000000
1.820000, 0.000000, 0.000000
1.830000, 0.000000, 0.000000
1.840000, 0.000000, 0.000000
1.850000, 0.000000, 0.000000
1.860000, 0.000000, 0.000000
1.870000, 0.000000, 0.000000
1.880000, 0.000000, 0.000000
1.890000, 0.000000, 0.000000
1.900000, 0.000000, 0.000000
1.910000, 0.000000, 0.000000
1.920000, 0.000000, 0.000000
1.930000, 0.000000, 0.000000
1.940000, 0.000000, 0.000000
1.950000, 0.000000, 0.000000
1.960000, 0.000000, 0.000000
1.970000, 0.000000, 0.000000
1.980000, 0.000000, 0.000000
1.990000, 0.000000, 0.000000
Test params: step 0.010000, total time 2.000000, motor angular speed 0.300000
time_seconds, velocity_linear, velocity_angular
0.000000, 0.000000, 0.00000
0.010000, 0.018609, 7.908698
0.020000, 0.000000, 6.513045
0.030000, 0.009304, 6.745654
0.040000, 0.000000, 7.908698
0.050000, 0.000000, 8.373915
0.060000, 0.000000, 8.839133
0.070000, -0.009304, 9.536959
0.080000, -0.009304, 9.536959
0.090000, 0.009304, 10.002177
0.100000, 0.000000, 10.234785
0.110000, 0.000000, 10.234785
0.120000, 0.009304, 10.467394
0.130000, 0.009304, 10.467394
0.140000, 0.000000, 10.700003
0.150000, 0.009304, 10.467394
0.160000, 0.000000, 10.700003
0.170000, 0.000000, 10.700003
0.180000, 0.018609, 10.700003
0.190000, 0.000000, 10.700003
0.200000, 0.009304, 10.932612
0.210000, 0.000000, 10.700003
0.220000, 0.009304, 10.932612
0.230000, 0.000000, 10.700003
0.240000, 0.018609, 10.700003
0.250000, 0.000000, 10.700003
0.260000, 0.009304, 10.932612
0.270000, 0.000000, 10.700003
0.280000, 0.009304, 10.932612
0.290000, 0.009304, 10.932612
0.300000, 0.000000, 10.700003
0.310000, 0.000000, 10.700003
0.320000, 0.009304, 10.467394
0.330000, 0.009304, 10.932612
0.340000, 0.009304, 10.932612
0.350000, 0.000000, 10.700003
0.360000, 0.009304, 10.932612
0.370000, 0.000000, 10.700003
0.380000, 0.009304, 10.932612
0.390000, 0.009304, 10.932612
0.400000, 0.000000, 10.700003
0.410000, 0.018609, 10.700003
0.420000, 0.000000, 10.700003
0.430000, 0.009304, 10.932612
0.440000, 0.009304, 10.932612
0.450000, 0.000000, 10.700003
0.460000, 0.009304, 10.932612
0.470000, 0.000000, 10.700003
0.480000, 0.009304, 10.932612
0.490000, 0.009304, 10.932612
0.500000, 0.000000, 10.700003
0.510000, 0.009304, 10.932612
0.520000, 0.000000, 10.700003
0.530000, 0.000000, 10.700003
0.540000, 0.009304, 10.932612
0.550000, 0.000000, 10.700003
0.560000, 0.009304, 10.932612
0.570000, 0.009304, 10.932612
0.580000, 0.000000, 10.700003
0.590000, 0.000000, 10.700003
0.600000, 0.009304, 10.932612
0.610000, 0.000000, 10.700003
0.620000, 0.009304, 10.932612
0.630000, 0.000000, 10.700003
0.640000, 0.009304, 10.932612
0.650000, 0.000000, 10.700003
0.660000, 0.009304, 10.932612
0.670000, 0.000000, 10.700003
0.680000, 0.009304, 10.932612
0.690000, 0.000000, 10.700003
0.700000, 0.009304, 10.932612
0.710000, 0.000000, 10.700003
0.720000, 0.009304, 10.932612
0.730000, 0.000000, 10.700003
0.740000, 0.018609, 10.700003
0.750000, 0.000000, 10.700003
0.760000, 0.009304, 10.932612
0.770000, 0.000000, 10.700003
0.780000, 0.009304, 10.932612
0.790000, 0.000000, 10.700003
0.800000, 0.009304, 10.932612
0.810000, 0.000000, 10.700003
0.820000, 0.009304, 10.932612
0.830000, 0.009304, 10.467394
0.840000, 0.009304, 10.932612
0.850000, 0.009304, 10.932612
0.860000, 0.000000, 10.700003
0.870000, 0.000000, 10.700003
0.880000, 0.009304, 10.932612
0.890000, 0.009304, 10.932612
0.900000, 0.009304, 10.467394
0.910000, 0.009304, 10.932612
0.920000, 0.000000, 10.700003
0.930000, 0.009304, 10.932612
0.940000, 0.009304, 10.932612
0.950000, 0.000000, 10.700003
0.960000, 0.009304, 10.932612
0.970000, 0.009304, 10.932612
0.980000, 0.000000, 10.700003
0.990000, 0.009304, 10.932612
1.000000, 0.009304, 10.467394
---------- decelerate
1.010000, 0.000000, 8.839133
1.020000, 0.000000, 5.582610
1.030000, 0.009304, 3.489131
1.040000, -0.009304, 2.558696
1.050000, 0.009304, 1.628261
1.060000, -0.009304, 1.163044
1.070000, 0.000000, 0.465218
1.080000, 0.000000, 0.000000
1.090000, 0.000000, 0.000000
1.100000, 0.000000, 0.000000
1.110000, 0.000000, 0.000000
1.120000, 0.000000, 0.000000
1.130000, 0.000000, 0.000000
1.140000, 0.000000, 0.000000
1.150000, 0.000000, 0.000000
1.160000, 0.000000, 0.000000
1.170000, 0.000000, 0.000000
1.180000, 0.000000, 0.000000
1.190000, 0.000000, 0.000000
1.200000, 0.000000, 0.000000
1.210000, 0.000000, 0.000000
1.220000, 0.000000, 0.000000
1.230000, 0.000000, 0.000000
1.240000, 0.000000, 0.000000
1.250000, 0.000000, 0.000000
1.260000, 0.000000, 0.000000
1.270000, 0.000000, 0.000000
1.280000, 0.000000, 0.000000
1.290000, 0.000000, 0.000000
1.300000, 0.000000, 0.000000
1.310000, 0.000000, 0.000000
1.320000, 0.000000, 0.000000
1.330000, 0.000000, 0.000000
1.340000, 0.000000, 0.000000
1.350000, 0.000000, 0.000000
1.360000, 0.000000, 0.000000
1.370000, 0.000000, 0.000000
1.380000, 0.000000, 0.000000
1.390000, 0.000000, 0.000000
1.400000, 0.000000, 0.000000
1.410000, 0.000000, 0.000000
1.420000, 0.000000, 0.000000
1.430000, 0.000000, 0.000000
1.440000, 0.000000, 0.000000
1.450000, 0.000000, 0.000000
1.460000, 0.000000, 0.000000
1.470000, 0.000000, 0.000000
1.480000, 0.000000, 0.000000
1.490000, 0.000000, 0.000000
1.500000, 0.000000, 0.000000
1.510000, 0.000000, 0.000000
1.520000, 0.000000, 0.000000
1.530000, 0.000000, 0.000000
1.540000, 0.000000, 0.000000
1.550000, 0.000000, 0.000000
1.560000, 0.000000, 0.000000
1.570000, 0.000000, 0.000000
1.580000, 0.000000, 0.000000
1.590000, 0.000000, 0.000000
1.600000, 0.000000, 0.000000
1.610000, 0.000000, 0.000000
1.620000, 0.000000, 0.000000
1.630000, 0.000000, 0.000000
1.640000, 0.000000, 0.000000
1.650000, 0.000000, 0.000000
1.660000, 0.000000, 0.000000
1.670000, 0.000000, 0.000000
1.680000, 0.000000, 0.000000
1.690000, 0.000000, 0.000000
1.700000, 0.000000, 0.000000
1.710000, 0.000000, 0.000000
1.720000, 0.000000, 0.000000
1.730000, 0.000000, 0.000000
1.740000, 0.000000, 0.000000
1.750000, 0.000000, 0.000000
1.760000, 0.000000, 0.000000
1.770000, 0.000000, 0.000000
1.780000, 0.000000, 0.000000
1.790000, 0.000000, 0.000000
1.800000, 0.000000, 0.000000
1.810000, 0.000000, 0.000000
1.820000, 0.000000, 0.000000
1.830000, 0.000000, 0.000000
1.840000, 0.000000, 0.000000
1.850000, 0.000000, 0.000000
1.860000, 0.000000, 0.000000
1.870000, 0.000000, 0.000000
1.880000, 0.000000, 0.000000
1.890000, 0.000000, 0.000000
1.900000, 0.000000, 0.000000
1.910000, 0.000000, 0.000000
1.920000, 0.000000, 0.000000
1.930000, 0.000000, 0.000000
1.940000, 0.000000, 0.000000
1.950000, 0.000000, 0.000000
1.960000, 0.000000, 0.000000
1.970000, 0.000000, 0.000000
1.980000, 0.000000, 0.000000
1.990000, 0.000000, 0.000000
Test params: step 0.010000, total time 2.000000, motor angular speed 0.400000
time_seconds, velocity_linear, velocity_angular
0.000000, 0.000000, 0.00000
0.010000, 0.018609, 11.165220
0.020000, -0.009304, 8.606524
0.030000, 0.009304, 10.002177
0.040000, 0.000000, 10.700003
0.050000, -0.009304, 10.932612
0.060000, 0.000000, 11.630438
0.070000, 0.000000, 12.095655
0.080000, 0.000000, 12.560873
0.090000, 0.009304, 13.258699
0.100000, 0.000000, 13.491308
0.110000, 0.000000, 13.491308
0.120000, 0.009304, 13.723917
0.130000, 0.009304, 14.189134
0.140000, 0.009304, 14.189134
0.150000, 0.000000, 14.421743
0.160000, 0.018609, 14.421743
0.170000, 0.009304, 14.189134
0.180000, 0.009304, 14.654352
0.190000, 0.009304, 14.189134
0.200000, 0.009304, 14.654352
0.210000, 0.009304, 14.654352
0.220000, 0.018609, 14.421743
0.230000, 0.009304, 14.654352
0.240000, 0.009304, 14.654352
0.250000, 0.000000, 14.421743
0.260000, 0.018609, 14.421743
0.270000, 0.009304, 14.654352
0.280000, 0.009304, 14.654352
0.290000, 0.009304, 14.654352
0.300000, 0.009304, 14.654352
0.310000, 0.009304, 14.654352
0.320000, 0.018609, 14.421743
0.330000, 0.009304, 14.654352
0.340000, 0.009304, 14.654352
0.350000, 0.009304, 14.654352
0.360000, 0.009304, 14.654352
0.370000, 0.009304, 14.654352
0.380000, 0.018609, 14.421743
0.390000, 0.009304, 14.654352
0.400000, 0.009304, 14.654352
0.410000, 0.018609, 14.886960
0.420000, 0.009304, 14.654352
0.430000, 0.018609, 14.421743
0.440000, 0.009304, 14.654352
0.450000, 0.009304, 14.654352
0.460000, 0.000000, 14.421743
0.470000, 0.009304, 14.654352
0.480000, 0.009304, 14.654352
0.490000, 0.009304, 14.654352
0.500000, 0.009304, 14.654352
0.510000, 0.009304, 14.654352
0.520000, 0.018609, 14.421743
0.530000, 0.009304, 14.654352
0.540000, 0.009304, 14.654352
0.550000, 0.009304, 14.654352
0.560000, 0.009304, 14.654352
0.570000, 0.009304, 14.654352
0.580000, 0.009304, 14.654352
0.590000, 0.009304, 14.654352
0.600000, 0.009304, 14.654352
0.610000, 0.018609, 14.421743
0.620000, 0.009304, 14.654352
0.630000, 0.009304, 14.654352
0.640000, 0.000000, 14.421743
0.650000, 0.009304, 14.654352
0.660000, 0.009304, 14.654352
0.670000, 0.009304, 14.654352
0.680000, 0.009304, 14.654352
0.690000, 0.018609, 14.421743
0.700000, 0.000000, 14.421743
0.710000, 0.009304, 14.654352
0.720000, 0.009304, 14.654352
0.730000, 0.009304, 14.654352
0.740000, 0.018609, 14.421743
0.750000, 0.009304, 14.654352
0.760000, 0.009304, 14.654352
0.770000, 0.009304, 14.654352
0.780000, 0.009304, 14.654352
0.790000, 0.018609, 14.421743
0.800000, 0.009304, 14.654352
0.810000, 0.009304, 14.654352
0.820000, 0.009304, 14.654352
0.830000, 0.018609, 14.421743
0.840000, 0.009304, 14.654352
0.850000, 0.009304, 14.654352
0.860000, 0.009304, 14.654352
0.870000, 0.009304, 14.654352
0.880000, 0.009304, 14.654352
0.890000, 0.009304, 14.189134
0.900000, 0.009304, 14.654352
0.910000, 0.009304, 14.654352
0.920000, 0.009304, 14.654352
0.930000, 0.009304, 14.654352
0.940000, 0.009304, 14.654352
0.950000, 0.009304, 14.654352
0.960000, 0.009304, 14.654352
0.970000, 0.009304, 14.654352
0.980000, 0.009304, 14.654352
0.990000, 0.018609, 14.421743
1.000000, 0.000000, 14.421743
---------- decelerate
1.010000, 0.009304, 11.863047
1.020000, 0.018609, 7.908698
1.030000, 0.000000, 5.117393
1.040000, 0.000000, 3.256523
1.050000, 0.009304, 2.558696
1.060000, 0.009304, 1.628261
1.070000, -0.009304, 1.163044
1.080000, 0.009304, 0.697826
1.090000, -0.009304, -0.232609
1.100000, 0.000000, 0.000000
1.110000, 0.000000, 0.000000
1.120000, 0.000000, 0.000000
1.130000, 0.000000, 0.000000
1.140000, 0.000000, 0.000000
1.150000, 0.000000, 0.000000
1.160000, 0.000000, 0.000000
1.170000, 0.000000, 0.000000
1.180000, 0.000000, 0.000000
1.190000, 0.000000, 0.000000
1.200000, 0.000000, 0.000000
1.210000, 0.000000, 0.000000
1.220000, 0.000000, 0.000000
1.230000, 0.000000, 0.000000
1.240000, 0.000000, 0.000000
1.250000, 0.000000, 0.000000
1.260000, 0.000000, 0.000000
1.270000, 0.000000, 0.000000
1.280000, 0.000000, 0.000000
1.290000, 0.000000, 0.000000
1.300000, 0.000000, 0.000000
1.310000, 0.000000, 0.000000
1.320000, 0.000000, 0.000000
1.330000, 0.000000, 0.000000
1.340000, 0.000000, 0.000000
1.350000, 0.000000, 0.000000
1.360000, 0.000000, 0.000000
1.370000, 0.000000, 0.000000
1.380000, 0.000000, 0.000000
1.390000, 0.000000, 0.000000
1.400000, 0.000000, 0.000000
1.410000, 0.000000, 0.000000
1.420000, 0.000000, 0.000000
1.430000, 0.000000, 0.000000
1.440000, 0.000000, 0.000000
1.450000, 0.000000, 0.000000
1.460000, 0.000000, 0.000000
1.470000, 0.000000, 0.000000
1.480000, 0.000000, 0.000000
1.490000, 0.000000, 0.000000
1.500000, 0.000000, 0.000000
1.510000, 0.000000, 0.000000
1.520000, 0.000000, 0.000000
1.530000, 0.000000, 0.000000
1.540000, 0.000000, 0.000000
1.550000, 0.000000, 0.000000
1.560000, 0.000000, 0.000000
1.570000, 0.000000, 0.000000
1.580000, 0.000000, 0.000000
1.590000, 0.000000, 0.000000
1.600000, 0.000000, 0.000000
1.610000, 0.000000, 0.000000
1.620000, 0.000000, 0.000000
1.630000, 0.000000, 0.000000
1.640000, 0.000000, 0.000000
1.650000, 0.000000, 0.000000
1.660000, 0.000000, 0.000000
1.670000, 0.000000, 0.000000
1.680000, 0.000000, 0.000000
1.690000, 0.000000, 0.000000
1.700000, 0.000000, 0.000000
1.710000, 0.000000, 0.000000
1.720000, 0.000000, 0.000000
1.730000, 0.000000, 0.000000
1.740000, 0.000000, 0.000000
1.750000, 0.000000, 0.000000
1.760000, 0.000000, 0.000000
1.770000, 0.000000, 0.000000
1.780000, 0.000000, 0.000000
1.790000, 0.000000, 0.000000
1.800000, 0.000000, 0.000000
1.810000, 0.000000, 0.000000
1.820000, 0.000000, 0.000000
1.830000, 0.000000, 0.000000
1.840000, 0.000000, 0.000000
1.850000, 0.000000, 0.000000
1.860000, 0.000000, 0.000000
1.870000, 0.000000, 0.000000
1.880000, 0.000000, 0.000000
1.890000, 0.000000, 0.000000
1.900000, 0.000000, 0.000000
1.910000, 0.000000, 0.000000
1.920000, 0.000000, 0.000000
1.930000, 0.000000, 0.000000
1.940000, 0.000000, 0.000000
1.950000, 0.000000, 0.000000
1.960000, 0.000000, 0.000000
1.970000, 0.000000, 0.000000
1.980000, 0.000000, 0.000000
1.990000, 0.000000, 0.000000
Test params: step 0.010000, total time 2.000000, motor angular speed 0.500000
time_seconds, velocity_linear, velocity_angular
0.000000, 0.000000, 0.00000
0.010000, 0.000000, 12.560873
0.020000, -0.009304, 10.467394
0.030000, 0.000000, 11.630438
0.040000, 0.000000, 13.491308
0.050000, 0.000000, 13.491308
0.060000, 0.000000, 14.421743
0.070000, 0.000000, 14.886960
0.080000, 0.000000, 15.817395
0.090000, 0.000000, 15.817395
0.100000, 0.009304, 16.515222
0.110000, 0.009304, 16.980439
0.120000, 0.009304, 16.980439
0.130000, 0.009304, 17.445657
0.140000, 0.018609, 17.678265
0.150000, 0.018609, 17.678265
0.160000, 0.009304, 17.910874
0.170000, 0.009304, 17.910874
0.180000, 0.018609, 17.678265
0.190000, 0.018609, 18.143483
0.200000, 0.018609, 18.143483
0.210000, 0.009304, 17.910874
0.220000, 0.018609, 18.143483
0.230000, 0.009304, 18.376092
0.240000, 0.018609, 18.143483
0.250000, 0.018609, 18.143483
0.260000, 0.027913, 18.376092
0.270000, 0.009304, 18.376092
0.280000, 0.018609, 18.143483
0.290000, 0.018609, 18.143483
0.300000, 0.018609, 18.608700
0.310000, 0.018609, 18.143483
0.320000, 0.018609, 18.143483
0.330000, 0.018609, 18.143483
0.340000, 0.009304, 18.376092
0.350000, 0.018609, 18.143483
0.360000, 0.018609, 18.143483
0.370000, 0.018609, 18.143483
0.380000, 0.009304, 18.376092
0.390000, 0.018609, 18.143483
0.400000, 0.018609, 18.143483
0.410000, 0.018609, 18.143483
0.420000, 0.018609, 18.608700
0.430000, 0.018609, 18.143483
0.440000, 0.018609, 18.143483
0.450000, 0.018609, 18.143483
0.460000, 0.018609, 18.143483
0.470000, 0.018609, 18.143483
0.480000, 0.009304, 18.376092
0.490000, 0.018609, 18.143483
0.500000, 0.018609, 18.143483
0.510000, 0.018609, 18.143483
0.520000, 0.018609, 18.143483
0.530000, 0.018609, 18.143483
0.540000, 0.018609, 18.143483
0.550000, 0.018609, 18.143483
0.560000, 0.018609, 18.143483
0.570000, 0.018609, 18.143483
0.580000, 0.027913, 18.376092
0.590000, 0.018609, 18.143483
0.600000, 0.018609, 18.143483
0.610000, 0.009304, 18.376092
0.620000, 0.018609, 18.143483
0.630000, 0.018609, 18.143483
0.640000, 0.027913, 18.376092
0.650000, 0.018609, 18.143483
0.660000, 0.018609, 18.143483
0.670000, 0.018609, 18.143483
0.680000, 0.027913, 17.910874
0.690000, 0.018609, 18.143483
0.700000, 0.009304, 18.376092
0.710000, 0.018609, 18.143483
0.720000, 0.018609, 18.143483
0.730000, 0.018609, 18.143483
0.740000, 0.018609, 18.143483
0.750000, 0.037217, 18.143483
0.760000, 0.018609, 18.143483
0.770000, 0.018609, 18.143483
0.780000, 0.018609, 18.143483
0.790000, 0.018609, 18.143483
0.800000, 0.009304, 18.376092
0.810000, 0.018609, 18.143483
0.820000, 0.018609, 18.143483
0.830000, 0.018609, 18.143483
0.840000, 0.018609, 18.143483
0.850000, 0.018609, 18.143483
0.860000, 0.018609, 18.143483
0.870000, 0.027913, 18.376092
0.880000, 0.018609, 18.143483
0.890000, 0.018609, 18.143483
0.900000, 0.018609, 18.143483
0.910000, 0.018609, 18.608700
0.920000, 0.018609, 18.143483
0.930000, 0.018609, 18.143483
0.940000, 0.018609, 18.143483
0.950000, 0.027913, 18.376092
0.960000, 0.009304, 18.376092
0.970000, 0.018609, 18.143483
0.980000, 0.018609, 18.143483
0.990000, 0.018609, 18.143483
1.000000, 0.018609, 18.143483
---------- decelerate
1.010000, 0.018609, 14.886960
1.020000, 0.018609, 9.769568
1.030000, 0.009304, 6.745654
1.040000, 0.027913, 4.419566
1.050000, 0.000000, 2.791305
1.060000, 0.009304, 2.093479
1.070000, 0.009304, 1.628261
1.080000, 0.000000, 0.930435
1.090000, 0.000000, 0.465218
1.100000, 0.000000, 0.000000
1.110000, 0.000000, 0.000000
1.120000, -0.009304, 0.232609
1.130000, 0.000000, 0.000000
1.140000, 0.000000, 0.000000
1.150000, 0.000000, 0.000000
1.160000, 0.000000, 0.000000
1.170000, 0.000000, 0.000000
1.180000, 0.000000, 0.000000
1.190000, 0.000000, 0.000000
1.200000, 0.000000, 0.000000
1.210000, 0.000000, 0.000000
1.220000, 0.000000, 0.000000
1.230000, 0.000000, 0.000000
1.240000, 0.000000, 0.000000
1.250000, 0.000000, 0.000000
1.260000, 0.000000, 0.000000
1.270000, 0.000000, 0.000000
1.280000, 0.000000, 0.000000
1.290000, 0.000000, 0.000000
1.300000, 0.000000, 0.000000
1.310000, 0.000000, 0.000000
1.320000, 0.000000, 0.000000
1.330000, 0.000000, 0.000000
1.340000, 0.000000, 0.000000
1.350000, 0.000000, 0.000000
1.360000, 0.000000, 0.000000
1.370000, 0.000000, 0.000000
1.380000, 0.000000, 0.000000
1.390000, 0.000000, 0.000000
1.400000, 0.000000, 0.000000
1.410000, 0.000000, 0.000000
1.420000, 0.000000, 0.000000
1.430000, 0.000000, 0.000000
1.440000, 0.000000, 0.000000
1.450000, 0.000000, 0.000000
1.460000, 0.000000, 0.000000
1.470000, 0.000000, 0.000000
1.480000, 0.000000, 0.000000
1.490000, 0.000000, 0.000000
1.500000, 0.000000, 0.000000
1.510000, 0.000000, 0.000000
1.520000, 0.000000, 0.000000
1.530000, 0.000000, 0.000000
1.540000, 0.000000, 0.000000
1.550000, 0.000000, 0.000000
1.560000, 0.000000, 0.000000
1.570000, 0.000000, 0.000000
1.580000, 0.000000, 0.000000
1.590000, 0.000000, 0.000000
1.600000, 0.000000, 0.000000
1.610000, 0.000000, 0.000000
1.620000, 0.000000, 0.000000
1.630000, 0.000000, 0.000000
1.640000, 0.000000, 0.000000
1.650000, 0.000000, 0.000000
1.660000, 0.000000, 0.000000
1.670000, 0.000000, 0.000000
1.680000, 0.000000, 0.000000
1.690000, 0.000000, 0.000000
1.700000, 0.000000, 0.000000
1.710000, 0.000000, 0.000000
1.720000, 0.000000, 0.000000
1.730000, 0.000000, 0.000000
1.740000, 0.000000, 0.000000
1.750000, 0.000000, 0.000000
1.760000, 0.000000, 0.000000
1.770000, 0.000000, 0.000000
1.780000, 0.000000, 0.000000
1.790000, 0.000000, 0.000000
1.800000, 0.000000, 0.000000
1.810000, 0.000000, 0.000000
1.820000, 0.000000, 0.000000
1.830000, 0.000000, 0.000000
1.840000, 0.000000, 0.000000
1.850000, 0.000000, 0.000000
1.860000, 0.000000, 0.000000
1.870000, 0.000000, 0.000000
1.880000, 0.000000, 0.000000
1.890000, 0.000000, 0.000000
1.900000, 0.000000, 0.000000
1.910000, 0.000000, 0.000000
1.920000, 0.000000, 0.000000
1.930000, 0.000000, 0.000000
1.940000, 0.000000, 0.000000
1.950000, 0.000000, 0.000000
1.960000, 0.000000, 0.000000
1.970000, 0.000000, 0.000000
1.980000, 0.000000, 0.000000
1.990000, 0.000000, 0.000000
Test params: step 0.010000, total time 2.000000, motor angular speed 0.600000
time_seconds, velocity_linear, velocity_angular
0.000000, 0.000000, 0.00000
0.010000, 0.018609, 14.886960
0.020000, 0.000000, 12.095655
0.030000, -0.009304, 14.189134
0.040000, -0.009304, 15.119569
0.050000, 0.000000, 16.282613
0.060000, 0.000000, 17.213048
0.070000, 0.000000, 17.678265
0.080000, 0.000000, 18.608700
0.090000, 0.009304, 18.841309
0.100000, 0.009304, 19.306527
0.110000, 0.009304, 19.771744
0.120000, 0.009304, 20.236962
0.130000, 0.018609, 20.469571
0.140000, 0.027913, 20.702179
0.150000, 0.018609, 20.934788
0.160000, 0.018609, 20.934788
0.170000, 0.018609, 20.934788
0.180000, 0.018609, 21.400006
0.190000, 0.027913, 21.167397
0.200000, 0.018609, 21.400006
0.210000, 0.018609, 21.400006
0.220000, 0.027913, 21.632614
0.230000, 0.018609, 21.400006
0.240000, 0.018609, 21.400006
0.250000, 0.037217, 21.400006
0.260000, 0.018609, 21.400006
0.270000, 0.018609, 21.400006
0.280000, 0.018609, 21.400006
0.290000, 0.027913, 21.632614
0.300000, 0.027913, 21.167397
0.310000, 0.018609, 21.400006
0.320000, 0.018609, 21.400006
0.330000, 0.037217, 21.400006
0.340000, 0.018609, 21.400006
0.350000, 0.027913, 21.167397
0.360000, 0.027913, 21.167397
0.370000, 0.018609, 21.400006
0.380000, 0.027913, 21.167397
0.390000, 0.018609, 21.400006
0.400000, 0.027913, 21.167397
0.410000, 0.018609, 20.934788
0.420000, 0.027913, 21.167397
0.430000, 0.018609, 21.400006
0.440000, 0.027913, 21.167397
0.450000, 0.027913, 21.632614
0.460000, 0.027913, 21.167397
0.470000, 0.027913, 21.167397
0.480000, 0.027913, 21.167397
0.490000, 0.027913, 21.167397
0.500000, 0.027913, 21.167397
0.510000, 0.018609, 20.934788
0.520000, 0.037217, 20.934788
0.530000, 0.027913, 21.167397
0.540000, 0.027913, 20.702179
0.550000, 0.027913, 20.702179
0.560000, 0.037217, 20.469571
0.570000, 0.037217, 20.469571
0.580000, 0.037217, 20.469571
0.590000, 0.037217, 20.469571
0.600000, 0.037217, 20.469571
0.610000, 0.046522, 20.236962
0.620000, 0.046522, 20.236962
0.630000, 0.046522, 20.702179
0.640000, 0.046522, 20.236962
0.650000, 0.027913, 20.702179
0.660000, 0.046522, 20.702179
0.670000, 0.027913, 20.702179
0.680000, 0.037217, 20.934788
0.690000, 0.027913, 21.167397
0.700000, 0.037217, 20.934788
0.710000, 0.037217, 21.400006
0.720000, 0.027913, 21.167397
0.730000, 0.037217, 21.400006
0.740000, 0.037217, 21.400006
0.750000, 0.027913, 21.167397
0.760000, 0.046522, 21.167397
0.770000, 0.037217, 21.400006
0.780000, 0.037217, 21.400006
0.790000, 0.027913, 21.167397
0.800000, 0.046522, 21.167397
0.810000, 0.037217, 20.934788
0.820000, 0.037217, 21.400006
0.830000, 0.046522, 21.167397
0.840000, 0.046522, 21.167397
0.850000, 0.037217, 21.400006
0.860000, 0.037217, 20.934788
0.870000, 0.046522, 21.167397
0.880000, 0.037217, 20.934788
0.890000, 0.037217, 21.400006
0.900000, 0.046522, 21.167397
0.910000, 0.027913, 21.167397
0.920000, 0.046522, 21.167397
0.930000, 0.037217, 21.400006
0.940000, 0.037217, 21.400006
0.950000, 0.027913, 21.632614
0.960000, 0.018609, 21.400006
0.970000, 0.027913, 21.632614
0.980000, 0.037217, 21.400006
0.990000, 0.037217, 20.934788
1.000000, 0.027913, 21.167397
---------- decelerate
1.010000, 0.037217, 17.213048
1.020000, 0.037217, 10.700003
1.030000, 0.027913, 7.210871
1.040000, 0.009304, 4.884784
1.050000, 0.018609, 2.791305
1.060000, 0.009304, 2.093479
1.070000, 0.009304, 1.163044
1.080000, 0.009304, 0.697826
1.090000, 0.009304, 0.232609
1.100000, 0.000000, 0.000000
1.110000, 0.009304, 0.232609
1.120000, 0.009304, 0.232609
1.130000, 0.009304, 0.232609
1.140000, 0.000000, 0.000000
1.150000, 0.000000, 0.000000
1.160000, 0.009304, -0.232609
1.170000, 0.000000, 0.000000
1.180000, 0.000000, 0.000000
1.190000, 0.000000, 0.000000
1.200000, 0.000000, 0.000000
1.210000, 0.000000, 0.000000
1.220000, 0.000000, 0.000000
1.230000, 0.000000, 0.000000
1.240000, 0.000000, 0.000000
1.250000, 0.000000, 0.000000
1.260000, 0.000000, 0.000000
1.270000, 0.000000, 0.000000
1.280000, 0.000000, 0.000000
1.290000, 0.000000, 0.000000
1.300000, 0.000000, 0.000000
1.310000, 0.000000, 0.000000
1.320000, 0.000000, 0.000000
1.330000, 0.000000, 0.000000
1.340000, 0.000000, 0.000000
1.350000, 0.000000, 0.000000
1.360000, 0.000000, 0.000000
1.370000, 0.000000, 0.000000
1.380000, 0.000000, 0.000000
1.390000, 0.000000, 0.000000
1.400000, 0.000000, 0.000000
1.410000, 0.000000, 0.000000
1.420000, 0.000000, 0.000000
1.430000, 0.000000, 0.000000
1.440000, 0.000000, 0.000000
1.450000, 0.000000, 0.000000
1.460000, 0.000000, 0.000000
1.470000, 0.000000, 0.000000
1.480000, 0.000000, 0.000000
1.490000, 0.000000, 0.000000
1.500000, 0.000000, 0.000000
1.510000, 0.000000, 0.000000
1.520000, 0.000000, 0.000000
1.530000, 0.000000, 0.000000
1.540000, 0.000000, 0.000000
1.550000, 0.000000, 0.000000
1.560000, 0.000000, 0.000000
1.570000, 0.000000, 0.000000
1.580000, 0.000000, 0.000000
1.590000, 0.000000, 0.000000
1.600000, 0.000000, 0.000000
1.610000, 0.000000, 0.000000
1.620000, 0.000000, 0.000000
1.630000, 0.000000, 0.000000
1.640000, 0.000000, 0.000000
1.650000, 0.000000, 0.000000
1.660000, 0.000000, 0.000000
1.670000, 0.000000, 0.000000
1.680000, 0.000000, 0.000000
1.690000, 0.000000, 0.000000
1.700000, 0.000000, 0.000000
1.710000, 0.000000, 0.000000
1.720000, 0.000000, 0.000000
1.730000, 0.000000, 0.000000
1.740000, 0.000000, 0.000000
1.750000, 0.000000, 0.000000
1.760000, 0.000000, 0.000000
1.770000, 0.000000, 0.000000
1.780000, 0.000000, 0.000000
1.790000, 0.000000, 0.000000
1.800000, 0.000000, 0.000000
1.810000, 0.000000, 0.000000
1.820000, 0.000000, 0.000000
1.830000, 0.000000, 0.000000
1.840000, 0.000000, 0.000000
1.850000, 0.000000, 0.000000
1.860000, 0.000000, 0.000000
1.870000, 0.000000, 0.000000
1.880000, 0.000000, 0.000000
1.890000, 0.000000, 0.000000
1.900000, 0.000000, 0.000000
1.910000, 0.000000, 0.000000
1.920000, 0.000000, 0.000000
1.930000, 0.000000, 0.000000
1.940000, 0.000000, 0.000000
1.950000, 0.000000, 0.000000
1.960000, 0.000000, 0.000000
1.970000, 0.000000, 0.000000
1.980000, 0.000000, 0.000000
1.990000, 0.000000, 0.000000
Test params: step 0.010000, total time 2.000000, motor angular speed 0.700000
time_seconds, velocity_linear, velocity_angular
0.000000, 0.000000, 0.00000
0.010000, 0.009304, 16.050004
0.020000, 0.000000, 13.491308
0.030000, 0.009304, 16.050004
0.040000, 0.000000, 17.678265
0.050000, 0.000000, 18.608700
0.060000, 0.000000, 19.539136
0.070000, 0.000000, 20.469571
0.080000, 0.000000, 20.469571
0.090000, 0.009304, 21.167397
0.100000, 0.009304, 21.167397
0.110000, 0.000000, 21.865223
0.120000, 0.009304, 22.097832
0.130000, 0.018609, 22.330441
0.140000, 0.018609, 22.795658
0.150000, 0.018609, 22.795658
0.160000, 0.027913, 23.028267
0.170000, 0.027913, 23.028267
0.180000, 0.018609, 22.795658
0.190000, 0.027913, 23.028267
0.200000, 0.027913, 23.028267
0.210000, 0.027913, 23.028267
0.220000, 0.027913, 23.028267
0.230000, 0.037217, 22.795658
0.240000, 0.018609, 22.795658
0.250000, 0.037217, 22.330441
0.260000, 0.037217, 22.795658
0.270000, 0.046522, 22.563049
0.280000, 0.046522, 22.563049
0.290000, 0.037217, 22.330441
0.300000, 0.055826, 22.330441
0.310000, 0.055826, 22.795658
0.320000, 0.046522, 22.563049
0.330000, 0.055826, 23.260876
0.340000, 0.046522, 23.028267
0.350000, 0.055826, 23.260876
0.360000, 0.027913, 23.493484
0.370000, 0.046522, 23.493484
0.380000, 0.046522, 23.493484
0.390000, 0.055826, 23.726093
0.400000, 0.037217, 23.726093
0.410000, 0.046522, 23.493484
0.420000, 0.055826, 23.726093
0.430000, 0.046522, 23.493484
0.440000, 0.055826, 23.726093
0.450000, 0.037217, 23.726093
0.460000, 0.065130, 23.493484
0.470000, 0.055826, 23.726093
0.480000, 0.046522, 23.493484
0.490000, 0.055826, 23.726093
0.500000, 0.046522, 23.493484
0.510000, 0.055826, 23.726093
0.520000, 0.055826, 23.726093
0.530000, 0.046522, 23.493484
0.540000, 0.055826, 23.726093
0.550000, 0.037217, 24.191311
0.560000, 0.037217, 24.191311
0.570000, 0.046522, 23.958702
0.580000, 0.037217, 23.726093
0.590000, 0.037217, 24.191311
0.600000, 0.046522, 23.493484
0.610000, 0.037217, 23.726093
0.620000, 0.046522, 23.028267
0.630000, 0.037217, 23.260876
0.640000, 0.046522, 23.028267
0.650000, 0.037217, 22.795658
0.660000, 0.046522, 23.028267
0.670000, 0.046522, 23.028267
0.680000, 0.037217, 22.795658
0.690000, 0.046522, 23.028267
0.700000, 0.055826, 23.260876
0.710000, 0.037217, 23.260876
0.720000, 0.046522, 23.493484
0.730000, 0.046522, 23.493484
0.740000, 0.046522, 23.958702
0.750000, 0.037217, 23.726093
0.760000, 0.046522, 23.958702
0.770000, 0.046522, 23.958702
0.780000, 0.037217, 24.191311
0.790000, 0.055826, 24.191311
0.800000, 0.037217, 24.191311
0.810000, 0.055826, 24.191311
0.820000, 0.037217, 24.191311
0.830000, 0.046522, 23.958702
0.840000, 0.037217, 24.191311
0.850000, 0.037217, 24.656528
0.860000, 0.037217, 24.191311
0.870000, 0.027913, 23.958702
0.880000, 0.046522, 23.958702
0.890000, 0.027913, 23.493484
0.900000, 0.046522, 23.493484
0.910000, 0.046522, 23.028267
0.920000, 0.037217, 23.260876
0.930000, 0.037217, 22.795658
0.940000, 0.046522, 23.028267
0.950000, 0.037217, 22.795658
0.960000, 0.037217, 22.795658
0.970000, 0.055826, 22.795658
0.980000, 0.046522, 23.028267
0.990000, 0.046522, 23.028267
1.000000, 0.055826, 23.260876
---------- decelerate
1.010000, 0.055826, 19.539136
1.020000, 0.037217, 13.026090
1.030000, 0.027913, 8.606524
1.040000, 0.018609, 5.582610
1.050000, 0.018609, 3.721740
1.060000, 0.018609, 2.791305
1.070000, 0.000000, 1.860870
1.080000, 0.009304, 1.628261
1.090000, 0.009304, 1.163044
1.100000, 0.000000, 0.930435
1.110000, 0.018609, 0.930435
1.120000, 0.000000, 0.465218
1.130000, 0.009304, 0.697826
1.140000, 0.000000, 0.000000
1.150000, 0.009304, 0.232609
1.160000, 0.000000, 0.000000
1.170000, 0.000000, 0.000000
1.180000, 0.000000, 0.000000
1.190000, 0.000000, 0.000000
1.200000, 0.000000, 0.000000
1.210000, 0.000000, 0.000000
1.220000, 0.000000, 0.000000
1.230000, 0.000000, 0.000000
1.240000, 0.000000, 0.000000
1.250000, 0.000000, 0.000000
1.260000, 0.000000, 0.000000
1.270000, 0.000000, 0.000000
1.280000, 0.000000, 0.000000
1.290000, 0.000000, 0.000000
1.300000, 0.000000, 0.000000
1.310000, 0.000000, 0.000000
1.320000, 0.009304, -0.232609
1.330000, 0.000000, 0.000000
1.340000, 0.000000, 0.000000
1.350000, 0.000000, 0.000000
1.360000, 0.000000, 0.000000
1.370000, 0.000000, 0.000000
1.380000, 0.000000, 0.000000
1.390000, 0.000000, 0.000000
1.400000, 0.000000, 0.000000
1.410000, 0.000000, 0.000000
1.420000, 0.000000, 0.000000
1.430000, 0.000000, 0.000000
1.440000, 0.000000, 0.000000
1.450000, 0.000000, 0.000000
1.460000, 0.000000, 0.000000
1.470000, 0.000000, 0.000000
1.480000, 0.000000, 0.000000
1.490000, 0.000000, 0.000000
1.500000, 0.000000, 0.000000
1.510000, 0.000000, 0.000000
1.520000, 0.000000, 0.000000
1.530000, 0.000000, 0.000000
1.540000, 0.000000, 0.000000
1.550000, 0.000000, 0.000000
1.560000, 0.000000, 0.000000
1.570000, 0.000000, 0.000000
1.580000, 0.000000, 0.000000
1.590000, 0.000000, 0.000000
1.600000, 0.000000, 0.000000
1.610000, 0.000000, 0.000000
1.620000, 0.000000, 0.000000
1.630000, 0.000000, 0.000000
1.640000, 0.000000, 0.000000
1.650000, 0.000000, 0.000000
1.660000, 0.000000, 0.000000
1.670000, 0.000000, 0.000000
1.680000, 0.000000, 0.000000
1.690000, 0.000000, 0.000000
1.700000, 0.000000, 0.000000
1.710000, 0.000000, 0.000000
1.720000, 0.000000, 0.000000
1.730000, 0.000000, 0.000000
1.740000, 0.000000, 0.000000
1.750000, 0.000000, 0.000000
1.760000, 0.000000, 0.000000
1.770000, 0.000000, 0.000000
1.780000, 0.000000, 0.000000
1.790000, 0.000000, 0.000000
1.800000, 0.000000, 0.000000
1.810000, 0.000000, 0.000000
1.820000, 0.000000, 0.000000
1.830000, 0.000000, 0.000000
1.840000, 0.000000, 0.000000
1.850000, 0.000000, 0.000000
1.860000, 0.000000, 0.000000
1.870000, 0.000000, 0.000000
1.880000, 0.000000, 0.000000
1.890000, 0.000000, 0.000000
1.900000, 0.000000, 0.000000
1.910000, 0.000000, 0.000000
1.920000, 0.000000, 0.000000
1.930000, 0.000000, 0.000000
1.940000, 0.000000, 0.000000
1.950000, 0.000000, 0.000000
1.960000, 0.000000, 0.000000
1.970000, 0.000000, 0.000000
1.980000, 0.000000, 0.000000
1.990000, 0.000000, 0.000000
Test params: step 0.010000, total time 2.000000, motor angular speed 0.800000
time_seconds, velocity_linear, velocity_angular
0.000000, 0.000000, 0.00000
0.010000, -0.009304, 17.910874
0.020000, 0.000000, 14.886960
0.030000, 0.009304, 17.910874
0.040000, 0.000000, 19.539136
0.050000, -0.009304, 21.167397
0.060000, 0.000000, 21.865223
0.070000, -0.009304, 22.563049
0.080000, 0.009304, 23.028267
0.090000, 0.000000, 23.260876
0.100000, 0.000000, 23.726093
0.110000, 0.000000, 23.726093
0.120000, 0.018609, 24.191311
0.130000, 0.009304, 24.889137
0.140000, 0.018609, 25.121746
0.150000, 0.027913, 25.354354
0.160000, 0.018609, 25.586963
0.170000, 0.027913, 25.819572
0.180000, 0.009304, 25.819572
0.190000, 0.027913, 25.819572
0.200000, 0.018609, 26.052181
0.210000, 0.027913, 25.819572
0.220000, 0.027913, 25.819572
0.230000, 0.027913, 25.819572
0.240000, 0.037217, 26.052181
0.250000, 0.037217, 26.052181
0.260000, 0.037217, 26.052181
0.270000, 0.018609, 26.052181
0.280000, 0.037217, 26.052181
0.290000, 0.018609, 26.052181
0.300000, 0.027913, 26.284789
0.310000, 0.027913, 25.819572
0.320000, 0.018609, 26.052181
0.330000, 0.027913, 25.354354
0.340000, 0.037217, 25.586963
0.350000, 0.055826, 25.586963
0.360000, 0.046522, 25.354354
0.370000, 0.065130, 25.354354
0.380000, 0.065130, 25.819572
0.390000, 0.065130, 25.354354
0.400000, 0.055826, 26.052181
0.410000, 0.055826, 26.517398
0.420000, 0.046522, 26.284789
0.430000, 0.046522, 26.284789
0.440000, 0.055826, 26.517398
0.450000, 0.046522, 26.750007
0.460000, 0.046522, 26.284789
0.470000, 0.055826, 26.517398
0.480000, 0.046522, 26.750007
0.490000, 0.065130, 26.284789
0.500000, 0.046522, 26.284789
0.510000, 0.065130, 26.284789
0.520000, 0.046522, 26.284789
0.530000, 0.046522, 26.284789
0.540000, 0.065130, 26.284789
0.550000, 0.055826, 26.517398
0.560000, 0.065130, 26.284789
0.570000, 0.046522, 26.750007
0.580000, 0.055826, 26.517398
0.590000, 0.065130, 26.750007
0.600000, 0.055826, 26.982616
0.610000, 0.065130, 26.750007
0.620000, 0.055826, 26.982616
0.630000, 0.055826, 26.982616
0.640000, 0.046522, 27.215224
0.650000, 0.065130, 27.215224
0.660000, 0.046522, 27.215224
0.670000, 0.046522, 27.215224
0.680000, 0.046522, 27.680442
0.690000, 0.055826, 26.982616
0.700000, 0.055826, 26.982616
0.710000, 0.055826, 26.982616
0.720000, 0.055826, 26.517398
0.730000, 0.055826, 26.517398
0.740000, 0.055826, 26.517398
0.750000, 0.055826, 26.517398
0.760000, 0.065130, 26.284789
0.770000, 0.065130, 26.750007
0.780000, 0.055826, 26.517398
0.790000, 0.065130, 26.750007
0.800000, 0.065130, 26.750007
0.810000, 0.046522, 26.750007
0.820000, 0.065130, 26.750007
0.830000, 0.065130, 27.215224
0.840000, 0.055826, 26.982616
0.850000, 0.055826, 27.447833
0.860000, 0.065130, 27.215224
0.870000, 0.046522, 27.215224
0.880000, 0.065130, 27.215224
0.890000, 0.055826, 27.447833
0.900000, 0.055826, 27.447833
0.910000, 0.046522, 27.215224
0.920000, 0.065130, 27.215224
0.930000, 0.046522, 27.215224
0.940000, 0.055826, 26.982616
0.950000, 0.055826, 26.982616
0.960000, 0.065130, 26.750007
0.970000, 0.046522, 26.750007
0.980000, 0.055826, 26.982616
0.990000, 0.055826, 26.517398
1.000000, 0.065130, 26.750007
---------- decelerate
1.010000, 0.065130, 22.563049
1.020000, 0.046522, 14.654352
1.030000, 0.055826, 9.769568
1.040000, 0.018609, 6.513045
1.050000, 0.018609, 4.186958
1.060000, 0.018609, 2.791305
1.070000, 0.009304, 2.093479
1.080000, 0.000000, 1.395653
1.090000, 0.009304, 1.163044
1.100000, 0.000000, 0.930435
1.110000, 0.009304, 0.697826
1.120000, 0.009304, 0.697826
1.130000, 0.009304, 0.697826
1.140000, 0.009304, 0.232609
1.150000, 0.000000, 0.465218
1.160000, 0.018609, 0.465218
1.170000, 0.009304, 0.232609
1.180000, 0.009304, -0.232609
1.190000, -0.009304, -0.232609
1.200000, 0.000000, 0.000000
1.210000, 0.000000, 0.000000
1.220000, 0.000000, 0.000000
1.230000, 0.000000, 0.000000
1.240000, 0.000000, 0.000000
1.250000, 0.000000, 0.000000
1.260000, 0.000000, 0.000000
1.270000, 0.000000, 0.000000
1.280000, 0.000000, 0.000000
1.290000, 0.000000, 0.000000
1.300000, 0.000000, 0.000000
1.310000, 0.000000, 0.000000
1.320000, 0.000000, 0.000000
1.330000, 0.000000, 0.000000
1.340000, 0.000000, 0.000000
1.350000, 0.000000, 0.000000
1.360000, 0.000000, 0.000000
1.370000, 0.000000, 0.000000
1.380000, 0.000000, 0.000000
1.390000, 0.000000, 0.000000
1.400000, 0.000000, 0.000000
1.410000, 0.000000, 0.000000
1.420000, 0.000000, 0.000000
1.430000, 0.000000, 0.000000
1.440000, 0.000000, 0.000000
1.450000, 0.000000, 0.000000
1.460000, 0.000000, 0.000000
1.470000, 0.000000, 0.000000
1.480000, 0.000000, 0.000000
1.490000, 0.000000, 0.000000
1.500000, 0.000000, 0.000000
1.510000, 0.000000, 0.000000
1.520000, 0.000000, 0.000000
1.530000, 0.000000, 0.000000
1.540000, 0.000000, 0.000000
1.550000, 0.000000, 0.000000
1.560000, 0.000000, 0.000000
1.570000, 0.000000, 0.000000
1.580000, 0.000000, 0.000000
1.590000, 0.000000, 0.000000
1.600000, 0.000000, 0.000000
1.610000, 0.000000, 0.000000
1.620000, 0.000000, 0.000000
1.630000, 0.000000, 0.000000
1.640000, 0.000000, 0.000000
1.650000, 0.000000, 0.000000
1.660000, 0.000000, 0.000000
1.670000, 0.000000, 0.000000
1.680000, 0.000000, 0.000000
1.690000, 0.000000, 0.000000
1.700000, 0.000000, 0.000000
1.710000, 0.000000, 0.000000
1.720000, 0.000000, 0.000000
1.730000, 0.000000, 0.000000
1.740000, 0.000000, 0.000000
1.750000, 0.000000, 0.000000
1.760000, 0.000000, 0.000000
1.770000, 0.000000, 0.000000
1.780000, 0.000000, 0.000000
1.790000, 0.000000, 0.000000
1.800000, 0.000000, 0.000000
1.810000, 0.000000, 0.000000
1.820000, 0.000000, 0.000000
1.830000, 0.000000, 0.000000
1.840000, 0.000000, 0.000000
1.850000, 0.000000, 0.000000
1.860000, 0.000000, 0.000000
1.870000, 0.000000, 0.000000
1.880000, 0.000000, 0.000000
1.890000, 0.000000, 0.000000
1.900000, 0.000000, 0.000000
1.910000, 0.000000, 0.000000
1.920000, 0.000000, 0.000000
1.930000, 0.000000, 0.000000
1.940000, 0.000000, 0.000000
1.950000, 0.000000, 0.000000
1.960000, 0.000000, 0.000000
1.970000, 0.000000, 0.000000
1.980000, 0.000000, 0.000000
1.990000, 0.000000, 0.000000
Test params: step 0.010000, total time 2.000000, motor angular speed 0.900000
time_seconds, velocity_linear, velocity_angular
0.000000, 0.000000, 0.00000
0.010000, 0.018609, 18.608700
0.020000, 0.000000, 15.817395
0.030000, 0.009304, 19.306527
0.040000, 0.018609, 20.934788
0.050000, 0.009304, 22.563049
0.060000, 0.009304, 23.493484
0.070000, 0.009304, 23.958702
0.080000, 0.018609, 25.121746
0.090000, 0.009304, 25.354354
0.100000, 0.018609, 25.586963
0.110000, 0.018609, 26.052181
0.120000, 0.018609, 26.052181
0.130000, 0.027913, 26.284789
0.140000, 0.018609, 26.517398
0.150000, 0.018609, 26.982616
0.160000, 0.027913, 26.750007
0.170000, 0.027913, 27.215224
0.180000, 0.027913, 26.750007
0.190000, 0.027913, 27.215224
0.200000, 0.027913, 27.215224
0.210000, 0.037217, 27.447833
0.220000, 0.037217, 27.447833
0.230000, 0.046522, 27.680442
0.240000, 0.037217, 27.913051
0.250000, 0.065130, 28.145659
0.260000, 0.037217, 28.378268
0.270000, 0.055826, 28.843486
0.280000, 0.055826, 28.843486
0.290000, 0.046522, 29.541312
0.300000, 0.055826, 29.308703
0.310000, 0.046522, 29.541312
0.320000, 0.065130, 29.541312
0.330000, 0.055826, 29.308703
0.340000, 0.055826, 29.773921
0.350000, 0.065130, 29.541312
0.360000, 0.055826, 29.308703
0.370000, 0.065130, 29.541312
0.380000, 0.046522, 29.541312
0.390000, 0.065130, 29.076095
0.400000, 0.055826, 29.773921
0.410000, 0.055826, 29.308703
0.420000, 0.055826, 29.308703
0.430000, 0.074435, 29.308703
0.440000, 0.055826, 29.308703
0.450000, 0.046522, 29.541312
0.460000, 0.065130, 29.541312
0.470000, 0.065130, 29.541312
0.480000, 0.065130, 29.541312
0.490000, 0.055826, 29.773921
0.500000, 0.065130, 30.006530
0.510000, 0.065130, 29.541312
0.520000, 0.055826, 30.239138
0.530000, 0.065130, 29.541312
0.540000, 0.065130, 30.006530
0.550000, 0.065130, 30.006530
0.560000, 0.065130, 30.006530
0.570000, 0.074435, 29.773921
0.580000, 0.074435, 29.773921
0.590000, 0.065130, 30.006530
0.600000, 0.065130, 29.541312
0.610000, 0.065130, 30.006530
0.620000, 0.065130, 29.541312
0.630000, 0.074435, 29.773921
0.640000, 0.065130, 30.006530
0.650000, 0.055826, 29.773921
0.660000, 0.065130, 30.006530
0.670000, 0.065130, 29.541312
0.680000, 0.055826, 30.239138
0.690000, 0.065130, 29.541312
0.700000, 0.065130, 30.006530
0.710000, 0.065130, 30.006530
0.720000, 0.055826, 29.773921
0.730000, 0.055826, 30.239138
0.740000, 0.074435, 29.773921
0.750000, 0.037217, 30.239138
0.760000, 0.074435, 29.773921
0.770000, 0.055826, 30.239138
0.780000, 0.055826, 29.773921
0.790000, 0.074435, 29.773921
0.800000, 0.065130, 30.006530
0.810000, 0.065130, 29.541312
0.820000, 0.065130, 30.006530
0.830000, 0.065130, 30.006530
0.840000, 0.065130, 29.541312
0.850000, 0.065130, 30.006530
0.860000, 0.065130, 30.006530
0.870000, 0.065130, 29.541312
0.880000, 0.065130, 30.006530
0.890000, 0.065130, 29.541312
0.900000, 0.074435, 29.773921
0.910000, 0.055826, 29.773921
0.920000, 0.065130, 30.006530
0.930000, 0.065130, 30.006530
0.940000, 0.065130, 30.006530
0.950000, 0.074435, 29.773921
0.960000, 0.055826, 29.773921
0.970000, 0.065130, 30.006530
0.980000, 0.074435, 29.773921
0.990000, 0.065130, 30.006530
1.000000, 0.074435, 29.773921
---------- decelerate
1.010000, 0.065130, 25.354354
1.020000, 0.065130, 17.445657
1.030000, 0.055826, 11.165220
1.040000, 0.027913, 7.210871
1.050000, 0.027913, 4.884784
1.060000, 0.009304, 3.489131
1.070000, 0.000000, 2.326088
1.080000, 0.018609, 1.860870
1.090000, 0.009304, 1.163044
1.100000, 0.000000, 0.930435
1.110000, 0.009304, 0.697826
1.120000, 0.009304, 0.697826
1.130000, 0.000000, 0.465218
1.140000, 0.018609, 0.465218
1.150000, 0.009304, 0.232609
1.160000, 0.009304, 0.232609
1.170000, 0.009304, 0.232609
1.180000, 0.009304, 0.232609
1.190000, 0.009304, -0.232609
1.200000, 0.000000, 0.000000
1.210000, 0.000000, 0.000000
1.220000, 0.000000, 0.000000
1.230000, 0.000000, 0.000000
1.240000, 0.000000, 0.000000
1.250000, 0.000000, 0.000000
1.260000, 0.000000, 0.000000
1.270000, 0.000000, 0.000000
1.280000, 0.000000, 0.000000
1.290000, 0.000000, 0.000000
1.300000, 0.000000, 0.000000
1.310000, 0.000000, 0.000000
1.320000, 0.000000, 0.000000
1.330000, 0.000000, 0.000000
1.340000, 0.000000, 0.000000
1.350000, 0.000000, 0.000000
1.360000, 0.000000, 0.000000
1.370000, 0.000000, 0.000000
1.380000, 0.000000, 0.000000
1.390000, 0.000000, 0.000000
1.400000, 0.000000, 0.000000
1.410000, 0.000000, 0.000000
1.420000, 0.000000, 0.000000
1.430000, 0.000000, 0.000000
1.440000, 0.000000, 0.000000
1.450000, 0.000000, 0.000000
1.460000, 0.000000, 0.000000
1.470000, 0.000000, 0.000000
1.480000, 0.000000, 0.000000
1.490000, 0.000000, 0.000000
1.500000, 0.000000, 0.000000
1.510000, 0.000000, 0.000000
1.520000, 0.000000, 0.000000
1.530000, 0.000000, 0.000000
1.540000, 0.000000, 0.000000
1.550000, 0.000000, 0.000000
1.560000, 0.000000, 0.000000
1.570000, 0.000000, 0.000000
1.580000, 0.000000, 0.000000
1.590000, 0.000000, 0.000000
1.600000, 0.000000, 0.000000
1.610000, 0.000000, 0.000000
1.620000, 0.000000, 0.000000
1.630000, 0.000000, 0.000000
1.640000, 0.000000, 0.000000
1.650000, 0.000000, 0.000000
1.660000, 0.000000, 0.000000
1.670000, 0.000000, 0.000000
1.680000, 0.000000, 0.000000
1.690000, 0.000000, 0.000000
1.700000, 0.000000, 0.000000
1.710000, 0.000000, 0.000000
1.720000, 0.000000, 0.000000
1.730000, 0.000000, 0.000000
1.740000, 0.000000, 0.000000
1.750000, 0.000000, 0.000000
1.760000, 0.000000, 0.000000
1.770000, 0.000000, 0.000000
1.780000, 0.000000, 0.000000
1.790000, 0.000000, 0.000000
1.800000, 0.000000, 0.000000
1.810000, 0.000000, 0.000000
1.820000, 0.000000, 0.000000
1.830000, 0.000000, 0.000000
1.840000, 0.000000, 0.000000
1.850000, 0.000000, 0.000000
1.860000, 0.000000, 0.000000
1.870000, 0.000000, 0.000000
1.880000, 0.000000, 0.000000
1.890000, 0.000000, 0.000000
1.900000, 0.000000, 0.000000
1.910000, 0.000000, 0.000000
1.920000, 0.000000, 0.000000
1.930000, 0.000000, 0.000000
1.940000, 0.000000, 0.000000
1.950000, 0.000000, 0.000000
1.960000, 0.000000, 0.000000
1.970000, 0.000000, 0.000000
1.980000, 0.000000, 0.000000
1.990000, 0.000000, 0.000000
Test params: step 0.010000, total time 2.000000, motor angular speed 1.000000
time_seconds, velocity_linear, velocity_angular
0.000000, 0.000000, 0.00000
0.010000, 0.000000, 19.073918
0.020000, 0.009304, 16.515222
0.030000, 0.000000, 20.004353
0.040000, 0.018609, 22.330441
0.050000, 0.000000, 24.191311
0.060000, 0.018609, 25.121746
0.070000, 0.009304, 26.284789
0.080000, 0.018609, 26.982616
0.090000, 0.000000, 27.447833
0.100000, 0.009304, 27.680442
0.110000, 0.018609, 28.378268
0.120000, 0.000000, 28.378268
0.130000, 0.000000, 28.378268
0.140000, 0.009304, 29.076095
0.150000, 0.009304, 29.076095
0.160000, 0.009304, 29.076095
0.170000, 0.009304, 29.541312
0.180000, 0.018609, 29.773921
0.190000, 0.027913, 29.541312
0.200000, 0.018609, 29.773921
0.210000, 0.027913, 30.471747
0.220000, 0.037217, 30.239138
0.230000, 0.037217, 30.704356
0.240000, 0.046522, 30.936965
0.250000, 0.046522, 30.936965
0.260000, 0.065130, 31.402182
0.270000, 0.055826, 31.634791
0.280000, 0.055826, 32.100008
0.290000, 0.055826, 32.100008
0.300000, 0.046522, 32.332617
0.310000, 0.055826, 32.565226
0.320000, 0.046522, 32.797835
0.330000, 0.055826, 32.565226
0.340000, 0.046522, 32.797835
0.350000, 0.055826, 32.565226
0.360000, 0.055826, 33.030443
0.370000, 0.055826, 32.565226
0.380000, 0.065130, 32.332617
0.390000, 0.046522, 32.797835
0.400000, 0.065130, 32.332617
0.410000, 0.055826, 32.565226
0.420000, 0.055826, 32.565226
0.430000, 0.065130, 32.332617
0.440000, 0.065130, 32.797835
0.450000, 0.065130, 32.332617
0.460000, 0.065130, 32.797835
0.470000, 0.065130, 32.797835
0.480000, 0.065130, 32.797835
0.490000, 0.055826, 33.030443
0.500000, 0.055826, 32.565226
0.510000, 0.055826, 33.030443
0.520000, 0.074435, 33.030443
0.530000, 0.055826, 33.030443
0.540000, 0.065130, 32.797835
0.550000, 0.065130, 33.263052
0.560000, 0.065130, 32.797835
0.570000, 0.055826, 33.030443
0.580000, 0.074435, 33.030443
0.590000, 0.055826, 33.030443
0.600000, 0.065130, 32.797835
0.610000, 0.065130, 33.263052
0.620000, 0.055826, 33.030443
0.630000, 0.065130, 33.263052
0.640000, 0.055826, 33.030443
0.650000, 0.065130, 32.797835
0.660000, 0.074435, 33.030443
0.670000, 0.055826, 33.030443
0.680000, 0.065130, 32.797835
0.690000, 0.046522, 33.263052
0.700000, 0.074435, 33.030443
0.710000, 0.065130, 32.797835
0.720000, 0.065130, 33.263052
0.730000, 0.065130, 32.797835
0.740000, 0.055826, 33.030443
0.750000, 0.065130, 33.263052
0.760000, 0.055826, 33.030443
0.770000, 0.055826, 33.030443
0.780000, 0.065130, 33.263052
0.790000, 0.055826, 33.030443
0.800000, 0.055826, 33.030443
0.810000, 0.074435, 33.030443
0.820000, 0.055826, 33.030443
0.830000, 0.065130, 33.263052
0.840000, 0.065130, 32.797835
0.850000, 0.065130, 33.263052
0.860000, 0.065130, 32.797835
0.870000, 0.065130, 33.263052
0.880000, 0.065130, 32.797835
0.890000, 0.055826, 33.030443
0.900000, 0.065130, 32.797835
0.910000, 0.065130, 33.263052
0.920000, 0.065130, 32.797835
0.930000, 0.065130, 32.797835
0.940000, 0.055826, 33.030443
0.950000, 0.065130, 33.263052
0.960000, 0.065130, 32.797835
0.970000, 0.065130, 33.263052
0.980000, 0.065130, 32.797835
0.990000, 0.065130, 33.263052
1.000000, 0.065130, 32.797835
---------- decelerate
1.010000, 0.065130, 28.145659
1.020000, 0.074435, 19.073918
1.030000, 0.074435, 12.560873
1.040000, 0.037217, 8.373915
1.050000, 0.037217, 5.582610
1.060000, 0.027913, 3.954349
1.070000, 0.000000, 2.791305
1.080000, 0.018609, 1.860870
1.090000, 0.000000, 1.860870
1.100000, 0.000000, 0.930435
1.110000, 0.000000, 1.395653
1.120000, -0.009304, 0.697826
1.130000, 0.009304, 0.697826
1.140000, 0.000000, 0.465218
1.150000, 0.000000, 0.930435
1.160000, 0.000000, 0.465218
1.170000, 0.009304, 0.232609
1.180000, 0.000000, 0.000000
1.190000, 0.000000, 0.000000
1.200000, 0.000000, 0.000000
1.210000, -0.009304, -0.232609
1.220000, 0.000000, 0.000000
1.230000, 0.000000, 0.000000
1.240000, 0.000000, 0.000000
1.250000, 0.000000, 0.000000
1.260000, 0.000000, 0.000000
1.270000, 0.000000, 0.000000
1.280000, 0.000000, 0.000000
1.290000, 0.000000, 0.000000
1.300000, 0.000000, 0.000000
1.310000, 0.000000, 0.000000
1.320000, 0.000000, 0.000000
1.330000, 0.000000, 0.000000
1.340000, 0.000000, 0.000000
1.350000, 0.000000, 0.000000
1.360000, 0.000000, 0.000000
1.370000, 0.000000, 0.000000
1.380000, 0.000000, 0.000000
1.390000, 0.000000, 0.000000
1.400000, 0.000000, 0.000000
1.410000, 0.000000, 0.000000
1.420000, 0.000000, 0.000000
1.430000, 0.000000, 0.000000
1.440000, 0.000000, 0.000000
1.450000, 0.000000, 0.000000
1.460000, 0.000000, 0.000000
1.470000, 0.000000, 0.000000
1.480000, 0.000000, 0.000000
1.490000, 0.000000, 0.000000
1.500000, 0.000000, 0.000000
1.510000, 0.000000, 0.000000
1.520000, 0.000000, 0.000000
1.530000, 0.000000, 0.000000
1.540000, 0.000000, 0.000000
1.550000, 0.000000, 0.000000
1.560000, 0.000000, 0.000000
1.570000, 0.000000, 0.000000
1.580000, 0.000000, 0.000000
1.590000, 0.000000, 0.000000
1.600000, 0.000000, 0.000000
1.610000, 0.000000, 0.000000
1.620000, 0.000000, 0.000000
1.630000, 0.000000, 0.000000
1.640000, 0.000000, 0.000000
1.650000, 0.000000, 0.000000
1.660000, 0.000000, 0.000000
1.670000, 0.000000, 0.000000
1.680000, 0.000000, 0.000000
1.690000, 0.000000, 0.000000
1.700000, 0.000000, 0.000000
1.710000, 0.000000, 0.000000
1.720000, 0.000000, 0.000000
1.730000, 0.000000, 0.000000
1.740000, 0.000000, 0.000000
1.750000, 0.000000, 0.000000
1.760000, 0.000000, 0.000000
1.770000, 0.000000, 0.000000
1.780000, 0.000000, 0.000000
1.790000, 0.000000, 0.000000
1.800000, 0.000000, 0.000000
1.810000, 0.000000, 0.000000
1.820000, 0.000000, 0.000000
1.830000, 0.000000, 0.000000
1.840000, 0.000000, 0.000000
1.850000, 0.000000, 0.000000
1.860000, 0.000000, 0.000000
1.870000, 0.000000, 0.000000
1.880000, 0.000000, 0.000000
1.890000, 0.000000, 0.000000
1.900000, 0.000000, 0.000000
1.910000, 0.000000, 0.000000
1.920000, 0.000000, 0.000000
1.930000, 0.000000, 0.000000
1.940000, 0.000000, 0.000000
1.950000, 0.000000, 0.000000
1.960000, 0.000000, 0.000000
1.970000, 0.000000, 0.000000
1.980000, 0.000000, 0.000000
1.990000, 0.000000, 0.000000
Test params: step 0.010000, total time 2.000000, motor angular speed 1.100000
time_seconds, velocity_linear, velocity_angular
MOTOR: wrong speed -1.100000 < -1.000000
MOTOR: wrong speed! 1.100000 > 1.000000
0.000000, 0.000000, 0.000000
0.010000, 0.000000, 4.186958
0.020000, -0.009304, 10.467394
0.030000, 0.009304, 15.584787
0.040000, 0.009304, 19.306527
0.050000, 0.009304, 21.632614
0.060000, 0.000000, 23.726093
0.070000, 0.009304, 24.889137
0.080000, 0.009304, 25.819572
0.090000, 0.018609, 26.982616
0.100000, 0.018609, 27.447833
0.110000, 0.000000, 27.913051
0.120000, 0.009304, 28.145659
0.130000, 0.000000, 28.378268
0.140000, 0.009304, 29.076095
0.150000, 0.018609, 28.843486
0.160000, 0.009304, 29.076095
0.170000, 0.027913, 29.076095
0.180000, 0.018609, 29.308703
0.190000, 0.018609, 29.308703
0.200000, 0.027913, 29.541312
0.210000, 0.027913, 29.541312
0.220000, 0.027913, 29.541312
0.230000, 0.046522, 30.006530
0.240000, 0.046522, 30.471747
0.250000, 0.055826, 30.704356
0.260000, 0.055826, 30.704356
0.270000, 0.074435, 31.169573
0.280000, 0.065130, 31.402182
0.290000, 0.074435, 31.634791
0.300000, 0.065130, 31.867400
0.310000, 0.074435, 32.100008
0.320000, 0.065130, 32.332617
0.330000, 0.065130, 32.332617
0.340000, 0.055826, 32.565226
0.350000, 0.074435, 32.565226
0.360000, 0.055826, 32.565226
0.370000, 0.074435, 32.565226
0.380000, 0.055826, 32.565226
0.390000, 0.074435, 32.565226
0.400000, 0.055826, 32.565226
0.410000, 0.083739, 32.332617
0.420000, 0.065130, 32.332617
0.430000, 0.074435, 32.565226
0.440000, 0.074435, 32.100008
0.450000, 0.074435, 32.565226
0.460000, 0.065130, 32.332617
0.470000, 0.083739, 32.332617
0.480000, 0.074435, 32.565226
0.490000, 0.083739, 32.332617
0.500000, 0.074435, 33.030443
0.510000, 0.083739, 32.332617
0.520000, 0.065130, 32.797835
0.530000, 0.074435, 33.030443
0.540000, 0.065130, 32.797835
0.550000, 0.065130, 32.797835
0.560000, 0.065130, 32.797835
0.570000, 0.074435, 33.030443
0.580000, 0.065130, 32.797835
0.590000, 0.074435, 33.030443
0.600000, 0.065130, 32.797835
0.610000, 0.074435, 33.030443
0.620000, 0.074435, 32.565226
0.630000, 0.065130, 32.797835
0.640000, 0.074435, 33.030443
0.650000, 0.074435, 32.565226
0.660000, 0.065130, 32.797835
0.670000, 0.074435, 33.030443
0.680000, 0.065130, 32.797835
0.690000, 0.065130, 32.797835
0.700000, 0.074435, 33.030443
0.710000, 0.065130, 32.797835
0.720000, 0.083739, 32.797835
0.730000, 0.055826, 33.030443
0.740000, 0.083739, 32.797835
0.750000, 0.055826, 33.030443
0.760000, 0.074435, 33.030443
0.770000, 0.074435, 33.030443
0.780000, 0.065130, 32.797835
0.790000, 0.074435, 33.030443
0.800000, 0.065130, 32.797835
0.810000, 0.083739, 32.797835
0.820000, 0.065130, 32.797835
0.830000, 0.074435, 33.030443
0.840000, 0.074435, 33.030443
0.850000, 0.055826, 33.030443
0.860000, 0.065130, 32.797835
0.870000, 0.083739, 32.797835
0.880000, 0.065130, 32.797835
0.890000, 0.074435, 33.030443
0.900000, 0.065130, 32.797835
0.910000, 0.074435, 33.030443
0.920000, 0.065130, 32.797835
0.930000, 0.083739, 32.797835
0.940000, 0.065130, 32.797835
0.950000, 0.065130, 32.797835
0.960000, 0.074435, 33.030443
0.970000, 0.065130, 32.797835
0.980000, 0.074435, 33.030443
0.990000, 0.065130, 32.797835
1.000000, 0.074435, 33.030443
---------- decelerate
1.010000, 0.074435, 27.913051
1.020000, 0.074435, 19.073918
1.030000, 0.065130, 12.793482
1.040000, 0.046522, 8.141306
1.050000, 0.037217, 5.582610
1.060000, 0.027913, 3.489131
1.070000, 0.009304, 2.558696
1.080000, 0.018609, 1.860870
1.090000, 0.009304, 1.163044
1.100000, 0.018609, 1.395653
1.110000, 0.000000, 0.930435
1.120000, 0.009304, 0.697826
1.130000, 0.018609, 0.465218
1.140000, 0.009304, 0.697826
1.150000, 0.000000, 0.465218
1.160000, 0.000000, 0.465218
1.170000, 0.018609, 0.465218
1.180000, 0.000000, 0.000000
1.190000, 0.009304, 0.232609
1.200000, 0.009304, 0.232609
1.210000, 0.000000, 0.000000
1.220000, 0.000000, 0.000000
1.230000, 0.000000, 0.000000
1.240000, 0.000000, 0.000000
1.250000, 0.000000, 0.000000
1.260000, 0.000000, 0.000000
1.270000, 0.000000, 0.000000
1.280000, 0.000000, 0.000000
1.290000, 0.000000, 0.000000
1.300000, 0.000000, 0.000000
1.310000, 0.000000, 0.000000
1.320000, 0.000000, 0.000000
1.330000, 0.000000, 0.000000
1.340000, 0.000000, 0.000000
1.350000, 0.000000, 0.000000
1.360000, 0.000000, 0.000000
1.370000, 0.000000, 0.000000
1.380000, 0.000000, 0.000000
1.390000, 0.000000, 0.000000
1.400000, 0.000000, 0.000000
1.410000, 0.000000, 0.000000
1.420000, 0.000000, 0.000000
1.430000, 0.000000, 0.000000
1.440000, 0.000000, 0.000000
1.450000, 0.000000, 0.000000
1.460000, 0.000000, 0.000000
1.470000, 0.000000, 0.000000
1.480000, 0.000000, 0.000000
1.490000, 0.000000, 0.000000
1.500000, 0.000000, 0.000000
1.510000, 0.000000, 0.000000
1.520000, 0.000000, 0.000000
1.530000, 0.000000, 0.000000
1.540000, 0.000000, 0.000000
1.550000, 0.000000, 0.000000
1.560000, 0.000000, 0.000000
1.570000, 0.000000, 0.000000
1.580000, 0.000000, 0.000000
1.590000, 0.000000, 0.000000
1.600000, 0.000000, 0.000000
1.610000, 0.000000, 0.000000
1.620000, 0.000000, 0.000000
1.630000, 0.000000, 0.000000
1.640000, 0.000000, 0.000000
1.650000, 0.000000, 0.000000
1.660000, 0.000000, 0.000000
1.670000, 0.000000, 0.000000
1.680000, 0.000000, 0.000000
1.690000, 0.000000, 0.000000
1.700000, 0.000000, 0.000000
1.710000, 0.000000, 0.000000
1.720000, 0.000000, 0.000000
1.730000, 0.000000, 0.000000
1.740000, 0.000000, 0.000000
1.750000, 0.000000, 0.000000
1.760000, 0.000000, 0.000000
1.770000, 0.000000, 0.000000
1.780000, 0.000000, 0.000000
1.790000, 0.000000, 0.000000
1.800000, 0.000000, 0.000000
1.810000, 0.000000, 0.000000
1.820000, 0.000000, 0.000000
1.830000, 0.000000, 0.000000
1.840000, 0.000000, 0.000000
1.850000, 0.000000, 0.000000
1.860000, 0.000000, 0.000000
1.870000, 0.000000, 0.000000
1.880000, 0.000000, 0.000000
1.890000, 0.000000, 0.000000
1.900000, 0.000000, 0.000000
1.910000, 0.000000, 0.000000
1.920000, 0.000000, 0.000000
1.930000, 0.000000, 0.000000
1.940000, 0.000000, 0.000000
1.950000, 0.000000, 0.000000
1.960000, 0.000000, 0.000000
1.970000, 0.000000, 0.000000
1.980000, 0.000000, 0.000000
1.990000, 0.000000, 0.000000
Test params: step 0.010000, total time 2.000000, motor angular speed 1.200000
time_seconds, velocity_linear, velocity_angular
MOTOR: wrong speed -1.200000 < -1.000000
MOTOR: wrong speed! 1.200000 > 1.000000
0.000000, 0.000000, 0.000000
0.010000, 0.009304, 4.419566
0.020000, -0.009304, 10.932612
0.030000, 0.009304, 15.584787
0.040000, 0.009304, 19.306527
0.050000, 0.000000, 21.865223
0.060000, 0.018609, 23.726093
0.070000, 0.009304, 24.889137
0.080000, 0.018609, 26.052181
0.090000, 0.018609, 26.982616
0.100000, 0.027913, 27.215224
0.110000, 0.018609, 27.913051
0.120000, 0.009304, 28.145659
0.130000, 0.009304, 28.610877
0.140000, 0.018609, 28.843486
0.150000, 0.018609, 28.843486
0.160000, 0.009304, 29.076095
0.170000, 0.027913, 29.541312
0.180000, 0.027913, 29.076095
0.190000, 0.018609, 29.773921
0.200000, 0.027913, 29.076095
0.210000, 0.027913, 30.006530
0.220000, 0.027913, 29.541312
0.230000, 0.037217, 29.773921
0.240000, 0.046522, 30.471747
0.250000, 0.046522, 30.471747
0.260000, 0.065130, 30.936965
0.270000, 0.065130, 30.936965
0.280000, 0.065130, 31.402182
0.290000, 0.065130, 31.402182
0.300000, 0.065130, 31.867400
0.310000, 0.055826, 32.100008
0.320000, 0.055826, 32.100008
0.330000, 0.065130, 32.332617
0.340000, 0.065130, 32.332617
0.350000, 0.055826, 32.565226
0.360000, 0.055826, 32.565226
0.370000, 0.065130, 32.797835
0.380000, 0.055826, 32.565226
0.390000, 0.055826, 32.565226
0.400000, 0.065130, 32.332617
0.410000, 0.055826, 32.565226
0.420000, 0.046522, 32.332617
0.430000, 0.055826, 32.565226
0.440000, 0.074435, 32.565226
0.450000, 0.055826, 32.565226
0.460000, 0.065130, 32.332617
0.470000, 0.065130, 32.797835
0.480000, 0.055826, 32.565226
0.490000, 0.065130, 32.797835
0.500000, 0.055826, 32.565226
0.510000, 0.065130, 32.797835
0.520000, 0.065130, 33.263052
0.530000, 0.065130, 32.797835
0.540000, 0.065130, 33.263052
0.550000, 0.074435, 32.565226
0.560000, 0.065130, 33.263052
0.570000, 0.065130, 32.797835
0.580000, 0.055826, 33.030443
0.590000, 0.074435, 33.030443
0.600000, 0.065130, 32.797835
0.610000, 0.065130, 32.797835
0.620000, 0.065130, 33.263052
0.630000, 0.065130, 32.797835
0.640000, 0.055826, 33.030443
0.650000, 0.065130, 32.797835
0.660000, 0.055826, 33.030443
0.670000, 0.065130, 32.797835
0.680000, 0.065130, 33.263052
0.690000, 0.055826, 33.030443
0.700000, 0.065130, 33.263052
0.710000, 0.055826, 33.030443
0.720000, 0.074435, 33.030443
0.730000, 0.065130, 33.263052
0.740000, 0.065130, 32.797835
0.750000, 0.046522, 33.263052
0.760000, 0.074435, 33.030443
0.770000, 0.055826, 33.030443
0.780000, 0.065130, 33.263052
0.790000, 0.055826, 33.030443
0.800000, 0.065130, 33.263052
0.810000, 0.055826, 33.030443
0.820000, 0.065130, 32.797835
0.830000, 0.065130, 33.263052
0.840000, 0.055826, 33.030443
0.850000, 0.055826, 33.030443
0.860000, 0.055826, 33.030443
0.870000, 0.065130, 33.263052
0.880000, 0.055826, 33.030443
0.890000, 0.065130, 32.797835
0.900000, 0.065130, 33.263052
0.910000, 0.065130, 32.797835
0.920000, 0.074435, 33.030443
0.930000, 0.046522, 33.263052
0.940000, 0.074435, 33.030443
0.950000, 0.055826, 33.030443
0.960000, 0.074435, 33.030443
0.970000, 0.065130, 33.263052
0.980000, 0.065130, 33.263052
0.990000, 0.065130, 32.797835
1.000000, 0.065130, 33.263052
---------- decelerate
1.010000, 0.074435, 27.913051
1.020000, 0.074435, 19.073918
1.030000, 0.055826, 13.026090
1.040000, 0.046522, 8.141306
1.050000, 0.027913, 5.815219
1.060000, 0.027913, 3.489131
1.070000, 0.009304, 2.558696
1.080000, 0.018609, 1.860870
1.090000, 0.009304, 1.163044
1.100000, 0.018609, 0.930435
1.110000, 0.000000, 0.930435
1.120000, 0.009304, 0.697826
1.130000, 0.000000, 0.465218
1.140000, 0.000000, 0.930435
1.150000, 0.009304, 0.232609
1.160000, -0.009304, 0.697826
1.170000, 0.000000, 0.000000
1.180000, 0.018609, 0.465218
1.190000, 0.009304, 0.232609
1.200000, 0.000000, 0.000000
1.210000, 0.000000, 0.000000
1.220000, 0.000000, 0.000000
1.230000, 0.000000, 0.000000
1.240000, 0.000000, 0.000000
1.250000, -0.009304, -0.232609
1.260000, 0.000000, 0.000000
1.270000, 0.000000, 0.000000
1.280000, 0.000000, 0.000000
1.290000, 0.000000, 0.000000
1.300000, 0.000000, 0.000000
1.310000, 0.000000, 0.000000
1.320000, 0.000000, 0.000000
1.330000, 0.000000, 0.000000
1.340000, 0.000000, 0.000000
1.350000, 0.000000, 0.000000
1.360000, 0.000000, 0.000000
1.370000, 0.000000, 0.000000
1.380000, 0.000000, 0.000000
1.390000, 0.000000, 0.000000
1.400000, 0.000000, 0.000000
1.410000, 0.000000, 0.000000
1.420000, 0.000000, 0.000000
1.430000, 0.000000, 0.000000
1.440000, 0.000000, 0.000000
1.450000, 0.000000, 0.000000
1.460000, 0.000000, 0.000000
1.470000, 0.000000, 0.000000
1.480000, 0.000000, 0.000000
1.490000, 0.000000, 0.000000
1.500000, 0.000000, 0.000000
1.510000, 0.000000, 0.000000
1.520000, 0.000000, 0.000000
1.530000, 0.000000, 0.000000
1.540000, 0.000000, 0.000000
1.550000, 0.000000, 0.000000
1.560000, 0.000000, 0.000000
1.570000, 0.000000, 0.000000
1.580000, 0.000000, 0.000000
1.590000, 0.000000, 0.000000
1.600000, 0.000000, 0.000000
1.610000, 0.000000, 0.000000
1.620000, 0.000000, 0.000000
1.630000, 0.000000, 0.000000
1.640000, 0.000000, 0.000000
1.650000, 0.000000, 0.000000
1.660000, 0.000000, 0.000000
1.670000, 0.000000, 0.000000
1.680000, 0.000000, 0.000000
1.690000, 0.000000, 0.000000
1.700000, 0.000000, 0.000000
1.710000, 0.000000, 0.000000
1.720000, 0.000000, 0.000000
1.730000, 0.000000, 0.000000
1.740000, 0.000000, 0.000000
1.750000, 0.000000, 0.000000
1.760000, 0.000000, 0.000000
1.770000, 0.000000, 0.000000
1.780000, 0.000000, 0.000000
1.790000, 0.000000, 0.000000
1.800000, 0.000000, 0.000000
1.810000, 0.000000, 0.000000
1.820000, 0.000000, 0.000000
1.830000, 0.000000, 0.000000
1.840000, 0.000000, 0.000000
1.850000, 0.000000, 0.000000
1.860000, 0.000000, 0.000000
1.870000, 0.000000, 0.000000
1.880000, 0.000000, 0.000000
1.890000, 0.000000, 0.000000
1.900000, 0.000000, 0.000000
1.910000, 0.000000, 0.000000
1.920000, 0.000000, 0.000000
1.930000, 0.000000, 0.000000
1.940000, 0.000000, 0.000000
1.950000, 0.000000, 0.000000
1.960000, 0.000000, 0.000000
1.970000, 0.000000, 0.000000
1.980000, 0.000000, 0.000000
1.990000, 0.000000, 0.000000
Test params: step 0.010000, total time 2.000000, motor angular speed 1.300000
time_seconds, velocity_linear, velocity_angular
MOTOR: wrong speed -1.300000 < -1.000000
MOTOR: wrong speed! 1.300000 > 1.000000
0.000000, 0.000000, 0.000000
0.010000, 0.000000, 4.186958
0.020000, -0.009304, 10.932612
0.030000, 0.000000, 15.817395
0.040000, 0.000000, 18.608700
0.050000, -0.009304, 22.097832
0.060000, 0.000000, 23.260876
0.070000, 0.018609, 25.121746
0.080000, 0.018609, 26.052181
0.090000, 0.009304, 26.750007
0.100000, 0.018609, 27.447833
0.110000, 0.009304, 27.680442
0.120000, 0.009304, 28.145659
0.130000, 0.009304, 28.610877
0.140000, 0.009304, 28.610877
0.150000, 0.009304, 28.610877
0.160000, 0.018609, 29.308703
0.170000, 0.009304, 29.076095
0.180000, 0.027913, 29.541312
0.190000, 0.009304, 29.541312
0.200000, 0.027913, 29.541312
0.210000, 0.027913, 29.541312
0.220000, 0.037217, 29.773921
0.230000, 0.037217, 29.773921
0.240000, 0.046522, 30.471747
0.250000, 0.046522, 30.471747
0.260000, 0.074435, 30.704356
0.270000, 0.055826, 31.169573
0.280000, 0.065130, 31.402182
0.290000, 0.065130, 31.402182
0.300000, 0.055826, 32.100008
0.310000, 0.074435, 32.100008
0.320000, 0.046522, 32.332617
0.330000, 0.055826, 32.565226
0.340000, 0.046522, 32.797835
0.350000, 0.065130, 32.797835
0.360000, 0.055826, 32.565226
0.370000, 0.055826, 32.565226
0.380000, 0.055826, 33.030443
0.390000, 0.055826, 32.565226
0.400000, 0.065130, 32.332617
0.410000, 0.065130, 32.797835
0.420000, 0.065130, 32.332617
0.430000, 0.055826, 32.565226
0.440000, 0.065130, 32.797835
0.450000, 0.065130, 32.332617
0.460000, 0.065130, 32.797835
0.470000, 0.065130, 32.332617
0.480000, 0.065130, 32.797835
0.490000, 0.074435, 33.030443
0.500000, 0.065130, 32.797835
0.510000, 0.055826, 33.030443
0.520000, 0.065130, 32.797835
0.530000, 0.055826, 33.030443
0.540000, 0.074435, 33.030443
0.550000, 0.055826, 33.030443
0.560000, 0.074435, 33.030443
0.570000, 0.055826, 33.030443
0.580000, 0.074435, 33.030443
0.590000, 0.065130, 32.797835
0.600000, 0.055826, 33.030443
0.610000, 0.065130, 32.797835
0.620000, 0.065130, 33.263052
0.630000, 0.065130, 32.797835
0.640000, 0.065130, 33.263052
0.650000, 0.065130, 32.797835
0.660000, 0.055826, 33.030443
0.670000, 0.065130, 32.797835
0.680000, 0.074435, 33.030443
0.690000, 0.065130, 32.797835
0.700000, 0.065130, 32.797835
0.710000, 0.074435, 33.030443
0.720000, 0.065130, 32.797835
0.730000, 0.065130, 32.797835
0.740000, 0.065130, 33.263052
0.750000, 0.074435, 33.030443
0.760000, 0.065130, 32.797835
0.770000, 0.074435, 33.030443
0.780000, 0.055826, 33.030443
0.790000, 0.065130, 32.797835
0.800000, 0.074435, 33.030443
0.810000, 0.074435, 33.030443
0.820000, 0.065130, 32.797835
0.830000, 0.074435, 33.030443
0.840000, 0.055826, 33.030443
0.850000, 0.065130, 32.797835
0.860000, 0.074435, 33.030443
0.870000, 0.065130, 32.797835
0.880000, 0.074435, 33.030443
0.890000, 0.065130, 32.797835
0.900000, 0.074435, 33.030443
0.910000, 0.055826, 33.030443
0.920000, 0.074435, 33.030443
0.930000, 0.065130, 32.797835
0.940000, 0.074435, 33.030443
0.950000, 0.065130, 32.797835
0.960000, 0.074435, 33.030443
0.970000, 0.055826, 33.030443
0.980000, 0.083739, 32.797835
0.990000, 0.065130, 33.263052
1.000000, 0.074435, 33.030443
---------- decelerate
1.010000, 0.065130, 28.145659
1.020000, 0.083739, 19.306527
1.030000, 0.074435, 12.560873
1.040000, 0.046522, 8.606524
1.050000, 0.037217, 5.117393
1.060000, 0.018609, 3.721740
1.070000, 0.018609, 2.791305
1.080000, 0.009304, 1.628261
1.090000, 0.018609, 1.395653
1.100000, 0.009304, 1.163044
1.110000, 0.009304, 0.697826
1.120000, 0.009304, 0.697826
1.130000, 0.009304, 0.697826
1.140000, 0.009304, 0.697826
1.150000, 0.009304, 0.232609
1.160000, 0.000000, 0.000000
1.170000, 0.009304, 0.232609
1.180000, 0.000000, 0.000000
1.190000, 0.009304, 0.232609
1.200000, 0.009304, 0.232609
1.210000, 0.000000, 0.000000
1.220000, 0.000000, 0.000000
1.230000, 0.000000, 0.000000
1.240000, 0.000000, 0.000000
1.250000, 0.000000, 0.000000
1.260000, 0.000000, 0.000000
1.270000, 0.009304, -0.232609
1.280000, 0.000000, 0.000000
1.290000, 0.000000, 0.000000
1.300000, 0.000000, 0.000000
1.310000, 0.000000, 0.000000
1.320000, 0.000000, 0.000000
1.330000, 0.000000, 0.000000
1.340000, 0.000000, 0.000000
1.350000, 0.000000, 0.000000
1.360000, 0.000000, 0.000000
1.370000, 0.000000, 0.000000
1.380000, 0.000000, 0.000000
1.390000, 0.000000, 0.000000
1.400000, 0.000000, 0.000000
1.410000, 0.000000, 0.000000
1.420000, 0.000000, 0.000000
1.430000, 0.000000, 0.000000
1.440000, 0.000000, 0.000000
1.450000, 0.000000, 0.000000
1.460000, 0.000000, 0.000000
1.470000, 0.000000, 0.000000
1.480000, 0.000000, 0.000000
1.490000, 0.000000, 0.000000
1.500000, 0.000000, 0.000000
1.510000, 0.000000, 0.000000
1.520000, 0.000000, 0.000000
1.530000, 0.000000, 0.000000
1.540000, 0.000000, 0.000000
1.550000, 0.000000, 0.000000
1.560000, 0.000000, 0.000000
1.570000, 0.000000, 0.000000
1.580000, 0.000000, 0.000000
1.590000, 0.000000, 0.000000
1.600000, 0.000000, 0.000000
1.610000, 0.000000, 0.000000
1.620000, 0.000000, 0.000000
1.630000, 0.000000, 0.000000
1.640000, 0.000000, 0.000000
1.650000, 0.000000, 0.000000
1.660000, 0.000000, 0.000000
1.670000, 0.000000, 0.000000
1.680000, 0.000000, 0.000000
1.690000, 0.000000, 0.000000
1.700000, 0.000000, 0.000000
1.710000, 0.000000, 0.000000
1.720000, 0.000000, 0.000000
1.730000, 0.000000, 0.000000
1.740000, 0.000000, 0.000000
1.750000, 0.000000, 0.000000
1.760000, 0.000000, 0.000000
1.770000, 0.000000, 0.000000
1.780000, 0.000000, 0.000000
1.790000, 0.000000, 0.000000
1.800000, 0.000000, 0.000000
1.810000, 0.000000, 0.000000
1.820000, 0.000000, 0.000000
1.830000, 0.000000, 0.000000
1.840000, 0.000000, 0.000000
1.850000, 0.000000, 0.000000
1.860000, 0.000000, 0.000000
1.870000, 0.000000, 0.000000
1.880000, 0.000000, 0.000000
1.890000, 0.000000, 0.000000
1.900000, 0.000000, 0.000000
1.910000, 0.000000, 0.000000
1.920000, 0.000000, 0.000000
1.930000, 0.000000, 0.000000
1.940000, 0.000000, 0.000000
1.950000, 0.000000, 0.000000
1.960000, 0.000000, 0.000000
1.970000, 0.000000, 0.000000
1.980000, 0.000000, 0.000000
1.990000, 0.000000, 0.000000
Test params: step 0.010000, total time 2.000000, motor angular speed 1.400000
time_seconds, velocity_linear, velocity_angular
MOTOR: wrong speed -1.400000 < -1.000000
MOTOR: wrong speed! 1.400000 > 1.000000
0.000000, 0.000000, 0.000000
0.010000, -0.009304, 3.954349
0.020000, 0.000000, 10.700003
0.030000, 0.000000, 15.352178
0.040000, 0.000000, 19.073918
0.050000, 0.009304, 21.632614
0.060000, 0.000000, 23.726093
0.070000, 0.009304, 24.889137
0.080000, 0.009304, 26.284789
0.090000, 0.000000, 26.982616
0.100000, 0.000000, 27.447833
0.110000, 0.009304, 27.680442
0.120000, 0.000000, 28.378268
0.130000, -0.009304, 28.610877
0.140000, 0.000000, 28.843486
0.150000, 0.009304, 28.610877
0.160000, 0.000000, 29.308703
0.170000, 0.018609, 29.308703
0.180000, 0.000000, 29.308703
0.190000, 0.018609, 29.308703
0.200000, 0.018609, 29.773921
0.210000, 0.018609, 29.773921
0.220000, 0.027913, 29.541312
0.230000, 0.037217, 30.239138
0.240000, 0.046522, 30.471747
0.250000, 0.055826, 30.239138
0.260000, 0.055826, 31.169573
0.270000, 0.055826, 31.169573
0.280000, 0.055826, 31.634791
0.290000, 0.065130, 31.867400
0.300000, 0.046522, 31.867400
0.310000, 0.065130, 32.332617
0.320000, 0.055826, 32.565226
0.330000, 0.055826, 32.565226
0.340000, 0.055826, 32.565226
0.350000, 0.065130, 32.332617
0.360000, 0.055826, 33.030443
0.370000, 0.055826, 32.565226
0.380000, 0.055826, 32.565226
0.390000, 0.065130, 32.797835
0.400000, 0.065130, 32.332617
0.410000, 0.065130, 32.797835
0.420000, 0.065130, 32.332617
0.430000, 0.065130, 32.332617
0.440000, 0.074435, 32.565226
0.450000, 0.065130, 32.332617
0.460000, 0.065130, 32.797835
0.470000, 0.065130, 32.797835
0.480000, 0.055826, 32.565226
0.490000, 0.065130, 32.797835
0.500000, 0.055826, 33.030443
0.510000, 0.074435, 33.030443
0.520000, 0.065130, 32.797835
0.530000, 0.074435, 33.030443
0.540000, 0.055826, 33.030443
0.550000, 0.065130, 32.797835
0.560000, 0.065130, 33.263052
0.570000, 0.065130, 32.797835
0.580000, 0.065130, 32.797835
0.590000, 0.055826, 33.030443
0.600000, 0.065130, 32.797835
0.610000, 0.074435, 33.030443
0.620000, 0.065130, 32.797835
0.630000, 0.065130, 32.797835
0.640000, 0.065130, 32.797835
0.650000, 0.055826, 33.030443
0.660000, 0.074435, 33.030443
0.670000, 0.065130, 32.797835
0.680000, 0.074435, 33.030443
0.690000, 0.055826, 33.030443
0.700000, 0.074435, 33.030443
0.710000, 0.065130, 32.797835
0.720000, 0.074435, 33.030443
0.730000, 0.055826, 33.030443
0.740000, 0.074435, 32.565226
0.750000, 0.065130, 33.263052
0.760000, 0.065130, 32.797835
0.770000, 0.074435, 33.030443
0.780000, 0.074435, 33.030443
0.790000, 0.065130, 32.797835
0.800000, 0.074435, 33.030443
0.810000, 0.055826, 33.030443
0.820000, 0.074435, 33.030443
0.830000, 0.074435, 33.030443
0.840000, 0.055826, 33.030443
0.850000, 0.065130, 33.263052
0.860000, 0.065130, 32.797835
0.870000, 0.065130, 33.263052
0.880000, 0.074435, 33.030443
0.890000, 0.055826, 33.030443
0.900000, 0.074435, 33.030443
0.910000, 0.055826, 33.030443
0.920000, 0.074435, 33.030443
0.930000, 0.065130, 32.797835
0.940000, 0.065130, 33.263052
0.950000, 0.065130, 32.797835
0.960000, 0.065130, 33.263052
0.970000, 0.065130, 32.797835
0.980000, 0.074435, 33.030443
0.990000, 0.065130, 32.797835
1.000000, 0.065130, 33.263052
---------- decelerate
1.010000, 0.065130, 28.145659
1.020000, 0.093044, 19.073918
1.030000, 0.065130, 12.328264
1.040000, 0.055826, 8.373915
1.050000, 0.037217, 5.117393
1.060000, 0.018609, 3.721740
1.070000, 0.027913, 2.093479
1.080000, 0.009304, 2.093479
1.090000, 0.009304, 1.163044
1.100000, 0.009304, 1.163044
1.110000, 0.009304, 1.163044
1.120000, 0.000000, 0.465218
1.130000, 0.027913, 0.697826
1.140000, 0.009304, 0.697826
1.150000, 0.000000, 0.465218
1.160000, 0.009304, 0.697826
1.170000, 0.018609, 0.465218
1.180000, 0.009304, 0.232609
1.190000, 0.000000, 0.000000
1.200000, 0.000000, 0.000000
1.210000, 0.000000, 0.000000
1.220000, -0.009304, -0.232609
1.230000, 0.000000, 0.000000
1.240000, 0.000000, 0.000000
1.250000, 0.000000, 0.000000
1.260000, 0.000000, 0.000000
1.270000, 0.000000, 0.000000
1.280000, 0.000000, 0.000000
1.290000, 0.000000, 0.000000
1.300000, 0.000000, 0.000000
1.310000, 0.000000, 0.000000
1.320000, 0.000000, 0.000000
1.330000, 0.000000, 0.000000
1.340000, 0.000000, 0.000000
1.350000, 0.000000, 0.000000
1.360000, 0.000000, 0.000000
1.370000, 0.000000, 0.000000
1.380000, 0.000000, 0.000000
1.390000, 0.000000, 0.000000
1.400000, 0.000000, 0.000000
1.410000, 0.000000, 0.000000
1.420000, 0.000000, 0.000000
1.430000, 0.000000, 0.000000
1.440000, 0.000000, 0.000000
1.450000, 0.000000, 0.000000
1.460000, 0.000000, 0.000000
1.470000, 0.000000, 0.000000
1.480000, 0.000000, 0.000000
1.490000, 0.000000, 0.000000
1.500000, 0.000000, 0.000000
1.510000, 0.000000, 0.000000
1.520000, 0.000000, 0.000000
1.530000, 0.000000, 0.000000
1.540000, 0.000000, 0.000000
1.550000, 0.000000, 0.000000
1.560000, 0.000000, 0.000000
1.570000, 0.000000, 0.000000
1.580000, 0.000000, 0.000000
1.590000, 0.000000, 0.000000
1.600000, 0.000000, 0.000000
1.610000, 0.000000, 0.000000
1.620000, 0.000000, 0.000000
1.630000, 0.000000, 0.000000
1.640000, 0.000000, 0.000000
1.650000, 0.000000, 0.000000
1.660000, 0.000000, 0.000000
1.670000, 0.000000, 0.000000
1.680000, 0.000000, 0.000000
1.690000, 0.000000, 0.000000
1.700000, 0.000000, 0.000000
1.710000, 0.000000, 0.000000
1.720000, 0.000000, 0.000000
1.730000, 0.000000, 0.000000
1.740000, 0.000000, 0.000000
1.750000, 0.000000, 0.000000
1.760000, 0.000000, 0.000000
1.770000, 0.000000, 0.000000
1.780000, 0.000000, 0.000000
1.790000, 0.000000, 0.000000
1.800000, 0.000000, 0.000000
1.810000, 0.000000, 0.000000
1.820000, 0.000000, 0.000000
1.830000, 0.000000, 0.000000
1.840000, 0.000000, 0.000000
1.850000, 0.000000, 0.000000
1.860000, 0.000000, 0.000000
1.870000, 0.000000, 0.000000
1.880000, 0.000000, 0.000000
1.890000, 0.000000, 0.000000
1.900000, 0.000000, 0.000000
1.910000, 0.000000, 0.000000
1.920000, 0.000000, 0.000000
1.930000, 0.000000, 0.000000
1.940000, 0.000000, 0.000000
1.950000, 0.000000, 0.000000
1.960000, 0.000000, 0.000000
1.970000, 0.000000, 0.000000
1.980000, 0.000000, 0.000000
1.990000, 0.000000, 0.000000
Test params: step 0.010000, total time 2.000000, motor angular speed 1.500000
time_seconds, velocity_linear, velocity_angular
MOTOR: wrong speed -1.500000 < -1.000000
MOTOR: wrong speed! 1.500000 > 1.000000
0.000000, 0.000000, 0.000000
0.010000, -0.009304, 4.419566
0.020000, -0.009304, 11.863047
0.030000, 0.000000, 17.678265
0.040000, -0.018609, 21.865223
0.050000, 0.000000, 24.656528
0.060000, -0.009304, 26.750007
0.070000, 0.009304, 28.610877
0.080000, -0.009304, 29.541312
0.090000, 0.009304, 30.471747
0.100000, -0.009304, 31.402182
0.110000, 0.000000, 31.634791
0.120000, 0.009304, 32.332617
0.130000, 0.000000, 32.565226
0.140000, 0.009304, 32.797835
0.150000, 0.000000, 33.030443
0.160000, 0.000000, 33.030443
0.170000, 0.009304, 33.263052
0.180000, 0.000000, 33.495661
0.190000, 0.009304, 33.728270
0.200000, 0.009304, 33.728270
0.210000, 0.000000, 33.495661
0.220000, 0.000000, 33.960878
0.230000, 0.009304, 33.728270
0.240000, 0.009304, 34.193487
0.250000, 0.000000, 33.960878
0.260000, 0.000000, 33.960878
0.270000, 0.009304, 34.193487
0.280000, 0.000000, 33.960878
0.290000, 0.000000, 34.426096
0.300000, 0.000000, 33.960878
0.310000, 0.000000, 33.960878
0.320000, 0.000000, 34.426096
0.330000, -0.009304, 34.193487
0.340000, 0.009304, 34.193487
0.350000, -0.009304, 34.193487
0.360000, 0.000000, 34.426096
0.370000, 0.000000, 33.960878
0.380000, 0.000000, 34.426096
0.390000, 0.000000, 33.960878
0.400000, -0.009304, 34.193487
0.410000, 0.000000, 33.960878
0.420000, 0.009304, 34.193487
0.430000, -0.009304, 34.193487
0.440000, 0.009304, 34.193487
0.450000, 0.000000, 34.426096
0.460000, 0.000000, 33.960878
0.470000, 0.000000, 33.960878
0.480000, 0.000000, 33.960878
0.490000, 0.000000, 34.426096
0.500000, 0.000000, 33.960878
0.510000, -0.009304, 34.193487
0.520000, 0.000000, 34.426096
0.530000, 0.000000, 33.960878
0.540000, 0.000000, 33.960878
0.550000, -0.009304, 34.193487
0.560000, 0.000000, 33.960878
0.570000, -0.009304, 34.193487
0.580000, 0.009304, 34.193487
0.590000, -0.009304, 34.193487
0.600000, 0.009304, 34.193487
0.610000, -0.009304, 34.193487
0.620000, -0.009304, 34.193487
0.630000, 0.000000, 34.426096
0.640000, 0.000000, 33.960878
0.650000, -0.009304, 34.193487
0.660000, 0.000000, 34.426096
0.670000, -0.009304, 34.193487
0.680000, 0.000000, 34.426096
0.690000, 0.000000, 33.960878
0.700000, -0.009304, 34.193487
0.710000, -0.009304, 34.193487
0.720000, 0.000000, 33.960878
0.730000, 0.000000, 34.426096
0.740000, 0.000000, 33.960878
0.750000, -0.009304, 34.193487
0.760000, 0.000000, 33.960878
0.770000, -0.009304, 34.193487
0.780000, 0.009304, 34.193487
0.790000, -0.009304, 34.193487
0.800000, -0.009304, 34.193487
0.810000, 0.009304, 34.193487
0.820000, -0.009304, 34.193487
0.830000, 0.000000, 34.426096
0.840000, -0.009304, 34.193487
0.850000, 0.000000, 33.960878
0.860000, -0.009304, 34.193487
0.870000, 0.000000, 34.426096
0.880000, 0.000000, 33.960878
0.890000, -0.009304, 34.193487
0.900000, 0.009304, 34.193487
0.910000, -0.009304, 34.193487
0.920000, -0.009304, 34.193487
0.930000, 0.009304, 34.193487
0.940000, -0.009304, 34.193487
0.950000, 0.000000, 33.960878
0.960000, -0.009304, 34.193487
0.970000, 0.000000, 34.426096
0.980000, 0.000000, 33.960878
0.990000, 0.000000, 33.960878
1.000000, -0.009304, 34.193487
---------- decelerate
1.010000, 0.009304, 29.076095
1.020000, 0.009304, 19.771744
1.030000, 0.018609, 12.560873
1.040000, 0.009304, 7.676089
1.050000, 0.009304, 4.419566
1.060000, 0.000000, 2.326088
1.070000, 0.009304, 1.628261
1.080000, 0.000000, 0.465218
1.090000, 0.000000, 0.000000
1.100000, 0.000000, 0.000000
1.110000, 0.000000, 0.000000
1.120000, 0.000000, 0.000000
1.130000, 0.000000, 0.000000
1.140000, 0.000000, 0.000000
1.150000, 0.000000, 0.000000
1.160000, 0.000000, 0.000000
1.170000, 0.000000, 0.000000
1.180000, 0.000000, 0.000000
1.190000, 0.000000, 0.000000
1.200000, 0.000000, 0.000000
1.210000, 0.000000, 0.000000
1.220000, 0.000000, 0.000000
1.230000, 0.000000, 0.000000
1.240000, 0.000000, 0.000000
1.250000, 0.000000, 0.000000
1.260000, 0.000000, 0.000000
1.270000, 0.000000, 0.000000
1.280000, 0.000000, 0.000000
1.290000, 0.000000, 0.000000
1.300000, 0.000000, 0.000000
1.310000, 0.000000, 0.000000
1.320000, 0.000000, 0.000000
1.330000, 0.000000, 0.000000
1.340000, 0.000000, 0.000000
1.350000, 0.000000, 0.000000
1.360000, 0.000000, 0.000000
1.370000, 0.000000, 0.000000
1.380000, 0.000000, 0.000000
1.390000, 0.000000, 0.000000
1.400000, 0.000000, 0.000000
1.410000, 0.000000, 0.000000
1.420000, 0.000000, 0.000000
1.430000, 0.000000, 0.000000
1.440000, 0.000000, 0.000000
1.450000, 0.000000, 0.000000
1.460000, 0.000000, 0.000000
1.470000, 0.000000, 0.000000
1.480000, 0.000000, 0.000000
1.490000, 0.000000, 0.000000
1.500000, 0.000000, 0.000000
1.510000, 0.000000, 0.000000
1.520000, 0.000000, 0.000000
1.530000, 0.000000, 0.000000
1.540000, 0.000000, 0.000000
1.550000, 0.000000, 0.000000
1.560000, 0.000000, 0.000000
1.570000, 0.000000, 0.000000
1.580000, 0.000000, 0.000000
1.590000, 0.000000, 0.000000
1.600000, 0.000000, 0.000000
1.610000, 0.000000, 0.000000
1.620000, 0.000000, 0.000000
1.630000, 0.000000, 0.000000
1.640000, 0.000000, 0.000000
1.650000, 0.000000, 0.000000
1.660000, 0.000000, 0.000000
1.670000, 0.000000, 0.000000
1.680000, 0.000000, 0.000000
1.690000, 0.000000, 0.000000
1.700000, 0.000000, 0.000000
1.710000, 0.000000, 0.000000
1.720000, 0.000000, 0.000000
1.730000, 0.000000, 0.000000
1.740000, 0.000000, 0.000000
1.750000, 0.000000, 0.000000
1.760000, 0.000000, 0.000000
1.770000, 0.000000, 0.000000
1.780000, 0.000000, 0.000000
1.790000, 0.000000, 0.000000
1.800000, 0.000000, 0.000000
1.810000, 0.000000, 0.000000
1.820000, 0.000000, 0.000000
1.830000, 0.000000, 0.000000
1.840000, 0.000000, 0.000000
1.850000, 0.000000, 0.000000
1.860000, 0.000000, 0.000000
1.870000, 0.000000, 0.000000
1.880000, 0.000000, 0.000000
1.890000, 0.000000, 0.000000
1.900000, 0.000000, 0.000000
1.910000, 0.000000, 0.000000
1.920000, 0.000000, 0.000000
1.930000, 0.000000, 0.000000
1.940000, 0.000000, 0.000000
1.950000, 0.000000, 0.000000
1.960000, 0.000000, 0.000000
1.970000, 0.000000, 0.000000
1.980000, 0.000000, 0.000000
1.990000, 0.000000, 0.000000
