logger initialized





****************
Battery voltage raw: 2115, real: 8.46V
.Test params: step 0.010000, total time 2.000000, motor speed 0.100000
time_seconds, velocity_linear, velocity_angular
0.000000, 0.000000, 0.000000
0.010000, 0.009304, 0.232609
0.020000, 0.046522, -0.232609
0.030000, 0.065130, -0.232609
0.040000, 0.083739, 0.232609
0.050000, 0.083739, 0.232609
0.060000, 0.111652, 0.000000
0.070000, 0.093044, 0.000000
0.080000, 0.111652, 0.000000
0.090000, 0.120957, 0.232609
0.100000, 0.111652, 0.000000
0.110000, 0.130261, 0.000000
0.120000, 0.111652, 0.000000
0.130000, 0.130261, 0.000000
0.140000, 0.130261, 0.000000
0.150000, 0.120957, -0.232609
0.160000, 0.120957, 0.232609
0.170000, 0.130261, 0.000000
0.180000, 0.130261, 0.000000
0.190000, 0.130261, 0.000000
0.200000, 0.130261, 0.000000
0.210000, 0.130261, 0.000000
0.220000, 0.120957, -0.232609
0.230000, 0.120957, 0.232609
0.240000, 0.130261, 0.000000
0.250000, 0.130261, 0.000000
0.260000, 0.130261, 0.000000
0.270000, 0.130261, 0.000000
0.280000, 0.130261, 0.000000
0.290000, 0.130261, 0.000000
0.300000, 0.111652, 0.000000
0.310000, 0.130261, 0.000000
0.320000, 0.130261, 0.000000
0.330000, 0.130261, 0.000000
0.340000, 0.130261, 0.000000
0.350000, 0.130261, 0.000000
0.360000, 0.111652, 0.000000
0.370000, 0.130261, 0.000000
0.380000, 0.130261, 0.000000
0.390000, 0.130261, 0.000000
0.400000, 0.130261, 0.000000
0.410000, 0.130261, 0.000000
0.420000, 0.130261, 0.000000
0.430000, 0.130261, 0.000000
0.440000, 0.130261, 0.000000
0.450000, 0.120957, -0.232609
0.460000, 0.130261, 0.000000
0.470000, 0.130261, 0.000000
0.480000, 0.120957, 0.232609
0.490000, 0.130261, 0.000000
0.500000, 0.130261, 0.000000
0.510000, 0.130261, 0.000000
0.520000, 0.130261, 0.000000
0.530000, 0.130261, 0.000000
0.540000, 0.120957, -0.232609
0.550000, 0.130261, 0.000000
0.560000, 0.130261, 0.000000
0.570000, 0.120957, 0.232609
0.580000, 0.130261, 0.000000
0.590000, 0.130261, 0.000000
0.600000, 0.130261, 0.000000
0.610000, 0.130261, 0.000000
0.620000, 0.130261, 0.000000
0.630000, 0.130261, 0.000000
0.640000, 0.120957, -0.232609
0.650000, 0.120957, 0.232609
0.660000, 0.130261, 0.000000
0.670000, 0.130261, 0.000000
0.680000, 0.130261, 0.000000
0.690000, 0.130261, 0.000000
0.700000, 0.130261, 0.000000
0.710000, 0.120957, 0.232609
0.720000, 0.130261, -0.465218
0.730000, 0.139565, 0.232609
0.740000, 0.120957, -0.232609
0.750000, 0.120957, 0.232609
0.760000, 0.130261, 0.000000
0.770000, 0.130261, 0.000000
0.780000, 0.130261, 0.000000
0.790000, 0.130261, 0.000000
0.800000, 0.111652, 0.000000
0.810000, 0.130261, 0.000000
0.820000, 0.130261, 0.000000
0.830000, 0.130261, 0.000000
0.840000, 0.130261, 0.000000
0.850000, 0.130261, 0.000000
0.860000, 0.120957, -0.232609
0.870000, 0.120957, 0.232609
0.880000, 0.130261, 0.000000
0.890000, 0.130261, 0.000000
0.900000, 0.130261, 0.000000
0.910000, 0.120957, -0.232609
0.920000, 0.130261, 0.465218
0.930000, 0.130261, -0.465218
0.940000, 0.130261, 0.465218
0.950000, 0.120957, -0.232609
0.960000, 0.130261, 0.000000
0.970000, 0.130261, 0.000000
0.980000, 0.130261, 0.000000
0.990000, 0.130261, 0.000000
1.000000, 0.130261, 0.000000
---------- decelerate
1.010000, 0.093044, 0.000000
1.020000, 0.055826, 0.000000
1.030000, 0.027913, -0.232609
1.040000, 0.009304, 0.232609
1.050000, 0.009304, 0.232609
1.060000, 0.000000, 0.000000
1.070000, 0.000000, 0.000000
1.080000, 0.000000, 0.000000
1.090000, 0.000000, 0.000000
1.100000, 0.000000, 0.000000
1.110000, 0.000000, 0.000000
1.120000, 0.000000, 0.000000
1.130000, 0.000000, 0.000000
1.140000, 0.000000, 0.000000
1.150000, 0.000000, 0.000000
1.160000, 0.000000, 0.000000
1.170000, 0.000000, 0.000000
1.180000, 0.000000, 0.000000
1.190000, 0.000000, 0.000000
1.200000, 0.000000, 0.000000
1.210000, 0.000000, 0.000000
1.220000, 0.000000, 0.000000
1.230000, 0.000000, 0.000000
1.240000, 0.000000, 0.000000
1.250000, 0.000000, 0.000000
1.260000, 0.000000, 0.000000
1.270000, 0.000000, 0.000000
1.280000, 0.000000, 0.000000
1.290000, 0.000000, 0.000000
1.300000, 0.000000, 0.000000
1.310000, 0.000000, 0.000000
1.320000, 0.000000, 0.000000
1.330000, 0.000000, 0.000000
1.340000, 0.000000, 0.000000
1.350000, 0.000000, 0.000000
1.360000, 0.000000, 0.000000
1.370000, 0.000000, 0.000000
1.380000, 0.000000, 0.000000
1.390000, 0.000000, 0.000000
1.400000, 0.000000, 0.000000
1.410000, 0.000000, 0.000000
1.420000, 0.000000, 0.000000
1.430000, 0.000000, 0.000000
1.440000, 0.000000, 0.000000
1.450000, 0.000000, 0.000000
1.460000, 0.000000, 0.000000
1.470000, 0.000000, 0.000000
1.480000, 0.000000, 0.000000
1.490000, 0.000000, 0.000000
1.500000, 0.000000, 0.000000
1.510000, 0.000000, 0.000000
1.520000, 0.000000, 0.000000
1.530000, 0.000000, 0.000000
1.540000, 0.000000, 0.000000
1.550000, 0.000000, 0.000000
1.560000, 0.000000, 0.000000
1.570000, 0.000000, 0.000000
1.580000, 0.000000, 0.000000
1.590000, 0.000000, 0.000000
1.600000, 0.000000, 0.000000
1.610000, 0.000000, 0.000000
1.620000, 0.000000, 0.000000
1.630000, 0.000000, 0.000000
1.640000, 0.000000, 0.000000
1.650000, 0.000000, 0.000000
1.660000, 0.000000, 0.000000
1.670000, 0.000000, 0.000000
1.680000, 0.000000, 0.000000
1.690000, 0.000000, 0.000000
1.700000, 0.000000, 0.000000
1.710000, 0.000000, 0.000000
1.720000, 0.000000, 0.000000
1.730000, 0.000000, 0.000000
1.740000, 0.000000, 0.000000
1.750000, 0.000000, 0.000000
1.760000, 0.000000, 0.000000
1.770000, 0.000000, 0.000000
1.780000, 0.000000, 0.000000
1.790000, 0.000000, 0.000000
1.800000, 0.000000, 0.000000
1.810000, 0.000000, 0.000000
1.820000, 0.000000, 0.000000
1.830000, 0.000000, 0.000000
1.840000, 0.000000, 0.000000
1.850000, 0.000000, 0.000000
1.860000, 0.000000, 0.000000
1.870000, 0.000000, 0.000000
1.880000, 0.000000, 0.000000
1.890000, 0.000000, 0.000000
1.900000, 0.000000, 0.000000
1.910000, 0.000000, 0.000000
1.920000, 0.000000, 0.000000
1.930000, 0.000000, 0.000000
1.940000, 0.000000, 0.000000
1.950000, 0.000000, 0.000000
1.960000, 0.000000, 0.000000
1.970000, 0.000000, 0.000000
1.980000, 0.000000, 0.000000
1.990000, 0.000000, 0.000000
Test params: step 0.010000, total time 2.000000, motor speed 0.200000
time_seconds, velocity_linear, velocity_angular
0.000000, 0.000000, 0.000000
0.010000, 0.065130, -0.232609
0.020000, 0.111652, 0.000000
0.030000, 0.167478, 0.000000
0.040000, 0.176783, -0.232609
0.050000, 0.204696, 0.000000
0.060000, 0.223304, 0.000000
0.070000, 0.241913, 0.000000
0.080000, 0.251217, -0.232609
0.090000, 0.260522, 0.000000
0.100000, 0.260522, 0.000000
0.110000, 0.260522, 0.000000
0.120000, 0.260522, 0.000000
0.130000, 0.260522, 0.000000
0.140000, 0.260522, 0.000000
0.150000, 0.269826, -0.232609
0.160000, 0.269826, -0.232609
0.170000, 0.279131, 0.000000
0.180000, 0.269826, -0.232609
0.190000, 0.279131, 0.000000
0.200000, 0.279131, 0.000000
0.210000, 0.279131, 0.000000
0.220000, 0.279131, 0.000000
0.230000, 0.288435, 0.232609
0.240000, 0.297739, 0.000000
0.250000, 0.279131, 0.000000
0.260000, 0.297739, 0.000000
0.270000, 0.279131, 0.000000
0.280000, 0.288435, 0.232609
0.290000, 0.269826, -0.232609
0.300000, 0.288435, -0.232609
0.310000, 0.288435, 0.232609
0.320000, 0.279131, 0.000000
0.330000, 0.279131, 0.000000
0.340000, 0.279131, 0.000000
0.350000, 0.279131, 0.000000
0.360000, 0.279131, 0.000000
0.370000, 0.288435, -0.232609
0.380000, 0.279131, 0.000000
0.390000, 0.279131, 0.000000
0.400000, 0.288435, 0.232609
0.410000, 0.279131, 0.000000
0.420000, 0.279131, 0.000000
0.430000, 0.288435, 0.232609
0.440000, 0.288435, -0.232609
0.450000, 0.279131, 0.000000
0.460000, 0.279131, 0.000000
0.470000, 0.279131, 0.000000
0.480000, 0.279131, 0.000000
0.490000, 0.288435, -0.232609
0.500000, 0.279131, 0.000000
0.510000, 0.279131, 0.000000
0.520000, 0.288435, 0.232609
0.530000, 0.279131, 0.000000
0.540000, 0.279131, 0.000000
0.550000, 0.279131, 0.000000
0.560000, 0.279131, 0.000000
0.570000, 0.288435, 0.232609
0.580000, 0.288435, -0.232609
0.590000, 0.279131, 0.000000
0.600000, 0.279131, 0.000000
0.610000, 0.288435, -0.232609
0.620000, 0.279131, 0.000000
0.630000, 0.279131, 0.000000
0.640000, 0.288435, 0.232609
0.650000, 0.279131, 0.000000
0.660000, 0.288435, 0.232609
0.670000, 0.279131, 0.000000
0.680000, 0.288435, -0.232609
0.690000, 0.279131, 0.000000
0.700000, 0.279131, 0.000000
0.710000, 0.279131, 0.000000
0.720000, 0.279131, 0.000000
0.730000, 0.288435, -0.232609
0.740000, 0.279131, 0.000000
0.750000, 0.288435, 0.232609
0.760000, 0.279131, 0.000000
0.770000, 0.279131, 0.000000
0.780000, 0.279131, 0.000000
0.790000, 0.279131, 0.000000
0.800000, 0.279131, 0.000000
0.810000, 0.279131, 0.000000
0.820000, 0.279131, 0.000000
0.830000, 0.288435, -0.232609
0.840000, 0.288435, 0.232609
0.850000, 0.279131, 0.000000
0.860000, 0.279131, 0.000000
0.870000, 0.279131, 0.000000
0.880000, 0.279131, 0.000000
0.890000, 0.279131, 0.000000
0.900000, 0.279131, 0.000000
0.910000, 0.279131, 0.000000
0.920000, 0.279131, 0.000000
0.930000, 0.279131, 0.000000
0.940000, 0.279131, 0.000000
0.950000, 0.279131, 0.000000
0.960000, 0.288435, 0.232609
0.970000, 0.279131, 0.000000
0.980000, 0.288435, -0.232609
0.990000, 0.279131, 0.000000
1.000000, 0.279131, 0.000000
---------- decelerate
1.010000, 0.232609, -0.232609
1.020000, 0.130261, 0.000000
1.030000, 0.083739, 0.232609
1.040000, 0.055826, 0.000000
1.050000, 0.018609, 0.000000
1.060000, 0.018609, 0.000000
1.070000, 0.009304, -0.232609
1.080000, 0.000000, 0.000000
1.090000, 0.000000, 0.000000
1.100000, 0.000000, 0.000000
1.110000, 0.000000, 0.000000
1.120000, 0.000000, 0.000000
1.130000, 0.000000, 0.000000
1.140000, 0.000000, 0.000000
1.150000, 0.000000, 0.000000
1.160000, 0.000000, 0.000000
1.170000, 0.000000, 0.000000
1.180000, 0.000000, 0.000000
1.190000, 0.000000, 0.000000
1.200000, 0.000000, 0.000000
1.210000, 0.000000, 0.000000
1.220000, 0.000000, 0.000000
1.230000, 0.000000, 0.000000
1.240000, 0.000000, 0.000000
1.250000, 0.000000, 0.000000
1.260000, 0.000000, 0.000000
1.270000, 0.000000, 0.000000
1.280000, 0.000000, 0.000000
1.290000, 0.000000, 0.000000
1.300000, 0.000000, 0.000000
1.310000, 0.000000, 0.000000
1.320000, 0.000000, 0.000000
1.330000, 0.000000, 0.000000
1.340000, 0.000000, 0.000000
1.350000, 0.000000, 0.000000
1.360000, 0.000000, 0.000000
1.370000, 0.000000, 0.000000
1.380000, 0.000000, 0.000000
1.390000, 0.000000, 0.000000
1.400000, 0.000000, 0.000000
1.410000, 0.000000, 0.000000
1.420000, 0.000000, 0.000000
1.430000, 0.000000, 0.000000
1.440000, 0.000000, 0.000000
1.450000, 0.000000, 0.000000
1.460000, 0.000000, 0.000000
1.470000, 0.000000, 0.000000
1.480000, 0.000000, 0.000000
1.490000, 0.000000, 0.000000
1.500000, 0.000000, 0.000000
1.510000, 0.000000, 0.000000
1.520000, 0.000000, 0.000000
1.530000, 0.000000, 0.000000
1.540000, 0.000000, 0.000000
1.550000, 0.000000, 0.000000
1.560000, 0.000000, 0.000000
1.570000, 0.000000, 0.000000
1.580000, 0.000000, 0.000000
1.590000, 0.000000, 0.000000
1.600000, 0.000000, 0.000000
1.610000, 0.000000, 0.000000
1.620000, 0.000000, 0.000000
1.630000, 0.000000, 0.000000
1.640000, 0.000000, 0.000000
1.650000, 0.000000, 0.000000
1.660000, 0.000000, 0.000000
1.670000, 0.000000, 0.000000
1.680000, 0.000000, 0.000000
1.690000, 0.000000, 0.000000
1.700000, 0.000000, 0.000000
1.710000, 0.000000, 0.000000
1.720000, 0.000000, 0.000000
1.730000, 0.000000, 0.000000
1.740000, 0.000000, 0.000000
1.750000, 0.000000, 0.000000
1.760000, 0.000000, 0.000000
1.770000, 0.000000, 0.000000
1.780000, 0.000000, 0.000000
1.790000, 0.000000, 0.000000
1.800000, 0.000000, 0.000000
1.810000, 0.000000, 0.000000
1.820000, 0.000000, 0.000000
1.830000, 0.000000, 0.000000
1.840000, 0.000000, 0.000000
1.850000, 0.000000, 0.000000
1.860000, 0.000000, 0.000000
1.870000, 0.000000, 0.000000
1.880000, 0.000000, 0.000000
1.890000, 0.000000, 0.000000
1.900000, 0.000000, 0.000000
1.910000, 0.000000, 0.000000
1.920000, 0.000000, 0.000000
1.930000, 0.000000, 0.000000
1.940000, 0.000000, 0.000000
1.950000, 0.000000, 0.000000
1.960000, 0.000000, 0.000000
1.970000, 0.000000, 0.000000
1.980000, 0.000000, 0.000000
1.990000, 0.000000, 0.000000
Test params: step 0.010000, total time 2.000000, motor speed 0.300000
time_seconds, velocity_linear, velocity_angular
0.000000, 0.000000, 0.000000
0.010000, 0.074435, 0.000000
0.020000, 0.186087, 0.000000
0.030000, 0.241913, 0.000000
0.040000, 0.288435, 0.232609
0.050000, 0.316348, 0.000000
0.060000, 0.334957, 0.000000
0.070000, 0.362870, 0.232609
0.080000, 0.381478, -0.232609
0.090000, 0.390783, 0.000000
0.100000, 0.381478, 0.232609
0.110000, 0.390783, 0.000000
0.120000, 0.390783, -0.465218
0.130000, 0.400087, 0.232609
0.140000, 0.409391, 0.000000
0.150000, 0.418696, -0.232609
0.160000, 0.418696, 0.232609
0.170000, 0.428000, 0.000000
0.180000, 0.409391, 0.000000
0.190000, 0.428000, 0.000000
0.200000, 0.428000, 0.000000
0.210000, 0.428000, 0.000000
0.220000, 0.428000, 0.000000
0.230000, 0.428000, 0.000000
0.240000, 0.428000, 0.000000
0.250000, 0.446609, 0.000000
0.260000, 0.446609, 0.000000
0.270000, 0.437304, -0.232609
0.280000, 0.437304, 0.232609
0.290000, 0.446609, 0.000000
0.300000, 0.446609, 0.000000
0.310000, 0.428000, 0.000000
0.320000, 0.428000, 0.000000
0.330000, 0.437304, -0.232609
0.340000, 0.437304, 0.232609
0.350000, 0.446609, 0.000000
0.360000, 0.428000, 0.000000
0.370000, 0.437304, 0.232609
0.380000, 0.437304, -0.232609
0.390000, 0.446609, 0.000000
0.400000, 0.428000, 0.000000
0.410000, 0.428000, 0.000000
0.420000, 0.446609, 0.000000
0.430000, 0.428000, 0.000000
0.440000, 0.428000, 0.000000
0.450000, 0.446609, 0.000000
0.460000, 0.428000, 0.000000
0.470000, 0.437304, -0.232609
0.480000, 0.437304, 0.232609
0.490000, 0.437304, -0.232609
0.500000, 0.437304, 0.232609
0.510000, 0.428000, 0.000000
0.520000, 0.446609, 0.000000
0.530000, 0.428000, 0.000000
0.540000, 0.428000, 0.000000
0.550000, 0.446609, 0.000000
0.560000, 0.428000, 0.000000
0.570000, 0.437304, -0.232609
0.580000, 0.437304, 0.232609
0.590000, 0.446609, 0.000000
0.600000, 0.428000, 0.000000
0.610000, 0.428000, 0.000000
0.620000, 0.446609, 0.000000
0.630000, 0.428000, 0.000000
0.640000, 0.428000, 0.000000
0.650000, 0.446609, 0.000000
0.660000, 0.428000, 0.000000
0.670000, 0.428000, 0.000000
0.680000, 0.446609, 0.000000
0.690000, 0.428000, 0.000000
0.700000, 0.437304, -0.232609
0.710000, 0.437304, 0.232609
0.720000, 0.437304, 0.232609
0.730000, 0.437304, -0.232609
0.740000, 0.428000, 0.000000
0.750000, 0.437304, -0.232609
0.760000, 0.437304, 0.232609
0.770000, 0.437304, -0.232609
0.780000, 0.437304, 0.232609
0.790000, 0.437304, 0.232609
0.800000, 0.437304, -0.232609
0.810000, 0.428000, 0.000000
0.820000, 0.446609, 0.000000
0.830000, 0.428000, 0.000000
0.840000, 0.437304, -0.232609
0.850000, 0.437304, 0.232609
0.860000, 0.437304, 0.232609
0.870000, 0.437304, -0.232609
0.880000, 0.428000, 0.000000
0.890000, 0.446609, 0.000000
0.900000, 0.428000, 0.000000
0.910000, 0.428000, 0.000000
0.920000, 0.437304, 0.232609
0.930000, 0.437304, -0.232609
0.940000, 0.428000, 0.000000
0.950000, 0.437304, -0.232609
0.960000, 0.428000, 0.000000
0.970000, 0.437304, 0.232609
0.980000, 0.446609, 0.000000
0.990000, 0.428000, 0.000000
1.000000, 0.428000, 0.000000
---------- decelerate
1.010000, 0.353565, 0.000000
1.020000, 0.204696, 0.000000
1.030000, 0.148870, 0.000000
1.040000, 0.083739, 0.232609
1.050000, 0.055826, 0.000000
1.060000, 0.037217, 0.000000
1.070000, 0.018609, -0.465218
1.080000, 0.009304, 0.232609
1.090000, 0.009304, 0.232609
1.100000, 0.000000, 0.000000
1.110000, 0.000000, 0.000000
1.120000, 0.000000, 0.000000
1.130000, 0.000000, 0.000000
1.140000, 0.000000, 0.000000
1.150000, 0.000000, 0.000000
1.160000, 0.000000, 0.000000
1.170000, -0.009304, 0.232609
1.180000, 0.000000, 0.000000
1.190000, 0.000000, 0.000000
1.200000, 0.000000, 0.000000
1.210000, 0.000000, 0.000000
1.220000, 0.000000, 0.000000
1.230000, 0.000000, 0.000000
1.240000, 0.000000, 0.000000
1.250000, 0.000000, 0.000000
1.260000, 0.000000, 0.000000
1.270000, 0.000000, 0.000000
1.280000, 0.000000, 0.000000
1.290000, 0.000000, 0.000000
1.300000, 0.000000, 0.000000
1.310000, 0.000000, 0.000000
1.320000, 0.000000, 0.000000
1.330000, 0.000000, 0.000000
1.340000, 0.000000, 0.000000
1.350000, 0.000000, 0.000000
1.360000, 0.000000, 0.000000
1.370000, 0.000000, 0.000000
1.380000, 0.000000, 0.000000
1.390000, 0.000000, 0.000000
1.400000, 0.000000, 0.000000
1.410000, 0.000000, 0.000000
1.420000, 0.000000, 0.000000
1.430000, 0.000000, 0.000000
1.440000, 0.000000, 0.000000
1.450000, 0.000000, 0.000000
1.460000, 0.000000, 0.000000
1.470000, 0.000000, 0.000000
1.480000, 0.000000, 0.000000
1.490000, 0.000000, 0.000000
1.500000, 0.000000, 0.000000
1.510000, 0.000000, 0.000000
1.520000, 0.000000, 0.000000
1.530000, 0.000000, 0.000000
1.540000, 0.000000, 0.000000
1.550000, 0.000000, 0.000000
1.560000, 0.000000, 0.000000
1.570000, 0.000000, 0.000000
1.580000, 0.000000, 0.000000
1.590000, 0.000000, 0.000000
1.600000, 0.000000, 0.000000
1.610000, 0.000000, 0.000000
1.620000, 0.000000, 0.000000
1.630000, 0.000000, 0.000000
1.640000, 0.000000, 0.000000
1.650000, 0.000000, 0.000000
1.660000, 0.000000, 0.000000
1.670000, 0.000000, 0.000000
1.680000, 0.000000, 0.000000
1.690000, 0.000000, 0.000000
1.700000, 0.000000, 0.000000
1.710000, 0.000000, 0.000000
1.720000, 0.000000, 0.000000
1.730000, 0.000000, 0.000000
1.740000, 0.000000, 0.000000
1.750000, 0.000000, 0.000000
1.760000, 0.000000, 0.000000
1.770000, 0.000000, 0.000000
1.780000, 0.000000, 0.000000
1.790000, 0.000000, 0.000000
1.800000, 0.000000, 0.000000
1.810000, 0.000000, 0.000000
1.820000, 0.000000, 0.000000
1.830000, 0.000000, 0.000000
1.840000, 0.000000, 0.000000
1.850000, 0.000000, 0.000000
1.860000, 0.000000, 0.000000
1.870000, 0.000000, 0.000000
1.880000, 0.000000, 0.000000
1.890000, 0.000000, 0.000000
1.900000, 0.000000, 0.000000
1.910000, 0.000000, 0.000000
1.920000, 0.000000, 0.000000
1.930000, 0.000000, 0.000000
1.940000, 0.000000, 0.000000
1.950000, 0.000000, 0.000000
1.960000, 0.000000, 0.000000
1.970000, 0.000000, 0.000000
1.980000, 0.000000, 0.000000
1.990000, 0.000000, 0.000000
Test params: step 0.010000, total time 2.000000, motor speed 0.400000
time_seconds, velocity_linear, velocity_angular
0.000000, 0.000000, 0.000000
0.010000, 0.093044, 0.000000
0.020000, 0.232609, 0.232609
0.030000, 0.334957, 0.000000
0.040000, 0.381478, 0.232609
0.050000, 0.418696, 0.232609
0.060000, 0.455913, -0.232609
0.070000, 0.483826, 0.000000
0.080000, 0.521044, 0.000000
0.090000, 0.530348, 0.232609
0.100000, 0.502435, 0.000000
0.110000, 0.521044, -0.465218
0.120000, 0.511739, -0.232609
0.130000, 0.521044, 0.000000
0.140000, 0.548957, -0.232609
0.150000, 0.539652, 0.000000
0.160000, 0.548957, -0.232609
0.170000, 0.567565, -0.232609
0.180000, 0.576870, 0.000000
0.190000, 0.558261, 0.000000
0.200000, 0.567565, -0.232609
0.210000, 0.576870, 0.000000
0.220000, 0.558261, 0.000000
0.230000, 0.576870, 0.000000
0.240000, 0.576870, 0.000000
0.250000, 0.567565, 0.232609
0.260000, 0.595478, 0.000000
0.270000, 0.576870, 0.000000
0.280000, 0.576870, 0.000000
0.290000, 0.595478, 0.000000
0.300000, 0.595478, 0.000000
0.310000, 0.586174, -0.232609
0.320000, 0.595478, 0.000000
0.330000, 0.586174, 0.232609
0.340000, 0.595478, 0.000000
0.350000, 0.595478, 0.000000
0.360000, 0.576870, 0.000000
0.370000, 0.576870, 0.000000
0.380000, 0.595478, 0.000000
0.390000, 0.576870, 0.000000
0.400000, 0.576870, 0.000000
0.410000, 0.586174, -0.232609
0.420000, 0.586174, 0.232609
0.430000, 0.595478, 0.000000
0.440000, 0.576870, 0.000000
0.450000, 0.586174, 0.232609
0.460000, 0.586174, -0.232609
0.470000, 0.576870, 0.000000
0.480000, 0.595478, 0.000000
0.490000, 0.576870, 0.000000
0.500000, 0.595478, 0.000000
0.510000, 0.576870, 0.000000
0.520000, 0.595478, 0.000000
0.530000, 0.576870, 0.000000
0.540000, 0.576870, 0.000000
0.550000, 0.595478, 0.000000
0.560000, 0.576870, 0.000000
0.570000, 0.576870, 0.000000
0.580000, 0.586174, -0.232609
0.590000, 0.586174, 0.232609
0.600000, 0.586174, -0.232609
0.610000, 0.586174, 0.232609
0.620000, 0.586174, -0.232609
0.630000, 0.576870, 0.000000
0.640000, 0.586174, 0.232609
0.650000, 0.586174, -0.232609
0.660000, 0.586174, 0.232609
0.670000, 0.586174, -0.232609
0.680000, 0.586174, 0.232609
0.690000, 0.595478, 0.000000
0.700000, 0.576870, 0.000000
0.710000, 0.576870, 0.000000
0.720000, 0.595478, 0.000000
0.730000, 0.576870, 0.000000
0.740000, 0.576870, 0.000000
0.750000, 0.586174, 0.232609
0.760000, 0.586174, -0.232609
0.770000, 0.586174, -0.232609
0.780000, 0.586174, 0.232609
0.790000, 0.586174, -0.232609
0.800000, 0.586174, 0.232609
0.810000, 0.586174, -0.232609
0.820000, 0.586174, 0.232609
0.830000, 0.586174, -0.232609
0.840000, 0.586174, 0.232609
0.850000, 0.586174, 0.232609
0.860000, 0.586174, -0.232609
0.870000, 0.595478, 0.000000
0.880000, 0.576870, 0.000000
0.890000, 0.586174, -0.232609
0.900000, 0.586174, 0.232609
0.910000, 0.595478, 0.000000
0.920000, 0.576870, 0.000000
0.930000, 0.576870, 0.000000
0.940000, 0.595478, 0.000000
0.950000, 0.576870, 0.000000
0.960000, 0.576870, 0.000000
0.970000, 0.595478, 0.000000
0.980000, 0.576870, 0.000000
0.990000, 0.576870, 0.000000
1.000000, 0.586174, -0.232609
---------- decelerate
1.010000, 0.474522, 0.232609
1.020000, 0.307044, 0.232609
1.030000, 0.186087, 0.000000
1.040000, 0.120957, -0.232609
1.050000, 0.074435, 0.000000
1.060000, 0.046522, 0.232609
1.070000, 0.027913, -0.232609
1.080000, 0.018609, 0.000000
1.090000, 0.009304, -0.232609
1.100000, 0.000000, 0.000000
1.110000, 0.000000, 0.000000
1.120000, 0.000000, 0.000000
1.130000, 0.000000, 0.000000
1.140000, 0.000000, 0.000000
1.150000, 0.000000, 0.000000
1.160000, 0.000000, 0.000000
1.170000, 0.000000, 0.000000
1.180000, 0.000000, 0.000000
1.190000, 0.000000, 0.000000
1.200000, 0.000000, 0.000000
1.210000, 0.000000, 0.000000
1.220000, 0.000000, 0.000000
1.230000, 0.000000, 0.000000
1.240000, 0.000000, 0.000000
1.250000, 0.000000, 0.000000
1.260000, 0.000000, 0.000000
1.270000, 0.000000, 0.000000
1.280000, 0.000000, 0.000000
1.290000, 0.000000, 0.000000
1.300000, 0.000000, 0.000000
1.310000, 0.000000, 0.000000
1.320000, 0.000000, 0.000000
1.330000, 0.000000, 0.000000
1.340000, 0.000000, 0.000000
1.350000, 0.000000, 0.000000
1.360000, 0.000000, 0.000000
1.370000, 0.000000, 0.000000
1.380000, 0.000000, 0.000000
1.390000, 0.000000, 0.000000
1.400000, 0.000000, 0.000000
1.410000, 0.000000, 0.000000
1.420000, 0.000000, 0.000000
1.430000, 0.000000, 0.000000
1.440000, 0.000000, 0.000000
1.450000, 0.000000, 0.000000
1.460000, 0.000000, 0.000000
1.470000, 0.000000, 0.000000
1.480000, 0.000000, 0.000000
1.490000, 0.000000, 0.000000
1.500000, 0.000000, 0.000000
1.510000, 0.000000, 0.000000
1.520000, 0.000000, 0.000000
1.530000, 0.000000, 0.000000
1.540000, 0.000000, 0.000000
1.550000, 0.000000, 0.000000
1.560000, 0.000000, 0.000000
1.570000, 0.000000, 0.000000
1.580000, 0.000000, 0.000000
1.590000, 0.000000, 0.000000
1.600000, 0.000000, 0.000000
1.610000, 0.000000, 0.000000
1.620000, 0.000000, 0.000000
1.630000, 0.000000, 0.000000
1.640000, 0.000000, 0.000000
1.650000, 0.000000, 0.000000
1.660000, 0.000000, 0.000000
1.670000, 0.000000, 0.000000
1.680000, 0.000000, 0.000000
1.690000, 0.000000, 0.000000
1.700000, 0.000000, 0.000000
1.710000, 0.000000, 0.000000
1.720000, 0.000000, 0.000000
1.730000, 0.000000, 0.000000
1.740000, 0.000000, 0.000000
1.750000, 0.000000, 0.000000
1.760000, 0.000000, 0.000000
1.770000, 0.000000, 0.000000
1.780000, 0.000000, 0.000000
1.790000, 0.000000, 0.000000
1.800000, 0.000000, 0.000000
1.810000, 0.000000, 0.000000
1.820000, 0.000000, 0.000000
1.830000, 0.000000, 0.000000
1.840000, 0.000000, 0.000000
1.850000, 0.000000, 0.000000
1.860000, 0.000000, 0.000000
1.870000, 0.000000, 0.000000
1.880000, 0.000000, 0.000000
1.890000, 0.000000, 0.000000
1.900000, 0.000000, 0.000000
1.910000, 0.000000, 0.000000
1.920000, 0.000000, 0.000000
1.930000, 0.000000, 0.000000
1.940000, 0.000000, 0.000000
1.950000, 0.000000, 0.000000
1.960000, 0.000000, 0.000000
1.970000, 0.000000, 0.000000
1.980000, 0.000000, 0.000000
1.990000, 0.000000, 0.000000
Test params: step 0.010000, total time 2.000000, motor speed 0.500000
time_seconds, velocity_linear, velocity_angular
0.000000, 0.000000, 0.000000
0.010000, 0.111652, 0.000000
0.020000, 0.279131, 0.000000
0.030000, 0.409391, 0.000000
0.040000, 0.474522, 0.232609
0.050000, 0.521044, 0.000000
0.060000, 0.567565, 0.232609
0.070000, 0.623391, -0.232609
0.080000, 0.651305, 0.000000
0.090000, 0.642000, 0.232609
0.100000, 0.642000, -0.232609
0.110000, 0.632696, 0.000000
0.120000, 0.651305, 0.000000
0.130000, 0.669913, 0.000000
0.140000, 0.669913, 0.000000
0.150000, 0.651305, 0.000000
0.160000, 0.688522, 0.000000
0.170000, 0.679218, -0.232609
0.180000, 0.697826, 0.232609
0.190000, 0.707131, 0.000000
0.200000, 0.707131, 0.000000
0.210000, 0.707131, 0.000000
0.220000, 0.707131, 0.000000
0.230000, 0.716435, 0.232609
0.240000, 0.716435, -0.232609
0.250000, 0.725739, 0.000000
0.260000, 0.716435, 0.232609
0.270000, 0.725739, 0.000000
0.280000, 0.735044, -0.232609
0.290000, 0.725739, 0.000000
0.300000, 0.744348, 0.000000
0.310000, 0.725739, 0.000000
0.320000, 0.735044, 0.232609
0.330000, 0.744348, 0.000000
0.340000, 0.735044, -0.232609
0.350000, 0.735044, 0.232609
0.360000, 0.735044, -0.232609
0.370000, 0.735044, 0.232609
0.380000, 0.735044, -0.232609
0.390000, 0.725739, 0.000000
0.400000, 0.744348, 0.000000
0.410000, 0.725739, 0.000000
0.420000, 0.735044, 0.232609
0.430000, 0.744348, 0.000000
0.440000, 0.725739, 0.000000
0.450000, 0.735044, -0.232609
0.460000, 0.735044, 0.232609
0.470000, 0.735044, -0.232609
0.480000, 0.735044, 0.232609
0.490000, 0.735044, -0.232609
0.500000, 0.744348, 0.000000
0.510000, 0.725739, 0.000000
0.520000, 0.735044, 0.232609
0.530000, 0.735044, -0.232609
0.540000, 0.735044, 0.232609
0.550000, 0.735044, -0.232609
0.560000, 0.735044, 0.232609
0.570000, 0.735044, -0.232609
0.580000, 0.735044, 0.232609
0.590000, 0.735044, -0.232609
0.600000, 0.744348, 0.000000
0.610000, 0.725739, 0.000000
0.620000, 0.725739, 0.000000
0.630000, 0.725739, 0.000000
0.640000, 0.735044, 0.232609
0.650000, 0.735044, -0.232609
0.660000, 0.735044, 0.232609
0.670000, 0.735044, -0.232609
0.680000, 0.725739, 0.000000
0.690000, 0.735044, 0.232609
0.700000, 0.735044, -0.232609
0.710000, 0.735044, 0.232609
0.720000, 0.735044, -0.232609
0.730000, 0.735044, 0.232609
0.740000, 0.735044, -0.232609
0.750000, 0.735044, 0.232609
0.760000, 0.735044, -0.232609
0.770000, 0.744348, 0.000000
0.780000, 0.725739, 0.000000
0.790000, 0.725739, 0.000000
0.800000, 0.725739, 0.000000
0.810000, 0.725739, 0.000000
0.820000, 0.735044, 0.232609
0.830000, 0.735044, -0.232609
0.840000, 0.735044, -0.232609
0.850000, 0.735044, 0.232609
0.860000, 0.735044, 0.232609
0.870000, 0.735044, -0.232609
0.880000, 0.725739, 0.000000
0.890000, 0.744348, 0.000000
0.900000, 0.725739, 0.000000
0.910000, 0.725739, 0.000000
0.920000, 0.735044, 0.232609
0.930000, 0.735044, -0.232609
0.940000, 0.735044, 0.232609
0.950000, 0.735044, -0.232609
0.960000, 0.725739, 0.000000
0.970000, 0.725739, 0.000000
0.980000, 0.744348, 0.000000
0.990000, 0.725739, 0.000000
1.000000, 0.725739, 0.000000
---------- decelerate
1.010000, 0.595478, 0.000000
1.020000, 0.381478, 0.232609
1.030000, 0.241913, 0.000000
1.040000, 0.158174, -0.232609
1.050000, 0.093044, 0.000000
1.060000, 0.055826, 0.000000
1.070000, 0.037217, 0.000000
1.080000, 0.018609, 0.000000
1.090000, 0.018609, 0.000000
1.100000, 0.000000, 0.000000
1.110000, 0.000000, 0.000000
1.120000, 0.000000, 0.000000
1.130000, 0.000000, 0.000000
1.140000, 0.000000, 0.000000
1.150000, 0.000000, 0.000000
1.160000, 0.000000, 0.000000
1.170000, 0.000000, 0.000000
1.180000, -0.009304, -0.232609
1.190000, 0.000000, 0.000000
1.200000, 0.000000, 0.000000
1.210000, 0.000000, 0.000000
1.220000, 0.000000, 0.000000
1.230000, 0.000000, 0.000000
1.240000, 0.000000, 0.000000
1.250000, 0.000000, 0.000000
1.260000, 0.000000, 0.000000
1.270000, 0.000000, 0.000000
1.280000, 0.000000, 0.000000
1.290000, 0.000000, 0.000000
1.300000, 0.000000, 0.000000
1.310000, 0.000000, 0.000000
1.320000, 0.000000, 0.000000
1.330000, 0.000000, 0.000000
1.340000, 0.000000, 0.000000
1.350000, 0.000000, 0.000000
1.360000, 0.000000, 0.000000
1.370000, 0.000000, 0.000000
1.380000, 0.000000, 0.000000
1.390000, 0.000000, 0.000000
1.400000, 0.000000, 0.000000
1.410000, 0.000000, 0.000000
1.420000, 0.000000, 0.000000
1.430000, 0.000000, 0.000000
1.440000, 0.000000, 0.000000
1.450000, 0.000000, 0.000000
1.460000, 0.000000, 0.000000
1.470000, 0.000000, 0.000000
1.480000, 0.000000, 0.000000
1.490000, 0.000000, 0.000000
1.500000, 0.000000, 0.000000
1.510000, 0.000000, 0.000000
1.520000, 0.000000, 0.000000
1.530000, 0.000000, 0.000000
1.540000, 0.000000, 0.000000
1.550000, 0.000000, 0.000000
1.560000, 0.000000, 0.000000
1.570000, 0.000000, 0.000000
1.580000, 0.000000, 0.000000
1.590000, 0.000000, 0.000000
1.600000, 0.000000, 0.000000
1.610000, 0.000000, 0.000000
1.620000, 0.000000, 0.000000
1.630000, 0.000000, 0.000000
1.640000, 0.000000, 0.000000
1.650000, 0.000000, 0.000000
1.660000, 0.000000, 0.000000
1.670000, 0.000000, 0.000000
1.680000, 0.000000, 0.000000
1.690000, 0.000000, 0.000000
1.700000, 0.000000, 0.000000
1.710000, 0.000000, 0.000000
1.720000, 0.000000, 0.000000
1.730000, 0.000000, 0.000000
1.740000, 0.000000, 0.000000
1.750000, 0.000000, 0.000000
1.760000, 0.000000, 0.000000
1.770000, 0.000000, 0.000000
1.780000, 0.000000, 0.000000
1.790000, 0.000000, 0.000000
1.800000, 0.000000, 0.000000
1.810000, 0.000000, 0.000000
1.820000, 0.000000, 0.000000
1.830000, 0.000000, 0.000000
1.840000, 0.000000, 0.000000
1.850000, 0.000000, 0.000000
1.860000, 0.000000, 0.000000
1.870000, 0.000000, 0.000000
1.880000, 0.000000, 0.000000
1.890000, 0.000000, 0.000000
1.900000, 0.000000, 0.000000
1.910000, 0.000000, 0.000000
1.920000, 0.000000, 0.000000
1.930000, 0.000000, 0.000000
1.940000, 0.000000, 0.000000
1.950000, 0.000000, 0.000000
1.960000, 0.000000, 0.000000
1.970000, 0.000000, 0.000000
1.980000, 0.000000, 0.000000
1.990000, 0.000000, 0.000000
Test params: step 0.010000, total time 2.000000, motor speed 0.600000
time_seconds, velocity_linear, velocity_angular
0.000000, 0.000000, 0.000000
0.010000, 0.130261, 0.000000
0.020000, 0.325652, 0.232609
0.030000, 0.474522, -0.232609
0.040000, 0.567565, 0.232609
0.050000, 0.623391, -0.232609
0.060000, 0.679218, 0.232609
0.070000, 0.725739, 0.000000
0.080000, 0.762957, 0.000000
0.090000, 0.781565, 0.465218
0.100000, 0.753652, -0.232609
0.110000, 0.781565, 0.000000
0.120000, 0.772261, 0.232609
0.130000, 0.790870, -0.232609
0.140000, 0.800174, 0.000000
0.150000, 0.790870, 0.232609
0.160000, 0.809478, -0.232609
0.170000, 0.818783, 0.000000
0.180000, 0.818783, 0.000000
0.190000, 0.818783, 0.000000
0.200000, 0.818783, 0.000000
0.210000, 0.828087, -0.232609
0.220000, 0.837392, 0.000000
0.230000, 0.846696, -0.232609
0.240000, 0.856000, 0.000000
0.250000, 0.846696, 0.232609
0.260000, 0.856000, 0.000000
0.270000, 0.856000, 0.000000
0.280000, 0.856000, 0.000000
0.290000, 0.856000, 0.000000
0.300000, 0.856000, 0.000000
0.310000, 0.856000, 0.000000
0.320000, 0.874609, 0.000000
0.330000, 0.874609, 0.000000
0.340000, 0.874609, 0.000000
0.350000, 0.874609, 0.000000
0.360000, 0.874609, 0.000000
0.370000, 0.865305, 0.232609
0.380000, 0.883913, -0.232609
0.390000, 0.874609, 0.000000
0.400000, 0.865305, -0.232609
0.410000, 0.874609, 0.000000
0.420000, 0.874609, 0.000000
0.430000, 0.865305, 0.232609
0.440000, 0.874609, 0.000000
0.450000, 0.874609, 0.000000
0.460000, 0.865305, 0.232609
0.470000, 0.883913, -0.232609
0.480000, 0.874609, 0.000000
0.490000, 0.874609, 0.000000
0.500000, 0.856000, 0.000000
0.510000, 0.874609, 0.000000
0.520000, 0.874609, 0.000000
0.530000, 0.856000, 0.000000
0.540000, 0.874609, 0.000000
0.550000, 0.856000, 0.000000
0.560000, 0.874609, 0.000000
0.570000, 0.865305, 0.232609
0.580000, 0.865305, -0.232609
0.590000, 0.874609, 0.000000
0.600000, 0.874609, 0.000000
0.610000, 0.874609, 0.000000
0.620000, 0.874609, 0.000000
0.630000, 0.865305, 0.232609
0.640000, 0.874609, 0.000000
0.650000, 0.865305, -0.232609
0.660000, 0.874609, 0.000000
0.670000, 0.874609, 0.000000
0.680000, 0.865305, -0.232609
0.690000, 0.874609, 0.000000
0.700000, 0.874609, 0.000000
0.710000, 0.865305, 0.232609
0.720000, 0.883913, -0.232609
0.730000, 0.883913, 0.232609
0.740000, 0.874609, 0.000000
0.750000, 0.874609, 0.000000
0.760000, 0.865305, 0.232609
0.770000, 0.874609, 0.000000
0.780000, 0.865305, -0.232609
0.790000, 0.874609, 0.000000
0.800000, 0.874609, 0.000000
0.810000, 0.874609, 0.000000
0.820000, 0.856000, 0.000000
0.830000, 0.874609, 0.000000
0.840000, 0.874609, 0.000000
0.850000, 0.865305, 0.232609
0.860000, 0.883913, -0.232609
0.870000, 0.874609, 0.000000
0.880000, 0.874609, 0.000000
0.890000, 0.874609, 0.000000
0.900000, 0.865305, 0.232609
0.910000, 0.874609, 0.000000
0.920000, 0.874609, 0.000000
0.930000, 0.865305, -0.232609
0.940000, 0.874609, 0.000000
0.950000, 0.865305, 0.232609
0.960000, 0.874609, 0.000000
0.970000, 0.865305, -0.232609
0.980000, 0.874609, 0.000000
0.990000, 0.874609, 0.000000
1.000000, 0.874609, 0.000000
---------- decelerate
1.010000, 0.707131, 0.000000
1.020000, 0.474522, 0.232609
1.030000, 0.297739, 0.000000
1.040000, 0.186087, 0.000000
1.050000, 0.120957, -0.232609
1.060000, 0.074435, 0.000000
1.070000, 0.037217, 0.000000
1.080000, 0.037217, 0.000000
1.090000, 0.018609, 0.000000
1.100000, 0.009304, -0.232609
1.110000, 0.000000, 0.000000
1.120000, 0.000000, 0.000000
1.130000, 0.000000, 0.000000
1.140000, 0.000000, 0.000000
1.150000, 0.000000, 0.000000
1.160000, 0.000000, 0.000000
1.170000, 0.000000, 0.000000
1.180000, -0.018609, 0.000000
1.190000, 0.000000, 0.000000
1.200000, 0.000000, 0.000000
1.210000, 0.000000, 0.000000
1.220000, 0.000000, 0.000000
1.230000, 0.000000, 0.000000
1.240000, 0.000000, 0.000000
1.250000, 0.000000, 0.000000
1.260000, 0.000000, 0.000000
1.270000, 0.000000, 0.000000
1.280000, 0.000000, 0.000000
1.290000, 0.000000, 0.000000
1.300000, 0.000000, 0.000000
1.310000, 0.000000, 0.000000
1.320000, 0.000000, 0.000000
1.330000, 0.000000, 0.000000
1.340000, 0.000000, 0.000000
1.350000, 0.000000, 0.000000
1.360000, 0.000000, 0.000000
1.370000, 0.000000, 0.000000
1.380000, 0.000000, 0.000000
1.390000, 0.000000, 0.000000
1.400000, 0.000000, 0.000000
1.410000, 0.000000, 0.000000
1.420000, 0.000000, 0.000000
1.430000, 0.000000, 0.000000
1.440000, 0.000000, 0.000000
1.450000, 0.000000, 0.000000
1.460000, 0.000000, 0.000000
1.470000, 0.000000, 0.000000
1.480000, 0.000000, 0.000000
1.490000, 0.000000, 0.000000
1.500000, 0.000000, 0.000000
1.510000, 0.000000, 0.000000
1.520000, 0.000000, 0.000000
1.530000, 0.000000, 0.000000
1.540000, 0.000000, 0.000000
1.550000, 0.000000, 0.000000
1.560000, 0.000000, 0.000000
1.570000, 0.000000, 0.000000
1.580000, 0.000000, 0.000000
1.590000, 0.000000, 0.000000
1.600000, 0.000000, 0.000000
1.610000, 0.000000, 0.000000
1.620000, 0.000000, 0.000000
1.630000, 0.000000, 0.000000
1.640000, 0.000000, 0.000000
1.650000, 0.000000, 0.000000
1.660000, 0.000000, 0.000000
1.670000, 0.000000, 0.000000
1.680000, 0.000000, 0.000000
1.690000, 0.000000, 0.000000
1.700000, 0.000000, 0.000000
1.710000, 0.000000, 0.000000
1.720000, 0.000000, 0.000000
1.730000, 0.000000, 0.000000
1.740000, 0.000000, 0.000000
1.750000, 0.000000, 0.000000
1.760000, 0.000000, 0.000000
1.770000, 0.000000, 0.000000
1.780000, 0.000000, 0.000000
1.790000, 0.000000, 0.000000
1.800000, 0.000000, 0.000000
1.810000, 0.000000, 0.000000
1.820000, 0.000000, 0.000000
1.830000, 0.000000, 0.000000
1.840000, 0.000000, 0.000000
1.850000, 0.000000, 0.000000
1.860000, 0.000000, 0.000000
1.870000, 0.000000, 0.000000
1.880000, 0.000000, 0.000000
1.890000, 0.000000, 0.000000
1.900000, 0.000000, 0.000000
1.910000, 0.000000, 0.000000
1.920000, 0.000000, 0.000000
1.930000, 0.000000, 0.000000
1.940000, 0.000000, 0.000000
1.950000, 0.000000, 0.000000
1.960000, 0.000000, 0.000000
1.970000, 0.000000, 0.000000
1.980000, 0.000000, 0.000000
1.990000, 0.000000, 0.000000
Test params: step 0.010000, total time 2.000000, motor speed 0.700000
time_seconds, velocity_linear, velocity_angular
0.000000, 0.000000, 0.000000
0.010000, 0.139565, 0.232609
0.020000, 0.362870, -0.232609
0.030000, 0.511739, 0.232609
0.040000, 0.632696, 0.000000
0.050000, 0.688522, 0.000000
0.060000, 0.762957, 0.000000
0.070000, 0.837392, 0.000000
0.080000, 0.865305, 0.232609
0.090000, 0.874609, 0.000000
0.100000, 0.846696, -0.232609
0.110000, 0.883913, 0.232609
0.120000, 0.874609, 0.000000
0.130000, 0.902522, -0.232609
0.140000, 0.911826, 0.000000
0.150000, 0.893218, 0.000000
0.160000, 0.893218, 0.000000
0.170000, 0.911826, 0.000000
0.180000, 0.921131, -0.232609
0.190000, 0.930435, 0.000000
0.200000, 0.911826, 0.000000
0.210000, 0.939739, -0.232609
0.220000, 0.949044, 0.000000
0.230000, 0.939739, -0.232609
0.240000, 0.958348, -0.232609
0.250000, 0.949044, 0.000000
0.260000, 0.958348, -0.232609
0.270000, 0.967652, 0.000000
0.280000, 0.958348, 0.232609
0.290000, 0.976957, -0.232609
0.300000, 0.976957, 0.232609
0.310000, 0.967652, 0.000000
0.320000, 0.967652, 0.000000
0.330000, 0.986261, 0.000000
0.340000, 0.976957, -0.232609
0.350000, 0.986261, 0.000000
0.360000, 0.986261, 0.000000
0.370000, 0.995565, 0.232609
0.380000, 0.986261, 0.000000
0.390000, 0.986261, 0.000000
0.400000, 0.986261, 0.000000
0.410000, 0.986261, 0.000000
0.420000, 0.986261, 0.000000
0.430000, 0.986261, 0.000000
0.440000, 0.986261, 0.000000
0.450000, 0.976957, -0.232609
0.460000, 0.986261, 0.000000
0.470000, 0.986261, 0.000000
0.480000, 0.976957, 0.232609
0.490000, 0.986261, 0.000000
0.500000, 0.986261, 0.000000
0.510000, 0.986261, 0.000000
0.520000, 0.986261, 0.000000
0.530000, 0.976957, -0.232609
0.540000, 0.986261, 0.000000
0.550000, 0.986261, 0.000000
0.560000, 0.967652, 0.000000
0.570000, 0.986261, 0.000000
0.580000, 0.986261, 0.000000
0.590000, 0.976957, 0.232609
0.600000, 0.986261, 0.000000
0.610000, 0.986261, 0.000000
0.620000, 0.986261, 0.000000
0.630000, 0.986261, 0.000000
0.640000, 0.986261, 0.000000
0.650000, 0.976957, 0.232609
0.660000, 0.995565, -0.232609
0.670000, 0.986261, 0.000000
0.680000, 0.986261, 0.000000
0.690000, 0.986261, 0.000000
0.700000, 0.976957, -0.232609
0.710000, 0.995565, 0.232609
0.720000, 0.986261, 0.000000
0.730000, 0.986261, 0.000000
0.740000, 0.986261, 0.000000
0.750000, 0.986261, 0.000000
0.760000, 0.976957, -0.232609
0.770000, 0.995565, 0.232609
0.780000, 0.986261, 0.000000
0.790000, 0.976957, -0.232609
0.800000, 0.986261, 0.000000
0.810000, 0.976957, 0.232609
0.820000, 0.986261, 0.000000
0.830000, 0.986261, 0.000000
0.840000, 0.986261, 0.000000
0.850000, 0.976957, -0.232609
0.860000, 0.995565, 0.232609
0.870000, 0.986261, 0.000000
0.880000, 0.986261, 0.000000
0.890000, 0.986261, 0.000000
0.900000, 0.986261, 0.000000
0.910000, 0.976957, -0.232609
0.920000, 0.986261, 0.000000
0.930000, 0.976957, 0.232609
0.940000, 0.995565, -0.232609
0.950000, 0.986261, 0.000000
0.960000, 0.986261, 0.000000
0.970000, 0.976957, 0.232609
0.980000, 0.986261, 0.000000
0.990000, 0.986261, 0.000000
1.000000, 0.976957, -0.232609
---------- decelerate
1.010000, 0.828087, 0.232609
1.020000, 0.530348, 0.232609
1.030000, 0.344261, 0.232609
1.040000, 0.214000, 0.232609
1.050000, 0.130261, 0.000000
1.060000, 0.083739, 0.232609
1.070000, 0.055826, 0.000000
1.080000, 0.027913, 0.232609
1.090000, 0.018609, -0.465218
1.100000, 0.000000, 0.000000
1.110000, 0.000000, 0.000000
1.120000, 0.000000, 0.000000
1.130000, 0.000000, 0.000000
1.140000, 0.000000, 0.000000
1.150000, 0.000000, 0.000000
1.160000, 0.000000, 0.000000
1.170000, 0.000000, 0.000000
1.180000, 0.000000, 0.000000
1.190000, 0.000000, 0.000000
1.200000, 0.000000, 0.000000
1.210000, 0.000000, 0.000000
1.220000, 0.000000, 0.000000
1.230000, 0.000000, 0.000000
1.240000, -0.009304, 0.232609
1.250000, 0.000000, 0.000000
1.260000, -0.009304, -0.232609
1.270000, 0.000000, 0.000000
1.280000, 0.000000, 0.000000
1.290000, 0.000000, 0.000000
1.300000, 0.000000, 0.000000
1.310000, 0.000000, 0.000000
1.320000, 0.000000, 0.000000
1.330000, 0.000000, 0.000000
1.340000, 0.000000, 0.000000
1.350000, 0.000000, 0.000000
1.360000, 0.000000, 0.000000
1.370000, 0.000000, 0.000000
1.380000, 0.000000, 0.000000
1.390000, 0.000000, 0.000000
1.400000, 0.000000, 0.000000
1.410000, 0.000000, 0.000000
1.420000, 0.000000, 0.000000
1.430000, 0.000000, 0.000000
1.440000, 0.000000, 0.000000
1.450000, 0.000000, 0.000000
1.460000, 0.000000, 0.000000
1.470000, 0.000000, 0.000000
1.480000, 0.000000, 0.000000
1.490000, 0.000000, 0.000000
1.500000, 0.000000, 0.000000
1.510000, 0.000000, 0.000000
1.520000, 0.000000, 0.000000
1.530000, 0.000000, 0.000000
1.540000, 0.000000, 0.000000
1.550000, 0.000000, 0.000000
1.560000, 0.000000, 0.000000
1.570000, 0.000000, 0.000000
1.580000, 0.000000, 0.000000
1.590000, 0.000000, 0.000000
1.600000, 0.000000, 0.000000
1.610000, 0.000000, 0.000000
1.620000, 0.000000, 0.000000
1.630000, 0.000000, 0.000000
1.640000, 0.000000, 0.000000
1.650000, 0.000000, 0.000000
1.660000, 0.000000, 0.000000
1.670000, 0.000000, 0.000000
1.680000, 0.000000, 0.000000
1.690000, 0.000000, 0.000000
1.700000, 0.000000, 0.000000
1.710000, 0.000000, 0.000000
1.720000, 0.000000, 0.000000
1.730000, 0.000000, 0.000000
1.740000, 0.000000, 0.000000
1.750000, 0.000000, 0.000000
1.760000, 0.000000, 0.000000
1.770000, 0.000000, 0.000000
1.780000, 0.000000, 0.000000
1.790000, 0.000000, 0.000000
1.800000, 0.000000, 0.000000
1.810000, 0.000000, 0.000000
1.820000, 0.000000, 0.000000
1.830000, 0.000000, 0.000000
1.840000, 0.000000, 0.000000
1.850000, 0.000000, 0.000000
1.860000, 0.000000, 0.000000
1.870000, 0.000000, 0.000000
1.880000, 0.000000, 0.000000
1.890000, 0.000000, 0.000000
1.900000, 0.000000, 0.000000
1.910000, 0.000000, 0.000000
1.920000, 0.000000, 0.000000
1.930000, 0.000000, 0.000000
1.940000, 0.000000, 0.000000
1.950000, 0.000000, 0.000000
1.960000, 0.000000, 0.000000
1.970000, 0.000000, 0.000000
1.980000, 0.000000, 0.000000
1.990000, 0.000000, 0.000000
Test params: step 0.010000, total time 2.000000, motor speed 0.800000
time_seconds, velocity_linear, velocity_angular
0.000000, 0.000000, 0.000000
0.010000, 0.158174, 0.232609
0.020000, 0.409391, 0.000000
0.030000, 0.576870, 0.000000
0.040000, 0.697826, -0.232609
0.050000, 0.800174, 0.000000
0.060000, 0.856000, 0.000000
0.070000, 0.921131, -0.232609
0.080000, 0.986261, 0.000000
0.090000, 0.976957, 0.232609
0.100000, 0.976957, 0.232609
0.110000, 0.995565, -0.232609
0.120000, 1.004870, 0.000000
0.130000, 1.004870, 0.465218
0.140000, 1.023479, 0.000000
0.150000, 1.004870, 0.000000
0.160000, 1.023479, 0.000000
0.170000, 1.023479, 0.000000
0.180000, 1.032783, -0.232609
0.190000, 1.032783, -0.232609
0.200000, 1.051392, 0.232609
0.210000, 1.042087, 0.000000
0.220000, 1.042087, 0.000000
0.230000, 1.060696, 0.000000
0.240000, 1.051392, -0.232609
0.250000, 1.060696, 0.000000
0.260000, 1.079305, 0.000000
0.270000, 1.079305, 0.000000
0.280000, 1.079305, 0.000000
0.290000, 1.097913, 0.000000
0.300000, 1.079305, 0.000000
0.310000, 1.097913, 0.000000
0.320000, 1.097913, 0.000000
0.330000, 1.097913, 0.000000
0.340000, 1.116522, 0.000000
0.350000, 1.097913, 0.000000
0.360000, 1.107218, -0.232609
0.370000, 1.125826, -0.697826
0.380000, 1.125826, -0.232609
0.390000, 1.135131, -0.465218
0.400000, 1.135131, 0.000000
0.410000, 1.135131, -0.465218
0.420000, 1.125826, -0.232609
0.430000, 1.135131, 0.000000
0.440000, 1.116522, -0.465218
0.450000, 1.135131, 0.000000
0.460000, 1.116522, -0.465218
0.470000, 1.135131, -0.465218
0.480000, 1.135131, 0.000000
0.490000, 1.116522, -0.465218
0.500000, 1.135131, -0.465218
0.510000, 1.135131, 0.000000
0.520000, 1.125826, -0.697826
0.530000, 1.125826, -0.232609
0.540000, 1.144435, -0.232609
0.550000, 1.135131, -0.465218
0.560000, 1.135131, -0.465218
0.570000, 1.125826, -0.232609
0.580000, 1.135131, -0.465218
0.590000, 1.135131, -0.465218
0.600000, 1.135131, -0.465218
0.610000, 1.135131, -0.465218
0.620000, 1.144435, -0.232609
0.630000, 1.135131, -0.465218
0.640000, 1.125826, -0.232609
0.650000, 1.135131, -0.465218
0.660000, 1.135131, -0.465218
0.670000, 1.135131, -0.465218
0.680000, 1.135131, 0.000000
0.690000, 1.125826, -0.697826
0.700000, 1.135131, 0.000000
0.710000, 1.116522, -0.465218
0.720000, 1.144435, -0.232609
0.730000, 1.135131, -0.465218
0.740000, 1.125826, -0.232609
0.750000, 1.125826, -0.232609
0.760000, 1.135131, -0.465218
0.770000, 1.135131, -0.465218
0.780000, 1.135131, 0.000000
0.790000, 1.125826, -0.697826
0.800000, 1.135131, 0.000000
0.810000, 1.135131, -0.465218
0.820000, 1.125826, -0.232609
0.830000, 1.125826, -0.232609
0.840000, 1.135131, -0.465218
0.850000, 1.144435, -0.232609
0.860000, 1.125826, -0.232609
0.870000, 1.135131, -0.465218
0.880000, 1.125826, -0.232609
0.890000, 1.135131, -0.465218
0.900000, 1.135131, -0.465218
0.910000, 1.125826, -0.232609
0.920000, 1.144435, -0.232609
0.930000, 1.135131, -0.465218
0.940000, 1.135131, -0.465218
0.950000, 1.125826, -0.232609
0.960000, 1.144435, -0.232609
0.970000, 1.135131, -0.465218
0.980000, 1.135131, -0.465218
0.990000, 1.135131, -0.465218
1.000000, 1.135131, -0.465218
---------- decelerate
1.010000, 0.949044, 0.000000
1.020000, 0.642000, 0.232609
1.030000, 0.400087, 0.232609
1.040000, 0.260522, 0.000000
1.050000, 0.148870, 0.000000
1.060000, 0.102348, -0.232609
1.070000, 0.074435, 0.000000
1.080000, 0.037217, 0.000000
1.090000, 0.027913, -0.232609
1.100000, 0.000000, 0.000000
1.110000, 0.018609, 0.000000
1.120000, 0.009304, 0.232609
1.130000, 0.009304, 0.232609
1.140000, 0.000000, 0.000000
1.150000, 0.009304, -0.232609
1.160000, 0.009304, -0.232609
1.170000, 0.009304, -0.232609
1.180000, 0.000000, 0.000000
1.190000, 0.000000, 0.000000
1.200000, 0.000000, 0.000000
1.210000, -0.009304, 0.232609
1.220000, 0.000000, 0.000000
1.230000, 0.000000, 0.000000
1.240000, 0.000000, 0.000000
1.250000, 0.000000, 0.000000
1.260000, 0.000000, 0.000000
1.270000, 0.000000, 0.000000
1.280000, 0.000000, 0.000000
1.290000, 0.000000, 0.000000
1.300000, 0.000000, 0.000000
1.310000, 0.000000, 0.000000
1.320000, 0.000000, 0.000000
1.330000, 0.000000, 0.000000
1.340000, 0.000000, 0.000000
1.350000, 0.000000, 0.000000
1.360000, 0.000000, 0.000000
1.370000, 0.000000, 0.000000
1.380000, 0.000000, 0.000000
1.390000, 0.000000, 0.000000
1.400000, 0.000000, 0.000000
1.410000, 0.000000, 0.000000
1.420000, 0.000000, 0.000000
1.430000, 0.000000, 0.000000
1.440000, 0.000000, 0.000000
1.450000, 0.000000, 0.000000
1.460000, 0.000000, 0.000000
1.470000, 0.000000, 0.000000
1.480000, 0.000000, 0.000000
1.490000, 0.000000, 0.000000
1.500000, 0.000000, 0.000000
1.510000, 0.000000, 0.000000
1.520000, 0.000000, 0.000000
1.530000, 0.000000, 0.000000
1.540000, 0.000000, 0.000000
1.550000, 0.000000, 0.000000
1.560000, 0.000000, 0.000000
1.570000, 0.000000, 0.000000
1.580000, 0.000000, 0.000000
1.590000, 0.000000, 0.000000
1.600000, 0.000000, 0.000000
1.610000, 0.000000, 0.000000
1.620000, 0.000000, 0.000000
1.630000, 0.000000, 0.000000
1.640000, 0.000000, 0.000000
1.650000, 0.000000, 0.000000
1.660000, 0.000000, 0.000000
1.670000, 0.000000, 0.000000
1.680000, 0.000000, 0.000000
1.690000, 0.000000, 0.000000
1.700000, 0.000000, 0.000000
1.710000, 0.000000, 0.000000
1.720000, 0.000000, 0.000000
1.730000, 0.000000, 0.000000
1.740000, 0.000000, 0.000000
1.750000, 0.000000, 0.000000
1.760000, 0.000000, 0.000000
1.770000, 0.000000, 0.000000
1.780000, 0.000000, 0.000000
1.790000, 0.000000, 0.000000
1.800000, 0.000000, 0.000000
1.810000, 0.000000, 0.000000
1.820000, 0.000000, 0.000000
1.830000, 0.000000, 0.000000
1.840000, 0.000000, 0.000000
1.850000, 0.000000, 0.000000
1.860000, 0.000000, 0.000000
1.870000, 0.000000, 0.000000
1.880000, 0.000000, 0.000000
1.890000, 0.000000, 0.000000
1.900000, 0.000000, 0.000000
1.910000, 0.000000, 0.000000
1.920000, 0.000000, 0.000000
1.930000, 0.000000, 0.000000
1.940000, 0.000000, 0.000000
1.950000, 0.000000, 0.000000
1.960000, 0.000000, 0.000000
1.970000, 0.000000, 0.000000
1.980000, 0.000000, 0.000000
1.990000, 0.000000, 0.000000
Test params: step 0.010000, total time 2.000000, motor speed 0.900000
time_seconds, velocity_linear, velocity_angular
0.000000, 0.000000, 0.000000
0.010000, 0.158174, -0.232609
0.020000, 0.428000, 0.000000
0.030000, 0.595478, 0.000000
0.040000, 0.735044, -0.232609
0.050000, 0.846696, -0.232609
0.060000, 0.939739, -0.232609
0.070000, 1.014174, -0.232609
0.080000, 1.060696, 0.000000
0.090000, 1.042087, -0.465218
0.100000, 1.051392, -0.232609
0.110000, 1.088609, 0.232609
0.120000, 1.088609, -0.232609
0.130000, 1.116522, 0.000000
0.140000, 1.107218, -0.232609
0.150000, 1.116522, -0.465218
0.160000, 1.116522, -0.465218
0.170000, 1.135131, -0.465218
0.180000, 1.116522, -0.465218
0.190000, 1.144435, -0.697826
0.200000, 1.144435, -0.232609
0.210000, 1.135131, -0.465218
0.220000, 1.135131, -0.465218
0.230000, 1.144435, -0.232609
0.240000, 1.153739, -0.465218
0.250000, 1.172348, -0.465218
0.260000, 1.153739, -0.465218
0.270000, 1.181652, -0.232609
0.280000, 1.163044, -0.232609
0.290000, 1.181652, -0.232609
0.300000, 1.181652, -0.232609
0.310000, 1.190957, 0.000000
0.320000, 1.190957, 0.000000
0.330000, 1.190957, 0.000000
0.340000, 1.200261, -0.232609
0.350000, 1.200261, -0.232609
0.360000, 1.209566, 0.000000
0.370000, 1.209566, -0.465218
0.380000, 1.228174, 0.000000
0.390000, 1.209566, 0.000000
0.400000, 1.228174, 0.000000
0.410000, 1.218870, 0.232609
0.420000, 1.228174, 0.000000
0.430000, 1.218870, 0.232609
0.440000, 1.228174, 0.000000
0.450000, 1.228174, 0.000000
0.460000, 1.228174, 0.000000
0.470000, 1.218870, -0.232609
0.480000, 1.237479, -0.232609
0.490000, 1.237479, 0.232609
0.500000, 1.228174, 0.000000
0.510000, 1.228174, 0.000000
0.520000, 1.218870, 0.232609
0.530000, 1.237479, -0.232609
0.540000, 1.228174, 0.000000
0.550000, 1.228174, 0.000000
0.560000, 1.228174, 0.000000
0.570000, 1.228174, 0.000000
0.580000, 1.228174, 0.000000
0.590000, 1.218870, -0.232609
0.600000, 1.237479, 0.232609
0.610000, 1.228174, 0.000000
0.620000, 1.228174, 0.000000
0.630000, 1.228174, 0.000000
0.640000, 1.228174, 0.000000
0.650000, 1.228174, 0.000000
0.660000, 1.209566, 0.000000
0.670000, 1.228174, 0.000000
0.680000, 1.228174, 0.000000
0.690000, 1.228174, 0.000000
0.700000, 1.218870, 0.232609
0.710000, 1.237479, -0.232609
0.720000, 1.228174, 0.000000
0.730000, 1.228174, 0.000000
0.740000, 1.228174, 0.000000
0.750000, 1.228174, 0.000000
0.760000, 1.228174, 0.000000
0.770000, 1.218870, -0.232609
0.780000, 1.237479, 0.232609
0.790000, 1.228174, 0.000000
0.800000, 1.228174, 0.000000
0.810000, 1.228174, 0.000000
0.820000, 1.228174, 0.000000
0.830000, 1.218870, 0.232609
0.840000, 1.237479, -0.232609
0.850000, 1.228174, 0.000000
0.860000, 1.228174, 0.000000
0.870000, 1.228174, 0.000000
0.880000, 1.209566, 0.000000
0.890000, 1.228174, 0.000000
0.900000, 1.228174, 0.000000
0.910000, 1.228174, 0.000000
0.920000, 1.228174, 0.000000
0.930000, 1.228174, 0.000000
0.940000, 1.218870, -0.232609
0.950000, 1.237479, 0.232609
0.960000, 1.237479, -0.232609
0.970000, 1.228174, 0.000000
0.980000, 1.237479, 0.232609
0.990000, 1.228174, 0.000000
1.000000, 1.228174, 0.000000
---------- decelerate
1.010000, 1.032783, 0.232609
1.020000, 0.707131, 0.465218
1.030000, 0.437304, 0.232609
1.040000, 0.288435, 0.232609
1.050000, 0.176783, 0.232609
1.060000, 0.102348, 0.232609
1.070000, 0.074435, 0.000000
1.080000, 0.037217, 0.000000
1.090000, 0.027913, 0.232609
1.100000, 0.009304, -0.232609
1.110000, 0.009304, 0.232609
1.120000, 0.000000, 0.000000
1.130000, 0.000000, 0.000000
1.140000, 0.009304, 0.232609
1.150000, 0.009304, 0.232609
1.160000, 0.000000, 0.000000
1.170000, 0.000000, 0.000000
1.180000, 0.000000, 0.000000
1.190000, 0.000000, 0.000000
1.200000, 0.000000, 0.000000
1.210000, 0.000000, 0.000000
1.220000, 0.000000, 0.000000
1.230000, 0.000000, 0.000000
1.240000, 0.000000, 0.000000
1.250000, -0.009304, 0.232609
1.260000, 0.000000, 0.000000
1.270000, 0.000000, 0.000000
1.280000, 0.000000, 0.000000
1.290000, 0.000000, 0.000000
1.300000, 0.000000, 0.000000
1.310000, 0.000000, 0.000000
1.320000, 0.000000, 0.000000
1.330000, 0.000000, 0.000000
1.340000, 0.000000, 0.000000
1.350000, 0.000000, 0.000000
1.360000, 0.000000, 0.000000
1.370000, 0.000000, 0.000000
1.380000, 0.000000, 0.000000
1.390000, 0.000000, 0.000000
1.400000, 0.000000, 0.000000
1.410000, 0.000000, 0.000000
1.420000, 0.000000, 0.000000
1.430000, 0.000000, 0.000000
1.440000, 0.000000, 0.000000
1.450000, 0.000000, 0.000000
1.460000, 0.000000, 0.000000
1.470000, 0.000000, 0.000000
1.480000, 0.000000, 0.000000
1.490000, 0.000000, 0.000000
1.500000, 0.000000, 0.000000
1.510000, 0.000000, 0.000000
1.520000, 0.000000, 0.000000
1.530000, 0.000000, 0.000000
1.540000, 0.000000, 0.000000
1.550000, 0.000000, 0.000000
1.560000, 0.000000, 0.000000
1.570000, 0.000000, 0.000000
1.580000, 0.000000, 0.000000
1.590000, 0.000000, 0.000000
1.600000, 0.000000, 0.000000
1.610000, 0.000000, 0.000000
1.620000, 0.000000, 0.000000
1.630000, 0.000000, 0.000000
1.640000, 0.000000, 0.000000
1.650000, 0.000000, 0.000000
1.660000, 0.000000, 0.000000
1.670000, 0.000000, 0.000000
1.680000, 0.000000, 0.000000
1.690000, 0.000000, 0.000000
1.700000, 0.000000, 0.000000
1.710000, 0.000000, 0.000000
1.720000, 0.000000, 0.000000
1.730000, 0.000000, 0.000000
1.740000, 0.000000, 0.000000
1.750000, 0.000000, 0.000000
1.760000, 0.000000, 0.000000
1.770000, 0.000000, 0.000000
1.780000, 0.000000, 0.000000
1.790000, 0.000000, 0.000000
1.800000, 0.000000, 0.000000
1.810000, 0.000000, 0.000000
1.820000, 0.000000, 0.000000
1.830000, 0.000000, 0.000000
1.840000, 0.000000, 0.000000
1.850000, 0.000000, 0.000000
1.860000, 0.000000, 0.000000
1.870000, 0.000000, 0.000000
1.880000, 0.000000, 0.000000
1.890000, 0.000000, 0.000000
1.900000, 0.000000, 0.000000
1.910000, 0.000000, 0.000000
1.920000, 0.000000, 0.000000
1.930000, 0.000000, 0.000000
1.940000, 0.000000, 0.000000
1.950000, 0.000000, 0.000000
1.960000, 0.000000, 0.000000
1.970000, 0.000000, 0.000000
1.980000, 0.000000, 0.000000
1.990000, 0.000000, 0.000000
Test params: step 0.010000, total time 2.000000, motor speed 1.000000
time_seconds, velocity_linear, velocity_angular
0.000000, 0.000000, 0.000000
0.010000, 0.158174, 0.232609
0.020000, 0.455913, -0.232609
0.030000, 0.651305, 0.000000
0.040000, 0.790870, -0.232609
0.050000, 0.911826, 0.000000
0.060000, 1.014174, -0.232609
0.070000, 1.097913, -0.465218
0.080000, 1.153739, -0.465218
0.090000, 1.153739, 0.000000
0.100000, 1.153739, -0.465218
0.110000, 1.190957, 0.000000
0.120000, 1.181652, -0.232609
0.130000, 1.228174, 0.000000
0.140000, 1.228174, 0.000000
0.150000, 1.218870, 0.232609
0.160000, 1.237479, 0.232609
0.170000, 1.218870, 0.232609
0.180000, 1.237479, 0.232609
0.190000, 1.246783, 0.000000
0.200000, 1.246783, 0.465218
0.210000, 1.237479, 0.232609
0.220000, 1.256087, 0.232609
0.230000, 1.256087, 0.232609
0.240000, 1.274696, 0.232609
0.250000, 1.265392, 0.000000
0.260000, 1.265392, 0.465218
0.270000, 1.274696, 0.232609
0.280000, 1.284000, 0.000000
0.290000, 1.284000, 0.000000
0.300000, 1.293305, 0.232609
0.310000, 1.302609, 0.000000
0.320000, 1.284000, 0.000000
0.330000, 1.302609, 0.000000
0.340000, 1.302609, 0.000000
0.350000, 1.302609, 0.000000
0.360000, 1.311913, -0.232609
0.370000, 1.321218, 0.000000
0.380000, 1.321218, 0.000000
0.390000, 1.311913, 0.232609
0.400000, 1.339826, 0.000000
0.410000, 1.321218, 0.000000
0.420000, 1.330522, -0.232609
0.430000, 1.358435, 0.000000
0.440000, 1.330522, -0.232609
0.450000, 1.358435, 0.000000
0.460000, 1.349131, -0.232609
0.470000, 1.358435, -0.465218
0.480000, 1.367739, -0.232609
0.490000, 1.358435, -0.465218
0.500000, 1.358435, -0.465218
0.510000, 1.367739, -0.232609
0.520000, 1.367739, -0.232609
0.530000, 1.358435, -0.465218
0.540000, 1.367739, -0.232609
0.550000, 1.367739, -0.232609
0.560000, 1.367739, -0.697826
0.570000, 1.367739, -0.232609
0.580000, 1.367739, -0.697826
0.590000, 1.367739, -0.232609
0.600000, 1.367739, -0.232609
0.610000, 1.358435, -0.465218
0.620000, 1.367739, -0.232609
0.630000, 1.377044, -0.465218
0.640000, 1.367739, -0.232609
0.650000, 1.358435, -0.465218
0.660000, 1.367739, -0.232609
0.670000, 1.367739, -0.697826
0.680000, 1.367739, -0.232609
0.690000, 1.367739, -0.232609
0.700000, 1.358435, -0.465218
0.710000, 1.367739, -0.232609
0.720000, 1.367739, -0.232609
0.730000, 1.367739, -0.232609
0.740000, 1.358435, -0.465218
0.750000, 1.367739, -0.232609
0.760000, 1.358435, -0.465218
0.770000, 1.367739, -0.232609
0.780000, 1.367739, -0.697826
0.790000, 1.367739, -0.232609
0.800000, 1.367739, -0.232609
0.810000, 1.358435, -0.465218
0.820000, 1.367739, -0.232609
0.830000, 1.367739, -0.697826
0.840000, 1.367739, -0.232609
0.850000, 1.358435, -0.465218
0.860000, 1.358435, -0.465218
0.870000, 1.367739, -0.232609
0.880000, 1.358435, -0.465218
0.890000, 1.377044, -0.465218
0.900000, 1.358435, -0.465218
0.910000, 1.367739, -0.232609
0.920000, 1.358435, -0.465218
0.930000, 1.358435, -0.465218
0.940000, 1.377044, -0.465218
0.950000, 1.358435, -0.465218
0.960000, 1.367739, -0.232609
0.970000, 1.358435, -0.465218
0.980000, 1.367739, -0.232609
0.990000, 1.377044, -0.465218
1.000000, 1.358435, -0.465218
---------- decelerate
1.010000, 1.172348, 0.000000
1.020000, 0.781565, 0.000000
1.030000, 0.502435, 0.465218
1.040000, 0.325652, 0.232609
1.050000, 0.195391, 0.232609
1.060000, 0.120957, -0.232609
1.070000, 0.074435, 0.000000
1.080000, 0.055826, 0.000000
1.090000, 0.018609, -0.465218
1.100000, 0.018609, 0.000000
1.110000, 0.018609, 0.000000
1.120000, 0.018609, 0.000000
1.130000, 0.000000, 0.000000
1.140000, 0.000000, 0.000000
1.150000, 0.000000, 0.000000
1.160000, 0.000000, 0.000000
1.170000, 0.000000, 0.000000
1.180000, 0.000000, 0.000000
1.190000, 0.000000, 0.000000
1.200000, 0.000000, 0.000000
1.210000, 0.000000, 0.000000
1.220000, 0.000000, 0.000000
1.230000, 0.000000, 0.000000
1.240000, 0.000000, 0.000000
1.250000, 0.000000, 0.000000
1.260000, 0.000000, 0.000000
1.270000, 0.000000, 0.000000
1.280000, 0.000000, 0.000000
1.290000, 0.000000, 0.000000
1.300000, 0.000000, 0.000000
1.310000, 0.000000, 0.000000
1.320000, 0.000000, 0.000000
1.330000, 0.000000, 0.000000
1.340000, 0.000000, 0.000000
1.350000, 0.000000, 0.000000
1.360000, 0.000000, 0.000000
1.370000, 0.000000, 0.000000
1.380000, 0.000000, 0.000000
1.390000, 0.000000, 0.000000
1.400000, 0.000000, 0.000000
1.410000, 0.000000, 0.000000
1.420000, 0.000000, 0.000000
1.430000, 0.000000, 0.000000
1.440000, 0.000000, 0.000000
1.450000, 0.000000, 0.000000
1.460000, 0.000000, 0.000000
1.470000, 0.000000, 0.000000
1.480000, 0.000000, 0.000000
1.490000, 0.000000, 0.000000
1.500000, 0.000000, 0.000000
1.510000, 0.000000, 0.000000
1.520000, 0.000000, 0.000000
1.530000, 0.000000, 0.000000
1.540000, 0.000000, 0.000000
1.550000, 0.000000, 0.000000
1.560000, 0.000000, 0.000000
1.570000, 0.000000, 0.000000
1.580000, 0.000000, 0.000000
1.590000, 0.000000, 0.000000
1.600000, 0.000000, 0.000000
1.610000, 0.000000, 0.000000
1.620000, 0.000000, 0.000000
1.630000, 0.000000, 0.000000
1.640000, 0.000000, 0.000000
1.650000, 0.000000, 0.000000
1.660000, 0.000000, 0.000000
1.670000, 0.000000, 0.000000
1.680000, 0.000000, 0.000000
1.690000, 0.000000, 0.000000
1.700000, 0.000000, 0.000000
1.710000, 0.000000, 0.000000
1.720000, 0.000000, 0.000000
1.730000, 0.000000, 0.000000
1.740000, 0.000000, 0.000000
1.750000, 0.000000, 0.000000
1.760000, 0.000000, 0.000000
1.770000, 0.000000, 0.000000
1.780000, 0.000000, 0.000000
1.790000, 0.000000, 0.000000
1.800000, 0.000000, 0.000000
1.810000, 0.000000, 0.000000
1.820000, 0.000000, 0.000000
1.830000, 0.000000, 0.000000
1.840000, 0.000000, 0.000000
1.850000, 0.000000, 0.000000
1.860000, 0.000000, 0.000000
1.870000, 0.000000, 0.000000
1.880000, 0.000000, 0.000000
1.890000, 0.000000, 0.000000
1.900000, 0.000000, 0.000000
1.910000, 0.000000, 0.000000
1.920000, 0.000000, 0.000000
1.930000, 0.000000, 0.000000
1.940000, 0.000000, 0.000000
1.950000, 0.000000, 0.000000
1.960000, 0.000000, 0.000000
1.970000, 0.000000, 0.000000
1.980000, 0.000000, 0.000000
1.990000, 0.000000, 0.000000

-----------------------
1 Tests 0 Failures 0 Ignored 
OK
