<mxfile host="app.diagrams.net" modified="2024-04-24T18:12:00.412Z" agent="Mozilla/5.0 (X11; Ubuntu; Linux x86_64; rv:125.0) Gecko/20100101 Firefox/125.0" etag="EpyDg-AH9qC_oj85G88D" version="24.3.0" type="google">
  <diagram id="ub7OCSc8Fo_xFu-UBmYd" name="Page-1">
    <mxGraphModel grid="1" page="1" gridSize="10" guides="1" tooltips="1" connect="1" arrows="1" fold="1" pageScale="1" pageWidth="827" pageHeight="1169" math="0" shadow="0">
      <root>
        <mxCell id="0" />
        <mxCell id="1" parent="0" />
        <mxCell id="ap4L7-IdWS8SWDVhOGON-55" value="" style="rounded=0;whiteSpace=wrap;html=1;fontSize=40;strokeWidth=0;fillColor=#666666;strokeColor=#23445d;rotation=90;" vertex="1" parent="1">
          <mxGeometry x="55" y="60" width="1800" height="1800" as="geometry" />
        </mxCell>
        <mxCell id="ap4L7-IdWS8SWDVhOGON-14" value="" style="endArrow=none;html=1;rounded=0;startSize=0;endSize=0;strokeColor=#000000;strokeWidth=1;" edge="1" parent="1">
          <mxGeometry width="50" height="50" relative="1" as="geometry">
            <mxPoint x="-5" y="2300" as="sourcePoint" />
            <mxPoint x="-5" y="1920" as="targetPoint" />
          </mxGeometry>
        </mxCell>
        <mxCell id="ap4L7-IdWS8SWDVhOGON-15" value="" style="endArrow=none;html=1;rounded=0;startSize=0;endSize=0;strokeColor=#000000;strokeWidth=1;" edge="1" parent="1">
          <mxGeometry width="50" height="50" relative="1" as="geometry">
            <mxPoint x="115" y="2300" as="sourcePoint" />
            <mxPoint x="115" y="1919.9999999999995" as="targetPoint" />
          </mxGeometry>
        </mxCell>
        <mxCell id="ap4L7-IdWS8SWDVhOGON-16" value="" style="endArrow=none;html=1;rounded=0;startSize=0;endSize=0;strokeColor=#000000;strokeWidth=1;" edge="1" parent="1">
          <mxGeometry width="50" height="50" relative="1" as="geometry">
            <mxPoint x="1795" y="2300" as="sourcePoint" />
            <mxPoint x="1795" y="1920" as="targetPoint" />
          </mxGeometry>
        </mxCell>
        <mxCell id="ap4L7-IdWS8SWDVhOGON-17" value="" style="endArrow=none;html=1;rounded=0;startSize=0;endSize=0;strokeColor=#000000;strokeWidth=1;" edge="1" parent="1">
          <mxGeometry width="50" height="50" relative="1" as="geometry">
            <mxPoint x="1915" y="2300" as="sourcePoint" />
            <mxPoint x="1915" y="1920" as="targetPoint" />
          </mxGeometry>
        </mxCell>
        <mxCell id="ap4L7-IdWS8SWDVhOGON-19" value="" style="endArrow=classic;startArrow=classic;html=1;rounded=0;startSize=0;endSize=0;strokeColor=#000000;strokeWidth=8;" edge="1" parent="1">
          <mxGeometry width="50" height="50" relative="1" as="geometry">
            <mxPoint x="-5" y="2050" as="sourcePoint" />
            <mxPoint x="115" y="2050" as="targetPoint" />
          </mxGeometry>
        </mxCell>
        <mxCell id="ap4L7-IdWS8SWDVhOGON-20" value="" style="endArrow=classic;startArrow=classic;html=1;rounded=0;startSize=0;endSize=0;strokeColor=#000000;strokeWidth=8;" edge="1" parent="1">
          <mxGeometry width="50" height="50" relative="1" as="geometry">
            <mxPoint x="1795" y="2050" as="sourcePoint" />
            <mxPoint x="1915" y="2050" as="targetPoint" />
          </mxGeometry>
        </mxCell>
        <mxCell id="ap4L7-IdWS8SWDVhOGON-21" value="" style="endArrow=classic;startArrow=classic;html=1;rounded=0;startSize=0;endSize=0;strokeColor=#000000;strokeWidth=8;" edge="1" parent="1">
          <mxGeometry width="50" height="50" relative="1" as="geometry">
            <mxPoint x="115" y="2050" as="sourcePoint" />
            <mxPoint x="1795" y="2050" as="targetPoint" />
          </mxGeometry>
        </mxCell>
        <mxCell id="ap4L7-IdWS8SWDVhOGON-23" value="&lt;font style=&quot;font-size: 60px&quot;&gt;(0, 0)&lt;/font&gt;" style="text;html=1;strokeColor=none;fillColor=none;align=center;verticalAlign=middle;whiteSpace=wrap;rounded=0;fontColor=#E62E2E;fontSize=60;" vertex="1" parent="1">
          <mxGeometry x="-410" y="1600" width="400" height="140" as="geometry" />
        </mxCell>
        <mxCell id="ap4L7-IdWS8SWDVhOGON-25" value="&lt;font&gt;&lt;font style=&quot;font-size: 40px&quot;&gt;0.012&lt;/font&gt;&lt;br&gt;&lt;/font&gt;" style="text;html=1;strokeColor=none;fillColor=none;align=center;verticalAlign=middle;whiteSpace=wrap;rounded=0;" vertex="1" parent="1">
          <mxGeometry x="-75" y="1960" width="270" height="90" as="geometry" />
        </mxCell>
        <mxCell id="ap4L7-IdWS8SWDVhOGON-28" value="&lt;font&gt;&lt;font style=&quot;font-size: 40px&quot;&gt;0.168&lt;/font&gt;&lt;br&gt;&lt;/font&gt;" style="text;html=1;strokeColor=none;fillColor=none;align=center;verticalAlign=middle;whiteSpace=wrap;rounded=0;" vertex="1" parent="1">
          <mxGeometry x="815" y="1960" width="270" height="90" as="geometry" />
        </mxCell>
        <mxCell id="ap4L7-IdWS8SWDVhOGON-29" value="&lt;font&gt;&lt;font style=&quot;font-size: 40px&quot;&gt;0.012&lt;/font&gt;&lt;br&gt;&lt;/font&gt;" style="text;html=1;strokeColor=none;fillColor=none;align=center;verticalAlign=middle;whiteSpace=wrap;rounded=0;" vertex="1" parent="1">
          <mxGeometry x="1715" y="1960" width="270" height="90" as="geometry" />
        </mxCell>
        <mxCell id="ap4L7-IdWS8SWDVhOGON-32" value="&lt;font&gt;&lt;font style=&quot;font-size: 40px&quot;&gt;LAB_DIM_WALL&lt;/font&gt;&lt;br&gt;&lt;/font&gt;" style="text;html=1;strokeColor=none;fillColor=none;align=center;verticalAlign=middle;whiteSpace=wrap;rounded=0;fontColor=#0000FF;" vertex="1" parent="1">
          <mxGeometry x="-65" y="1910" width="270" height="90" as="geometry" />
        </mxCell>
        <mxCell id="ap4L7-IdWS8SWDVhOGON-33" value="&lt;font&gt;&lt;font style=&quot;font-size: 40px&quot;&gt;LAB_DIM_WALL&lt;/font&gt;&lt;br&gt;&lt;/font&gt;" style="text;html=1;strokeColor=none;fillColor=none;align=center;verticalAlign=middle;whiteSpace=wrap;rounded=0;fontColor=#0000FF;" vertex="1" parent="1">
          <mxGeometry x="1735" y="1910" width="270" height="90" as="geometry" />
        </mxCell>
        <mxCell id="ap4L7-IdWS8SWDVhOGON-35" value="&lt;font&gt;&lt;font style=&quot;font-size: 40px&quot;&gt;LAB_DIM_CORRIDOR&lt;/font&gt;&lt;br&gt;&lt;/font&gt;" style="text;html=1;strokeColor=none;fillColor=none;align=center;verticalAlign=middle;whiteSpace=wrap;rounded=0;fontColor=#0000FF;" vertex="1" parent="1">
          <mxGeometry x="740" y="1930" width="460" height="50" as="geometry" />
        </mxCell>
        <mxCell id="ap4L7-IdWS8SWDVhOGON-36" value="" style="endArrow=classic;startArrow=classic;html=1;rounded=0;startSize=0;endSize=0;strokeColor=#000000;strokeWidth=8;" edge="1" parent="1">
          <mxGeometry width="50" height="50" relative="1" as="geometry">
            <mxPoint x="-5" y="2260" as="sourcePoint" />
            <mxPoint x="1795" y="2260" as="targetPoint" />
          </mxGeometry>
        </mxCell>
        <mxCell id="ap4L7-IdWS8SWDVhOGON-37" value="&lt;font&gt;&lt;font style=&quot;font-size: 40px&quot;&gt;0.180&lt;/font&gt;&lt;br&gt;&lt;/font&gt;" style="text;html=1;strokeColor=none;fillColor=none;align=center;verticalAlign=middle;whiteSpace=wrap;rounded=0;" vertex="1" parent="1">
          <mxGeometry x="755" y="2170" width="270" height="90" as="geometry" />
        </mxCell>
        <mxCell id="ap4L7-IdWS8SWDVhOGON-38" value="&lt;font&gt;&lt;font style=&quot;font-size: 40px&quot;&gt;LAB_DIM_CELL&lt;/font&gt;&lt;br&gt;&lt;/font&gt;" style="text;html=1;strokeColor=none;fillColor=none;align=center;verticalAlign=middle;whiteSpace=wrap;rounded=0;fontColor=#0000FF;" vertex="1" parent="1">
          <mxGeometry x="665" y="2120" width="460" height="90" as="geometry" />
        </mxCell>
        <mxCell id="ap4L7-IdWS8SWDVhOGON-47" value="" style="rounded=1;whiteSpace=wrap;html=1;fontSize=40;fontColor=#ffffff;strokeWidth=1;fillColor=#60a917;strokeColor=#2D7600;rotation=0;" vertex="1" parent="1">
          <mxGeometry x="447.5" y="410" width="1015" height="1100" as="geometry" />
        </mxCell>
        <mxCell id="ap4L7-IdWS8SWDVhOGON-54" value="" style="rounded=0;whiteSpace=wrap;html=1;fontSize=40;fontColor=#ffffff;strokeWidth=0;fillColor=#e51400;strokeColor=#B20000;rotation=90;opacity=70;" vertex="1" parent="1">
          <mxGeometry x="-785" y="900" width="1680" height="120" as="geometry" />
        </mxCell>
        <mxCell id="ap4L7-IdWS8SWDVhOGON-56" value="" style="rounded=0;whiteSpace=wrap;html=1;fontSize=40;fontColor=#ffffff;strokeWidth=0;fillColor=#e51400;strokeColor=#B20000;rotation=90;opacity=70;" vertex="1" parent="1">
          <mxGeometry x="1015" y="900" width="1680" height="120" as="geometry" />
        </mxCell>
        <mxCell id="ap4L7-IdWS8SWDVhOGON-57" value="" style="rounded=0;whiteSpace=wrap;html=1;fontSize=40;fontColor=#ffffff;strokeWidth=0;fillColor=#e51400;strokeColor=#B20000;rotation=0;opacity=70;" vertex="1" parent="1">
          <mxGeometry x="115" y="1800" width="1680" height="120" as="geometry" />
        </mxCell>
        <mxCell id="ap4L7-IdWS8SWDVhOGON-59" value="" style="rounded=0;whiteSpace=wrap;html=1;fontSize=40;fontColor=#ffffff;strokeWidth=0;fillColor=#801A1A;strokeColor=#B20000;rotation=0;opacity=90;" vertex="1" parent="1">
          <mxGeometry x="-5" width="120" height="120" as="geometry" />
        </mxCell>
        <mxCell id="ap4L7-IdWS8SWDVhOGON-61" value="" style="rounded=0;whiteSpace=wrap;html=1;fontSize=40;fontColor=#ffffff;strokeWidth=0;fillColor=#801A1A;strokeColor=#B20000;rotation=0;opacity=90;" vertex="1" parent="1">
          <mxGeometry x="1795" width="120" height="120" as="geometry" />
        </mxCell>
        <mxCell id="ap4L7-IdWS8SWDVhOGON-62" value="" style="rounded=0;whiteSpace=wrap;html=1;fontSize=40;fontColor=#ffffff;strokeWidth=0;fillColor=#801A1A;strokeColor=#B20000;rotation=0;opacity=90;" vertex="1" parent="1">
          <mxGeometry x="-5" y="1800" width="120" height="120" as="geometry" />
        </mxCell>
        <mxCell id="ap4L7-IdWS8SWDVhOGON-63" value="" style="rounded=0;whiteSpace=wrap;html=1;fontSize=40;fontColor=#ffffff;strokeWidth=0;fillColor=#801A1A;strokeColor=#B20000;rotation=0;opacity=90;" vertex="1" parent="1">
          <mxGeometry x="1795" y="1800" width="120" height="120" as="geometry" />
        </mxCell>
        <mxCell id="ap4L7-IdWS8SWDVhOGON-46" value="" style="endArrow=none;html=1;rounded=0;startSize=0;endSize=0;strokeColor=#000000;strokeWidth=1;entryX=0.5;entryY=0;entryDx=0;entryDy=0;" edge="1" parent="1" source="ap4L7-IdWS8SWDVhOGON-56" target="ap4L7-IdWS8SWDVhOGON-54">
          <mxGeometry width="50" height="50" relative="1" as="geometry">
            <mxPoint x="1860" y="900" as="sourcePoint" />
            <mxPoint x="60" y="900" as="targetPoint" />
          </mxGeometry>
        </mxCell>
        <mxCell id="ap4L7-IdWS8SWDVhOGON-64" value="" style="endArrow=none;html=1;rounded=0;startSize=0;endSize=0;strokeColor=#000000;strokeWidth=1;entryX=0.5;entryY=0;entryDx=0;entryDy=0;exitX=0.5;exitY=1;exitDx=0;exitDy=0;" edge="1" parent="1" target="ap4L7-IdWS8SWDVhOGON-57">
          <mxGeometry width="50" height="50" relative="1" as="geometry">
            <mxPoint x="955" y="120.00000000000045" as="sourcePoint" />
            <mxPoint x="700" y="980" as="targetPoint" />
          </mxGeometry>
        </mxCell>
        <mxCell id="Jb7I2RtRpGtIs7we_G8D-2" value="" style="rounded=1;whiteSpace=wrap;html=1;fillColor=#000000;" vertex="1" parent="1">
          <mxGeometry x="380" y="840" width="120" height="240" as="geometry" />
        </mxCell>
        <mxCell id="Jb7I2RtRpGtIs7we_G8D-4" value="" style="rounded=1;whiteSpace=wrap;html=1;fillColor=#000000;" vertex="1" parent="1">
          <mxGeometry x="1400" y="840" width="120" height="240" as="geometry" />
        </mxCell>
        <mxCell id="Jb7I2RtRpGtIs7we_G8D-6" value="" style="endArrow=classic;html=1;rounded=0;startSize=0;endSize=0;strokeColor=#000000;strokeWidth=8;exitX=0;exitY=1;exitDx=0;exitDy=0;" edge="1" parent="1">
          <mxGeometry width="50" height="50" relative="1" as="geometry">
            <mxPoint x="53" y="1859" as="sourcePoint" />
            <mxPoint x="2428" y="1859" as="targetPoint" />
          </mxGeometry>
        </mxCell>
        <mxCell id="Jb7I2RtRpGtIs7we_G8D-7" value="" style="endArrow=classic;html=1;rounded=0;startSize=0;endSize=0;strokeColor=#000000;strokeWidth=8;" edge="1" parent="1">
          <mxGeometry width="50" height="50" relative="1" as="geometry">
            <mxPoint x="53.33" y="1860" as="sourcePoint" />
            <mxPoint x="53.33" y="-220" as="targetPoint" />
          </mxGeometry>
        </mxCell>
        <mxCell id="Jb7I2RtRpGtIs7we_G8D-9" value="&lt;font style=&quot;font-size: 60px;&quot;&gt;&lt;font style=&quot;font-size: 60px;&quot;&gt;x&lt;/font&gt;&lt;br style=&quot;font-size: 60px;&quot;&gt;&lt;/font&gt;" style="text;html=1;strokeColor=none;fillColor=none;align=center;verticalAlign=middle;whiteSpace=wrap;rounded=0;fontColor=#E62E2E;fontSize=60;" vertex="1" parent="1">
          <mxGeometry x="2230" y="1950" width="270" height="40" as="geometry" />
        </mxCell>
        <mxCell id="Jb7I2RtRpGtIs7we_G8D-13" value="" style="rounded=1;whiteSpace=wrap;html=1;fillColor=#a20025;fontColor=#ffffff;strokeColor=#6F0000;" vertex="1" parent="1">
          <mxGeometry x="420" y="680" width="120" height="60" as="geometry" />
        </mxCell>
        <mxCell id="Jb7I2RtRpGtIs7we_G8D-14" value="" style="rounded=1;whiteSpace=wrap;html=1;fillColor=#a20025;fontColor=#ffffff;strokeColor=#6F0000;" vertex="1" parent="1">
          <mxGeometry x="1370" y="680" width="120" height="60" as="geometry" />
        </mxCell>
        <mxCell id="Jb7I2RtRpGtIs7we_G8D-15" value="" style="rounded=1;whiteSpace=wrap;html=1;fillColor=#a20025;fontColor=#ffffff;strokeColor=#6F0000;rotation=90;" vertex="1" parent="1">
          <mxGeometry x="680" y="420" width="120" height="60" as="geometry" />
        </mxCell>
        <mxCell id="Jb7I2RtRpGtIs7we_G8D-16" value="" style="rounded=1;whiteSpace=wrap;html=1;fillColor=#a20025;fontColor=#ffffff;strokeColor=#6F0000;rotation=90;" vertex="1" parent="1">
          <mxGeometry x="1150" y="420" width="120" height="60" as="geometry" />
        </mxCell>
        <mxCell id="Jb7I2RtRpGtIs7we_G8D-17" value="" style="endArrow=classic;html=1;rounded=0;startSize=0;endSize=0;strokeColor=#000000;strokeWidth=8;exitX=0.5;exitY=1;exitDx=0;exitDy=0;" edge="1" parent="1" source="Jb7I2RtRpGtIs7we_G8D-31">
          <mxGeometry width="50" height="50" relative="1" as="geometry">
            <mxPoint x="820" y="800" as="sourcePoint" />
            <mxPoint x="960" y="960" as="targetPoint" />
          </mxGeometry>
        </mxCell>
        <mxCell id="Jb7I2RtRpGtIs7we_G8D-19" value="" style="endArrow=classic;html=1;rounded=0;startSize=0;endSize=0;strokeColor=#97D077;strokeWidth=8;entryX=1;entryY=0.5;entryDx=0;entryDy=0;" edge="1" parent="1" target="Jb7I2RtRpGtIs7we_G8D-4">
          <mxGeometry width="50" height="50" relative="1" as="geometry">
            <mxPoint x="960" y="960" as="sourcePoint" />
            <mxPoint x="970" y="970" as="targetPoint" />
          </mxGeometry>
        </mxCell>
        <mxCell id="Jb7I2RtRpGtIs7we_G8D-20" value="" style="endArrow=classic;html=1;rounded=0;startSize=0;endSize=0;strokeColor=#97D077;strokeWidth=8;entryX=0.5;entryY=0;entryDx=0;entryDy=0;" edge="1" parent="1" target="ap4L7-IdWS8SWDVhOGON-47">
          <mxGeometry width="50" height="50" relative="1" as="geometry">
            <mxPoint x="960" y="960" as="sourcePoint" />
            <mxPoint x="1530" y="970" as="targetPoint" />
          </mxGeometry>
        </mxCell>
        <mxCell id="Jb7I2RtRpGtIs7we_G8D-21" value="&lt;font style=&quot;font-size: 60px;&quot;&gt;&lt;font style=&quot;font-size: 60px;&quot;&gt;y&lt;/font&gt;&lt;br style=&quot;font-size: 60px;&quot;&gt;&lt;/font&gt;" style="text;html=1;strokeColor=none;fillColor=none;align=center;verticalAlign=middle;whiteSpace=wrap;rounded=0;fontColor=#E62E2E;fontSize=60;" vertex="1" parent="1">
          <mxGeometry x="-210" y="-150" width="270" height="40" as="geometry" />
        </mxCell>
        <mxCell id="Jb7I2RtRpGtIs7we_G8D-22" value="&lt;u&gt;&lt;font color=&quot;#000000&quot;&gt;Coordinate system:&lt;/font&gt;&lt;br&gt;&lt;/u&gt;Global&lt;br&gt;&lt;font color=&quot;#97d077&quot;&gt;Local / Mouse / Robot&lt;/font&gt;&lt;br&gt;&lt;font color=&quot;#000000&quot;&gt;notation: (x, y, [theta if provided])&lt;/font&gt;" style="text;html=1;strokeColor=none;fillColor=none;align=left;verticalAlign=middle;whiteSpace=wrap;rounded=0;fontSize=60;fontColor=#E62E2E;" vertex="1" parent="1">
          <mxGeometry x="160" y="-390" width="1050" height="320" as="geometry" />
        </mxCell>
        <mxCell id="Jb7I2RtRpGtIs7we_G8D-23" value="&lt;font style=&quot;font-size: 60px&quot;&gt;x&lt;/font&gt;" style="text;html=1;strokeColor=none;fillColor=none;align=center;verticalAlign=middle;whiteSpace=wrap;rounded=0;fontColor=#97D077;fontSize=60;" vertex="1" parent="1">
          <mxGeometry x="1350" y="980" width="290" height="60" as="geometry" />
        </mxCell>
        <mxCell id="Jb7I2RtRpGtIs7we_G8D-24" value="&lt;font style=&quot;font-size: 60px&quot;&gt;y&lt;/font&gt;" style="text;html=1;strokeColor=none;fillColor=none;align=center;verticalAlign=middle;whiteSpace=wrap;rounded=0;fontColor=#97D077;fontSize=60;" vertex="1" parent="1">
          <mxGeometry x="755" y="410" width="290" height="60" as="geometry" />
        </mxCell>
        <mxCell id="Jb7I2RtRpGtIs7we_G8D-27" value="" style="endArrow=baseDash;html=1;rounded=0;startSize=0;endSize=0;strokeColor=#000000;strokeWidth=6;dashed=1;endFill=0;dashPattern=1 1;" edge="1" parent="1">
          <mxGeometry width="50" height="50" relative="1" as="geometry">
            <mxPoint x="960" y="960" as="sourcePoint" />
            <mxPoint x="960" y="1920" as="targetPoint" />
          </mxGeometry>
        </mxCell>
        <mxCell id="Jb7I2RtRpGtIs7we_G8D-29" value="" style="endArrow=classic;html=1;fontSize=60;fontColor=#97D077;strokeColor=#262626;strokeWidth=6;curved=1;" edge="1" parent="1">
          <mxGeometry width="50" height="50" relative="1" as="geometry">
            <mxPoint x="1210" y="1920" as="sourcePoint" />
            <mxPoint x="960" y="1700" as="targetPoint" />
            <Array as="points">
              <mxPoint x="1200" y="1850" />
              <mxPoint x="1150" y="1780" />
              <mxPoint x="1070" y="1720" />
            </Array>
          </mxGeometry>
        </mxCell>
        <mxCell id="Jb7I2RtRpGtIs7we_G8D-30" value="&lt;font color=&quot;#e62e2e&quot;&gt;Theta&lt;/font&gt;" style="text;html=1;strokeColor=none;fillColor=none;align=center;verticalAlign=middle;whiteSpace=wrap;rounded=0;fontSize=60;fontColor=#97D077;" vertex="1" parent="1">
          <mxGeometry x="1120" y="1700" width="180" height="70" as="geometry" />
        </mxCell>
        <mxCell id="Jb7I2RtRpGtIs7we_G8D-31" value="&lt;font style=&quot;font-size: 40px&quot;&gt;&lt;span style=&quot;color: rgb(151 , 208 , 119)&quot;&gt;(0, 0)&lt;br&gt;&lt;/span&gt;(0.090, 0.090, pi/2)&lt;/font&gt;" style="text;html=1;strokeColor=none;fillColor=none;align=center;verticalAlign=middle;whiteSpace=wrap;rounded=0;fontColor=#E62E2E;fontSize=60;" vertex="1" parent="1">
          <mxGeometry x="960" y="690" width="436" height="120" as="geometry" />
        </mxCell>
        <mxCell id="Jb7I2RtRpGtIs7we_G8D-32" value="" style="endArrow=classic;html=1;rounded=0;startSize=0;endSize=0;strokeColor=#000000;strokeWidth=8;" edge="1" parent="1">
          <mxGeometry width="50" height="50" relative="1" as="geometry">
            <mxPoint x="340" y="550" as="sourcePoint" />
            <mxPoint x="480" y="710" as="targetPoint" />
          </mxGeometry>
        </mxCell>
        <mxCell id="Jb7I2RtRpGtIs7we_G8D-37" value="" style="endArrow=none;html=1;fontSize=60;fontColor=#E62E2E;strokeColor=#262626;strokeWidth=1;curved=1;entryX=0;entryY=0.5;entryDx=0;entryDy=0;exitX=1;exitY=0.5;exitDx=0;exitDy=0;" edge="1" parent="1" source="Jb7I2RtRpGtIs7we_G8D-13" target="Jb7I2RtRpGtIs7we_G8D-13">
          <mxGeometry width="50" height="50" relative="1" as="geometry">
            <mxPoint x="300" y="610" as="sourcePoint" />
            <mxPoint x="350" y="560" as="targetPoint" />
          </mxGeometry>
        </mxCell>
        <mxCell id="Jb7I2RtRpGtIs7we_G8D-38" value="" style="endArrow=none;html=1;fontSize=60;fontColor=#E62E2E;strokeColor=#262626;strokeWidth=1;curved=1;entryX=0.5;entryY=0;entryDx=0;entryDy=0;exitX=0.5;exitY=1;exitDx=0;exitDy=0;" edge="1" parent="1" source="Jb7I2RtRpGtIs7we_G8D-13" target="Jb7I2RtRpGtIs7we_G8D-13">
          <mxGeometry width="50" height="50" relative="1" as="geometry">
            <mxPoint x="310" y="620" as="sourcePoint" />
            <mxPoint x="360" y="570" as="targetPoint" />
          </mxGeometry>
        </mxCell>
        <mxCell id="Jb7I2RtRpGtIs7we_G8D-39" value="" style="triangle;whiteSpace=wrap;html=1;fontSize=60;fontColor=#ffffff;fillColor=#e51400;strokeColor=#B20000;opacity=30;" vertex="1" parent="1">
          <mxGeometry x="120" y="670" width="300" height="80" as="geometry" />
        </mxCell>
        <mxCell id="Jb7I2RtRpGtIs7we_G8D-41" value="&lt;font style=&quot;font-size: 40px&quot;&gt;&lt;span style=&quot;color: rgb(151 , 208 , 119)&quot;&gt;(-0.04, 0.01, pi/2)&lt;br&gt;&lt;/span&gt;&lt;/font&gt;&lt;div&gt;&lt;font style=&quot;font-size: 40px&quot;&gt;(0.050, 0.100, pi)&lt;/font&gt;&lt;/div&gt;" style="text;html=1;strokeColor=none;fillColor=none;align=center;verticalAlign=middle;whiteSpace=wrap;rounded=0;fontColor=#E62E2E;fontSize=60;" vertex="1" parent="1">
          <mxGeometry x="130" y="420" width="436" height="120" as="geometry" />
        </mxCell>
        <mxCell id="Jb7I2RtRpGtIs7we_G8D-44" value="&lt;font style=&quot;font-size: 40px&quot;&gt;Theta&lt;/font&gt;" style="text;html=1;strokeColor=none;fillColor=none;align=center;verticalAlign=middle;whiteSpace=wrap;rounded=0;fontSize=60;fontColor=#97D077;" vertex="1" parent="1">
          <mxGeometry x="800" y="870" width="170" height="50" as="geometry" />
        </mxCell>
        <mxCell id="Jb7I2RtRpGtIs7we_G8D-46" value="" style="curved=1;endArrow=classic;html=1;fontSize=40;fontColor=#000000;strokeColor=#97D077;strokeWidth=6;" edge="1" parent="1">
          <mxGeometry width="50" height="50" relative="1" as="geometry">
            <mxPoint x="960" y="810" as="sourcePoint" />
            <mxPoint x="810" y="960" as="targetPoint" />
            <Array as="points">
              <mxPoint x="870" y="810" />
              <mxPoint x="810" y="880" />
            </Array>
          </mxGeometry>
        </mxCell>
        <mxCell id="Jb7I2RtRpGtIs7we_G8D-47" value="" style="endArrow=classic;html=1;rounded=0;startSize=0;endSize=0;strokeColor=#000000;strokeWidth=8;entryX=0;entryY=0.25;entryDx=0;entryDy=0;" edge="1" parent="1" target="ap4L7-IdWS8SWDVhOGON-55">
          <mxGeometry width="50" height="50" relative="1" as="geometry">
            <mxPoint x="1640" y="-99.99999999999955" as="sourcePoint" />
            <mxPoint x="1400" as="targetPoint" />
          </mxGeometry>
        </mxCell>
        <mxCell id="Jb7I2RtRpGtIs7we_G8D-48" value="&lt;font color=&quot;#000000&quot; style=&quot;font-size: 40px&quot;&gt;This is the starting cell&lt;br&gt;cell_xy = [0, 0]&lt;/font&gt;" style="text;html=1;strokeColor=none;fillColor=none;align=center;verticalAlign=middle;whiteSpace=wrap;rounded=0;fontColor=#E62E2E;fontSize=60;" vertex="1" parent="1">
          <mxGeometry x="1430" y="-230" width="436" height="120" as="geometry" />
        </mxCell>
        <mxCell id="Jb7I2RtRpGtIs7we_G8D-49" value="" style="triangle;whiteSpace=wrap;html=1;fontSize=60;fontColor=#ffffff;fillColor=#e51400;strokeColor=#B20000;opacity=30;rotation=-180;" vertex="1" parent="1">
          <mxGeometry x="1490" y="670" width="300" height="80" as="geometry" />
        </mxCell>
        <mxCell id="Jb7I2RtRpGtIs7we_G8D-50" value="" style="triangle;whiteSpace=wrap;html=1;fontSize=60;fontColor=#ffffff;fillColor=#e51400;strokeColor=#B20000;opacity=30;rotation=90;" vertex="1" parent="1">
          <mxGeometry x="1060" y="210" width="300" height="80" as="geometry" />
        </mxCell>
        <mxCell id="Jb7I2RtRpGtIs7we_G8D-51" value="" style="triangle;whiteSpace=wrap;html=1;fontSize=60;fontColor=#ffffff;fillColor=#e51400;strokeColor=#B20000;opacity=30;rotation=90;" vertex="1" parent="1">
          <mxGeometry x="590" y="210" width="300" height="80" as="geometry" />
        </mxCell>
        <mxCell id="6NCc8tEIItW8ofsJ7Eny-1" value="&amp;nbsp;" style="text;whiteSpace=wrap;html=1;" vertex="1" parent="1">
          <mxGeometry x="160" y="-450" width="40" height="40" as="geometry" />
        </mxCell>
        <mxCell id="ap4L7-IdWS8SWDVhOGON-22" value="" style="endArrow=classic;html=1;rounded=0;startSize=0;endSize=0;strokeColor=#000000;strokeWidth=8;" edge="1" parent="1">
          <mxGeometry width="50" height="50" relative="1" as="geometry">
            <mxPoint x="-170" y="1740" as="sourcePoint" />
            <mxPoint x="60" y="1860" as="targetPoint" />
          </mxGeometry>
        </mxCell>
      </root>
    </mxGraphModel>
  </diagram>
</mxfile>
